# Bundle file v0.3
9 492
0 0 0
0 0 0
0 0 0
0 0 0
0 0 0
0 0 0
0 0 0
0 0 0
0 0 0
0 0 0
0 0 0
0 0 0
0 0 0
0 0 0
0 0 0
0 0 0
0 0 0
0 0 0
0 0 0
0 0 0
0 0 0
0 0 0
0 0 0
0 0 0
0 0 0
6.7848882568e+02 -2.0065714856e-01 1.4261751306e-01
9.7152713242e-01 9.8522669594e-02 2.1547230574e-01
-8.8325736077e-02 9.9448935982e-01 -5.6475459713e-02
-2.1984902845e-01 3.5835691419e-02 9.7487548329e-01
1.1366753670e+00 -3.3833464984e-01 2.9535072676e-01
6.7713447176e+02 -1.6993150341e-01 6.9445201364e-02
9.9993402987e-01 6.6765604080e-03 -9.3466275745e-03
-6.7610791597e-03 9.9993627656e-01 -9.0404988443e-03
9.2856725386e-03 9.1030957304e-03 9.9991545139e-01
-1.0785955679e-01 -5.1877178993e-02 2.3437202110e-01
6.7854553841e+02 -1.9000076844e-01 1.4976000416e-01
9.9731839458e-01 5.8319019711e-02 4.4214384323e-02
-5.5760250377e-02 9.9681296610e-01 -5.7050022734e-02
-4.7400572982e-02 5.4431631943e-02 9.9739179018e-01
4.5410725596e-01 -7.1399824762e-01 -1.5466329174e-01
6.7513252887e+02 -2.0087758866e-01 1.9542967607e-01
-9.2375899913e-01 -3.4534609600e-01 -1.6554572026e-01
2.9389849722e-01 -9.1639911748e-01 2.7172841369e-01
-2.4554629879e-01 2.0235792906e-01 9.4802863021e-01
-3.6219238223e-01 2.3660876498e+00 -3.3494226764e-01
1.8866688161e+00 -1.1079467765e+00 -6.7810515885e+00
203 182 70
3 6 344 186.6000 -113.1100 7 508 185.2800 -144.2900 5 343 138.2400 -120.9400
2.1597531477e+00 -8.4374320975e-01 -6.2354902128e+00
221 195 83
4 6 524 232.6400 -94.3100 7 515 231.1000 -133.6500 5 512 191.1600 -107.2800 8 769 -98.2500 198.0900
2.1597531477e+00 -8.4374320975e-01 -6.2354902128e+00
221 195 83
4 6 523 232.6400 -94.3100 7 514 231.1000 -133.6500 5 511 191.1600 -107.2800 8 770 -98.2500 198.0900
2.1790509201e+00 -8.3372008859e-01 -6.1981884014e+00
177 153 51
4 6 791 235.9500 -93.7400 7 766 234.6000 -133.5900 5 509 194.9500 -107.2700 8 1093 -101.3700 199.5500
2.1787402682e+00 -7.3398322157e-01 -6.2149130929e+00
214 189 76
4 6 531 235.6400 -82.6300 7 526 234.7100 -123.2100 5 350 195.4300 -96.4200 8 762 -104.5700 190.7000
2.1678825724e+00 -7.7278369911e-01 -6.2201456428e+00
215 192 85
4 6 793 234.1800 -86.7600 7 775 233.2600 -126.9300 5 725 193.5500 -100.3200 8 1079 -102.0000 193.3800
2.1421140058e+00 -9.3840186981e-01 -6.2783047817e+00
212 189 70
4 6 345 228.6400 -104.2700 7 355 227.0900 -141.5900 5 345 186.2100 -116.0100 8 536 -92.3200 203.0400
2.1869833871e+00 -6.5868563111e-01 -6.1857150193e+00
215 190 73
4 6 347 237.6400 -74.5800 7 360 237.4500 -116.4200 5 353 198.5300 -89.3200 8 525 -109.1600 186.2400
1.8905555114e+00 -1.0698684336e+00 -6.7898742739e+00
41 28 0
3 6 784 186.9300 -109.1600 7 757 185.5800 -140.7200 5 708 138.7000 -116.9300
1.8905555114e+00 -1.0698684336e+00 -6.7898742739e+00
41 28 0
3 6 785 186.9300 -109.1600 7 758 185.5800 -140.7200 5 709 138.7000 -116.9300
2.4988452584e+00 -3.3607120461e-01 -5.3950127504e+00
234 192 195
3 6 547 309.9200 -45.2800 7 534 309.3400 -101.2900 5 535 281.0800 -69.8400
2.4911694163e+00 -3.8501565301e-01 -5.4106579258e+00
240 179 181
3 6 808 308.0100 -51.3500 7 792 307.1300 -106.4600 5 744 278.5100 -75.1800
-8.2560443661e-01 4.9747093014e-01 -4.5920639415e+00
22 27 46
3 6 51 -136.5200 75.6700 7 55 -78.7900 13.0000 5 30 -102.4300 82.8000
-8.2428651581e-01 4.9790949898e-01 -4.5924334371e+00
22 27 46
4 6 52 -136.5200 75.6700 7 56 -78.7900 13.0000 5 31 -102.4300 82.8000 8 77 149.6400 63.8600
-8.2428651581e-01 4.9790949898e-01 -4.5924334371e+00
22 27 46
4 6 53 -136.5200 75.6700 7 57 -78.7900 13.0000 5 32 -102.4300 82.8000 8 76 149.6400 63.8600
-7.9246153890e-01 -2.2961341168e-01 -5.0631231032e+00
23 24 28
3 6 67 -118.7600 -32.0200 7 73 -75.0000 -79.6900 5 44 -112.5200 -31.6400
8.7747346348e-01 5.8916992491e-02 -5.6749170303e+00
210 177 196
3 6 47 101.8400 6.4900 7 51 125.1200 -43.7100 5 46 95.9400 -4.6500
9.2866022673e-02 3.3818782463e-01 -5.5463162079e+00
144 19 27
4 6 50 5.2000 42.7500 7 83 38.7800 -8.4300 5 49 8.8000 40.8200 8 94 43.6400 69.8400
-8.7029335091e-01 6.0851826604e-01 -4.6144400531e+00
201 211 244
4 6 80 -142.6700 92.1200 7 87 -84.0300 29.3000 5 50 -107.6500 101.9400 8 88 152.4400 45.2800
1.0392548512e+00 -4.4508191392e-04 -5.5021385499e+00
173 109 126
3 6 136 125.8900 0.0800 7 103 147.3800 -53.9900 5 67 121.9200 -16.6700
1.0059954601e+00 5.5646418586e-01 -5.5350431333e+00
213 193 208
3 6 75 121.3200 70.0300 7 84 147.1100 11.8300 5 74 123.8400 55.3800
1.0059954601e+00 5.5646418586e-01 -5.5350431333e+00
213 193 208
3 6 76 121.3200 70.0300 7 85 147.1100 11.8300 5 75 123.8400 55.3800
3.8941778851e-01 4.7779688516e-01 -5.4163515527e+00
73 2 3
3 6 103 43.5100 61.2500 7 111 77.2200 6.3200 5 76 52.9700 54.8300
-8.0921549829e-01 3.7455288510e-01 -4.6461451819e+00
190 201 238
3 6 74 -132.4400 56.2900 7 110 -77.1900 -4.1700 5 77 -102.1300 61.2500
4.7621567209e-01 9.6554339566e-01 -5.5773801070e+00
163 18 29
3 6 111 53.8700 121.3600 7 115 87.6900 64.2300 5 111 63.6800 115.4400
2.3127933451e+00 -1.0914724379e+00 -5.8861981486e+00
202 197 105
3 6 129 262.0300 -128.7200 7 132 257.7300 -168.6600 5 116 220.9600 -142.5300
3.7323011076e-02 4.3440041324e-01 -5.5118602956e+00
224 55 94
3 6 141 -1.9600 55.0000 7 207 32.6700 3.6300 5 148 3.8900 54.2200
3.7323011076e-02 4.3440041324e-01 -5.5118602956e+00
224 55 94
3 6 142 -1.9600 55.0000 7 208 32.6700 3.6300 5 149 3.8900 54.2200
8.3660196834e-01 5.4865280807e-01 -5.5346905786e+00
95 0 2
3 6 147 99.7500 69.1500 7 151 127.8000 12.1200 5 150 103.7400 56.8800
-5.2310275968e-01 4.2740650601e-01 -4.6691813913e+00
108 54 70
3 6 146 -88.6900 64.0700 7 149 -35.6500 0.9600 5 151 -54.9600 65.0800
1.8939230418e-01 6.2954265767e-01 -5.4313998117e+00
218 203 221
3 6 151 17.7300 81.4400 7 153 53.7800 25.9800 5 153 28.5800 77.8600
4.2129004821e-01 1.0543297525e+00 -5.5844662998e+00
171 150 172
4 6 157 46.6800 132.2400 7 161 81.7300 75.0500 5 158 57.8300 127.6200 8 159 -23.6000 0.6600
2.4867414947e+00 -4.4649212778e-01 -5.3945352921e+00
226 182 185
3 6 183 308.2200 -59.3500 7 191 306.7500 -113.6000 5 169 278.4000 -82.7900
2.4867414947e+00 -4.4649212778e-01 -5.3945352921e+00
226 182 185
3 6 184 308.2200 -59.3500 7 192 306.7500 -113.6000 5 170 278.4000 -82.7900
9.6548900988e-01 1.5931843606e-01 -5.7318457608e+00
99 3 5
3 6 138 112.1800 19.0000 7 142 133.5300 -32.2400 5 200 104.9900 7.0500
-4.3923201497e-01 3.0080644015e-01 -4.6191147489e+00
156 98 112
4 6 203 -77.4400 45.4200 7 271 -24.4800 -18.2100 5 201 -42.0100 42.7600 8 350 103.7300 103.7300
1.0438097539e+00 6.4279439228e-01 -5.5336933675e+00
45 10 7
3 6 213 125.7400 80.4100 7 152 152.5700 22.0300 5 206 129.4400 65.9400
1.5100996254e-01 5.5900981708e-01 -5.4147312920e+00
82 11 26
3 6 208 12.9700 72.5900 7 285 48.4300 17.4500 5 209 23.3300 69.1700
-5.3833740440e-01 4.6898180946e-01 -4.6583502776e+00
235 181 194
3 6 207 -91.0600 70.9300 7 279 -37.4700 6.7100 5 210 -56.6700 72.0300
-9.1157619042e-01 4.4841479551e-01 -4.6171679844e+00
183 230 255
4 6 280 -149.1700 67.6100 7 280 -91.3600 6.6700 5 214 -117.5800 75.8000 8 338 164.8400 65.2600
-7.7882590783e-01 7.2590307436e-01 -4.5518952029e+00
225 165 176
4 6 295 -130.6800 111.6300 7 297 -70.7300 45.9400 5 218 -90.6300 120.5900 8 328 132.3500 36.5400
9.6297153723e-01 -1.5394148649e-02 -5.6303635875e+00
66 13 22
3 6 381 113.6800 -2.4400 7 379 134.6200 -53.5200 5 263 106.9900 -15.3900
1.2384041478e+00 9.7648041298e-02 -5.5325300630e+00
95 35 39
3 6 269 150.5900 11.3300 7 264 169.3700 -43.5700 5 266 145.0000 -4.7500
1.1180496130e+00 1.0339087867e-01 -5.5867019594e+00
172 101 113
3 6 387 133.9300 11.7800 7 265 154.3500 -41.2100 5 267 128.6500 -2.2500
7.3069394981e-01 1.6630933059e-01 -5.6939749875e+00
111 13 20
3 6 275 83.9800 19.6500 7 269 107.9400 -30.0500 5 272 79.8800 10.4500
2.0577855111e+00 3.4096278730e-01 -6.4453683361e+00
147 111 51
3 6 277 216.2500 35.8400 7 390 224.0700 -12.4700 5 274 184.9800 19.3900
9.1702901177e-01 5.9213995813e-01 -5.5308879402e+00
104 11 16
3 6 282 110.3100 74.3300 7 283 137.0200 16.5700 5 286 114.2200 61.6600
-5.4172568252e-02 5.8933727822e-01 -5.4255651901e+00
106 9 21
3 6 284 -13.8700 76.3700 7 289 23.5400 22.9100 5 287 -3.5000 76.2400
-8.3614467797e-01 4.6641058470e-01 -4.6070040386e+00
255 254 254
4 6 281 -137.4800 70.8400 7 281 -80.3100 8.8500 5 288 -104.9900 77.5100 8 339 153.5300 66.9600
-8.4680829117e-01 7.3734385797e-01 -4.5597026786e+00
224 166 176
4 6 296 -140.0000 113.4000 7 299 -80.4400 48.0300 5 302 -101.7300 123.9500 8 325 143.1400 31.6300
-8.8014395270e-01 7.3415250307e-01 -4.5608029563e+00
227 167 179
4 6 424 -144.8100 112.9700 7 422 -85.1200 47.8800 5 303 -107.0800 124.0400 8 323 149.1000 30.5000
-9.8375292405e-01 7.3363007919e-01 -4.5722271603e+00
133 74 96
3 6 619 -160.5600 112.1700 7 423 -100.0800 48.4700 5 304 -125.0500 125.9200
4.5052493799e-01 1.1020622369e+00 -5.5768929544e+00
161 21 32
4 6 300 50.6900 138.3800 7 305 85.6600 80.4200 5 305 62.3000 133.5100 8 310 -28.8200 -3.3500
1.5698994372e+00 1.2526905437e+00 -5.3217217762e+00
69 31 28
3 6 219 198.3700 161.6700 7 222 225.5300 90.8900 5 306 208.4700 136.3000
1.5698994372e+00 1.2526905437e+00 -5.3217217762e+00
69 31 28
3 6 220 198.3700 161.6700 7 223 225.5300 90.8900 5 307 208.4700 136.3000
2.7081962535e+00 -2.8470483377e+00 -9.8991130803e+00
59 47 61
3 6 328 182.6200 -192.8900 7 483 163.4000 -201.1200 5 332 89.7800 -189.0200
2.1305383921e+00 -8.2557173809e-01 -6.3175518063e+00
216 192 86
3 6 527 226.5100 -91.0200 7 519 225.4900 -129.7100 5 348 184.5600 -103.7300
9.2363899019e-01 -2.7177765640e-02 -5.6673989877e+00
173 134 153
3 6 377 108.0300 -4.3600 7 378 129.1000 -54.1600 5 380 100.7200 -15.4700
2.0987043376e+00 5.9229786130e-01 -6.3132801398e+00
111 64 25
3 6 401 225.1300 63.6500 7 399 234.4000 12.2900 5 399 198.4400 44.8300
-9.3574348561e-01 4.2018411921e-01 -4.6023646666e+00
168 157 198
4 6 595 -152.6200 63.4900 7 881 -95.1300 2.9000 5 417 -122.9800 71.9800 8 661 169.6300 69.4900
-5.8160306898e-01 5.9858863461e-01 -4.5895492093e+00
170 104 126
4 6 413 -99.1700 91.5100 7 409 -42.6600 25.7000 5 422 -59.9800 94.9900 8 482 110.5000 60.5900
-8.7009853235e-01 7.0475821638e-01 -4.5540780961e+00
174 107 127
4 6 421 -144.2600 108.2900 7 594 -84.0300 43.5300 5 430 -106.1300 118.9700 8 469 147.8500 35.3300
-8.7009853235e-01 7.0475821638e-01 -4.5540780961e+00
174 107 127
4 6 422 -144.2600 108.2900 7 595 -84.0300 43.5300 5 431 -106.1300 118.9700 8 468 147.8500 35.3300
1.6851235487e+00 1.3748462587e+00 -5.4684243230e+00
69 30 30
3 6 307 207.4000 172.1400 7 312 232.5700 102.9200 5 446 213.2200 146.8100
2.5352207130e+00 -2.9042884084e+00 -1.0316359632e+01
103 99 121
3 6 481 164.3700 -188.9100 7 694 145.7200 -195.7800 5 480 69.7800 -183.4000
2.2844610704e+00 -3.0200148204e+00 -1.1105101484e+01
108 101 118
3 6 484 138.0000 -182.4600 7 712 119.4700 -186.1400 5 484 40.0200 -175.1400
1.7665738665e+00 -3.4168166684e+00 -1.2661751207e+01
97 90 106
4 6 485 93.8900 -180.3500 7 492 74.5900 -179.1000 5 487 -11.1700 -169.6500 8 700 63.6900 127.9100
2.6224317748e+00 -2.5726347963e+00 -1.0126514135e+01
119 113 129
3 6 492 173.5700 -170.8800 7 718 155.9600 -179.5600 5 489 81.5200 -166.8300
2.5491492059e+00 -2.5904688228e+00 -1.0273105198e+01
67 55 65
3 6 495 166.4300 -169.5200 7 723 149.0700 -177.7400 5 491 73.7700 -165.1000
2.3962299648e+00 -2.5598194865e+00 -1.0678086750e+01
64 53 67
3 6 748 150.9400 -161.1800 7 741 133.9300 -168.0300 5 493 56.9600 -155.7900
2.3962299648e+00 -2.5598194865e+00 -1.0678086750e+01
64 53 67
3 6 749 150.9400 -161.1800 7 742 133.9300 -168.0300 5 494 56.9600 -155.7900
2.3053340345e+00 -2.3580448697e+00 -1.1012039060e+01
73 53 61
3 6 503 141.5800 -144.0300 7 752 124.7300 -150.7400 5 498 47.1300 -137.8800
2.2581373446e+00 -2.3650320527e+00 -1.1071970282e+01
124 120 134
3 6 504 137.8000 -143.6700 7 500 121.4700 -149.9600 5 499 43.2600 -137.4000
2.2581373446e+00 -2.3650320527e+00 -1.1071970282e+01
124 120 134
3 6 505 137.8000 -143.6700 7 499 121.4700 -149.9600 5 500 43.2600 -137.4000
2.3026296440e+00 -2.2406955548e+00 -1.0897481660e+01
121 117 134
3 6 508 142.7700 -138.2400 7 506 127.0200 -145.6600 5 502 49.6000 -132.9400
2.4742911281e+00 -5.4986850124e-01 -5.4653779223e+00
240 183 194
3 6 536 302.5600 -71.4400 7 779 300.5400 -123.4900 5 521 270.6700 -93.1100
2.4920063790e+00 -5.1582935175e-01 -5.4058678928e+00
243 196 214
3 6 537 307.9800 -67.9600 7 529 305.9800 -121.1900 5 523 277.0600 -90.6400
2.4988936194e+00 -4.3364003026e-01 -5.3833385126e+00
234 171 187
3 6 540 310.3000 -57.8500 7 788 308.8400 -112.4500 5 529 280.5700 -81.5900
2.1825400663e+00 -5.6617561897e-01 -6.1915789050e+00
177 147 41
4 6 801 237.2500 -64.3000 7 793 237.7000 -106.8100 5 530 199.0300 -79.4900 8 1049 -111.8700 178.3600
2.5005891431e+00 -3.8158255880e-01 -5.3516292247e+00
237 187 201
4 6 352 312.4100 -51.6000 7 531 311.4800 -107.3800 5 534 283.6500 -75.9800 8 788 -177.6500 214.4200
9.6963449839e-01 2.2206069093e-02 -5.6316712617e+00
171 124 141
3 6 845 114.4000 1.7200 7 836 135.7400 -49.2500 5 567 108.2800 -10.2300
-4.6503939176e-01 -2.4893508939e-02 -4.7567163290e+00
226 178 187
3 6 376 -79.0300 -4.8400 7 554 -30.6200 -61.1600 5 569 -54.6900 -8.4000
-4.1734421997e-01 9.3498364341e-02 -4.6769570441e+00
157 101 112
3 6 574 -73.0800 13.0200 7 841 -23.2000 -46.7300 5 579 -43.3900 9.1800
-4.1734421997e-01 9.3498364341e-02 -4.6769570441e+00
157 101 112
3 6 573 -73.0800 13.0200 7 842 -23.2000 -46.7300 5 580 -43.3900 9.1800
-8.4909630742e-01 8.5342781787e-02 -4.6367719056e+00
215 151 168
4 6 572 -139.1800 12.3200 7 845 -84.6000 -45.1900 5 582 -113.5400 13.9600 8 960 170.8700 114.6500
-4.2486441830e-01 2.4782668070e-01 -4.6303901712e+00
158 99 111
4 6 582 -74.9300 37.0100 7 861 -23.0000 -25.6100 5 585 -40.9000 33.9900 8 687 104.0700 110.5000
1.3963534482e-01 5.8707017734e-01 -5.3999688836e+00
233 218 229
4 6 604 11.2900 76.3100 7 907 47.6200 21.0100 5 603 22.7300 73.2000 8 911 25.0200 50.4100
1.6696540809e-01 6.0590633452e-01 -5.3999007384e+00
229 219 231
4 6 605 14.9400 78.6900 7 909 51.1400 23.0000 5 604 26.8000 75.4900 8 646 21.3600 49.1400
-8.2294568645e-01 6.2227748040e-01 -4.5888014448e+00
241 217 230
3 6 613 -136.0600 95.0200 7 924 -77.2200 31.0200 5 612 -99.9800 103.6300
3.9706505132e-01 9.1620811094e-01 -5.5661994905e+00
203 132 150
4 6 936 44.0700 115.4900 7 956 78.2500 58.9400 5 615 53.8000 110.7300 8 877 -14.9900 15.9700
-8.2827861876e-01 7.0832434818e-01 -4.5566243362e+00
178 107 123
4 6 618 -137.5100 108.8700 7 593 -77.8800 43.7000 5 619 -98.8400 118.7900 8 639 141.8800 36.5900
-9.0691132962e-01 7.1899519741e-01 -4.5546303147e+00
232 172 179
3 6 931 -149.9000 110.2100 7 944 -88.9800 46.0800 5 621 -112.0500 122.2000
4.5165046432e-01 1.0259573009e+00 -5.5762483858e+00
151 23 55
4 6 623 50.6400 128.9000 7 606 85.1300 71.4400 5 623 61.5600 123.6100 8 615 -25.9700 5.1900
2.7450835102e+00 -3.2833507348e+00 -9.8154225229e+00
111 102 120
4 6 661 185.4800 -223.4000 7 652 164.8300 -229.7500 5 640 90.3100 -218.4400 8 1124 -8.4000 212.2300
2.4394701463e+00 -3.6093002279e+00 -1.0724639319e+01
100 95 113
3 6 657 151.1500 -224.7100 7 659 130.3400 -227.1100 5 642 51.5600 -217.0900
2.5338689343e+00 -3.4501769898e+00 -1.0485227879e+01
114 111 129
4 6 672 160.5800 -219.8500 7 664 140.0400 -223.6700 5 644 62.5900 -213.1400 8 1085 12.7100 196.0700
2.5481344447e+00 -3.1152365739e+00 -1.0395468789e+01
117 106 126
3 6 697 163.5300 -200.7800 7 683 144.1600 -206.2900 5 658 67.5100 -194.8700
2.4448832843e+00 -2.8961545070e+00 -1.0619006703e+01
57 46 60
3 6 717 154.2200 -183.0900 7 704 135.9300 -188.8600 5 667 58.6100 -177.0100
2.0803172259e+00 -2.2071017507e+00 -1.1481934818e+01
107 92 111
3 6 765 122.9100 -128.8300 7 764 107.3300 -134.7700 5 704 27.3900 -122.0400
1.8873717771e+00 -2.3789227878e+00 -1.2160781172e+01
97 87 99
3 6 764 105.4600 -131.0700 7 765 89.0800 -134.0100 5 705 6.5100 -122.1600
2.4992247098e+00 -6.4587797420e-01 -5.3939446700e+00
247 138 75
3 6 794 309.1300 -84.3700 7 760 305.9400 -136.4300 5 721 276.5300 -105.9600
2.1711133889e+00 -7.7360554841e-01 -6.2266090839e+00
215 192 85
3 6 792 234.1800 -86.7600 7 774 233.2600 -126.9300 5 724 193.5500 -100.3200
2.5003946577e+00 -4.7427584107e-01 -5.3907755669e+00
249 179 194
3 6 803 309.8300 -62.9200 7 786 308.3300 -116.9200 5 734 279.5200 -86.1400
2.4835194995e+00 -4.6118241078e-01 -5.4283407785e+00
234 189 194
3 6 804 305.8500 -60.7900 7 787 304.5500 -114.4100 5 737 275.4500 -83.8100
-7.1403981605e-02 5.6102602585e-01 -5.3928448443e+00
209 176 193
3 6 893 -16.4700 73.1100 7 905 21.9100 19.4200 5 856 -5.4000 72.9200
1.5529416985e+00 1.0419510939e+00 -5.2339895776e+00
159 96 109
3 6 625 199.9600 136.6100 7 960 225.4200 66.1800 5 883 210.1800 111.0600
5.7155322096e-01 9.6592691590e-01 -5.5897079069e+00
212 136 155
4 6 941 65.7600 120.9300 7 958 98.6100 63.3400 5 884 74.6300 113.9600 8 878 -36.2000 15.7700
7.1309359557e-03 5.0537833005e-01 -5.4840918875e+00
243 238 244
2 6 26 -5.8100 64.9600 7 26 29.9300 12.2700
1.9528044252e+00 8.1134848699e-01 -6.2723018321e+00
193 133 142
2 6 29 210.3700 88.3400 7 27 224.1500 35.7300
2.0741687785e+00 -5.9796293350e-01 -6.3400498244e+00
219 186 70
2 6 44 220.6900 -65.8500 7 48 220.9800 -106.9600
-4.1470098059e-02 2.9417369356e-01 -5.5722179140e+00
235 234 243
2 6 48 -12.2800 36.9800 7 82 22.0800 -11.8000
2.4753195928e-02 1.4530323266e+00 -5.8895058932e+00
161 16 26
2 6 60 -1.4000 173.2900 7 64 33.4800 120.4700
-2.4899742884e-02 1.8198807771e-01 -5.7358973895e+00
198 31 51
2 6 70 -9.8500 22.1800 7 144 21.8300 -23.3500
1.3227660747e+00 2.0854413378e-01 -5.5769353821e+00
188 119 130
2 6 71 160.0900 25.2900 7 80 178.1400 -30.7300
1.4084782170e+00 3.2407782901e-01 -5.7224714756e+00
65 8 8
2 6 73 166.2800 38.6800 7 81 183.6800 -16.3800
1.2534786165e+00 1.2102143171e+00 -5.3956661195e+00
184 137 151
2 6 83 155.8600 155.1500 7 90 185.3700 88.1200
-3.0143668665e+00 3.1126037728e+00 -1.2105621096e+01
24 22 27
2 6 84 -167.2900 177.5300 7 127 -161.1400 181.1900
-3.0143668665e+00 3.1126037728e+00 -1.2105621096e+01
24 22 27
2 6 85 -167.2900 177.5300 7 128 -161.1400 181.1900
-1.2686675617e+00 -2.9184827434e+00 -1.2581852429e+01
63 59 70
2 6 91 -68.4900 -153.3100 7 69 -81.2800 -149.2800
-1.0739148717e-01 2.2291786358e-01 -5.6350338234e+00
231 213 229
2 6 99 -20.9300 27.2300 7 147 13.8800 -18.6700
-8.5455072721e-02 6.7433713356e-01 -5.4543466152e+00
193 32 49
3 6 107 -17.5500 87.3300 7 114 20.9500 33.5300 8 120 49.6700 30.4500
2.3125615532e+00 -1.0915931382e+00 -5.8855854472e+00
202 197 105
2 6 128 262.0300 -128.7200 7 131 257.7300 -168.6600
1.1718417733e+00 1.2588122869e-01 -5.5718607119e+00
189 123 137
2 6 137 141.0900 14.8000 7 141 161.0500 -39.2400
3.0310115113e-01 4.9925667106e-01 -5.4324700099e+00
230 208 219
2 6 145 32.6400 64.5300 7 210 66.2300 9.1900
-7.1156823181e-02 5.4415495813e-01 -5.5012068519e+00
221 208 222
2 6 149 -15.6700 69.9000 7 213 20.4800 17.4600
-8.2052298916e-02 6.6969512757e-01 -5.4217230170e+00
195 34 51
2 6 152 -17.5100 87.0000 7 155 21.0200 32.8000
-1.7137709806e-02 7.4115209107e-01 -5.4875672715e+00
90 1 7
3 6 155 -9.0000 94.8500 7 219 28.7000 41.2300 8 162 38.0500 23.9000
1.1795544541e+00 1.2786112835e+00 -5.9776557254e+00
157 20 30
2 6 160 132.4600 148.4200 7 119 158.1200 91.7300
1.5469275349e+00 1.3967056240e+00 -5.4328210572e+00
168 118 129
2 6 162 191.5700 176.7600 7 167 218.6200 107.2600
8.2819399956e-01 -5.0251997997e+00 -1.4900856533e+01
42 42 51
2 6 169 37.3000 -223.5900 7 183 14.2900 -213.7900
2.3966944615e+00 -3.6406624926e+00 -1.0906244727e+01
37 33 48
3 6 171 146.0200 -222.8700 7 179 125.2300 -224.8900 8 264 26.7100 190.6500
2.3966944615e+00 -3.6406624926e+00 -1.0906244727e+01
37 33 48
3 6 172 146.0200 -222.8700 7 180 125.2300 -224.8900 8 263 26.7100 190.6500
2.9974653649e+00 -2.8954578019e+00 -9.1324206784e+00
60 49 64
2 6 173 217.3900 -212.3100 7 181 197.1100 -222.7600
2.4014809500e+00 -2.0031356228e+00 -8.2102625432e+00
188 174 148
2 6 176 195.3900 -165.5900 7 186 182.8900 -183.3800
4.7323072974e-01 -3.2656139233e+00 -1.3167365778e+01
105 81 64
2 6 177 24.1400 -165.5700 7 187 7.6300 -161.5100
2.5078691034e+00 -3.2808959733e-01 -5.3650733835e+00
224 181 193
2 6 185 312.7800 -44.4500 7 193 311.9800 -101.2100
2.5078691034e+00 -3.2808959733e-01 -5.3650733835e+00
224 181 193
2 6 186 312.7800 -44.4500 7 194 311.9800 -101.2100
6.0217501814e-01 1.6483965147e+00 -5.8675896371e+00
68 1 1
3 6 225 66.7900 195.5100 7 324 100.5000 138.8500 8 203 -60.5300 -66.1000
2.6741926493e+00 -3.1814031548e+00 -1.0017510894e+01
53 42 51
3 6 233 177.5300 -212.5200 7 235 157.5100 -218.7700 8 535 -4.3700 199.5400
2.6714600233e+00 -3.1766129522e+00 -1.0004994671e+01
53 42 51
2 6 234 177.5300 -212.5200 7 236 157.5100 -218.7700
1.7440132846e+00 -3.7028566152e+00 -1.2618593205e+01
10 10 12
2 6 235 92.8200 -195.9600 7 341 72.6800 -193.7500
1.7566398852e+00 -3.7291032955e+00 -1.2701394304e+01
10 10 12
3 6 236 92.8200 -195.9600 7 342 72.6800 -193.7500 8 511 69.2300 140.2600
2.2896255907e+00 -1.9071304697e+00 -8.5102675396e+00
178 170 140
2 6 241 180.2800 -152.2000 7 241 168.6500 -169.1100
1.5169966569e+00 -2.6054462154e+00 -1.2574773376e+01
110 83 65
2 6 244 82.0000 -138.6500 7 244 65.5000 -139.4600
1.3811725045e+00 -2.5486202358e+00 -1.2556289166e+01
18 29 45
2 6 245 74.8500 -135.7600 7 245 58.7700 -136.6100
2.0351018584e+00 -2.1562378985e+00 -1.1627114185e+01
54 40 42
2 6 248 118.8900 -124.3800 7 248 103.3500 -129.8000
2.4741385104e+00 -5.5436822651e-01 -5.4033158246e+00
225 192 209
3 6 255 305.7500 -72.8600 7 359 303.9000 -125.6300 8 794 -165.6200 226.0600
8.3625274017e-01 1.2670859175e-01 -5.7619313198e+00
138 31 47
2 6 270 95.5200 14.6300 7 267 118.5300 -34.5300
5.7470571788e-01 1.2828446910e-01 -5.7060149565e+00
211 42 80
2 6 271 64.4500 15.3500 7 382 90.1700 -33.7200
-8.6630020793e-01 5.6725467452e-01 -4.5901987415e+00
179 225 255
2 6 288 -142.3700 86.7600 7 292 -84.4000 23.2200
-9.2193199673e-01 7.5356200427e-01 -4.5564764863e+00
152 97 120
3 6 297 -152.0100 115.6100 7 300 -91.1500 51.0200 8 322 153.4400 25.9400
1.6861432399e+00 1.3738277170e+00 -5.4708466806e+00
69 30 30
2 6 306 207.4000 172.1400 7 311 232.5700 102.9200
2.3405615016e+00 -3.9064115046e+00 -1.1027069756e+01
84 79 97
2 6 315 140.6800 -236.1700 7 460 119.3700 -236.4100
2.5383942794e+00 -3.3007609613e+00 -1.0489683049e+01
98 89 106
3 6 324 160.9800 -210.7600 7 336 141.2100 -214.7500 8 526 9.6100 188.8900
2.8552085143e+00 -2.8427748774e+00 -9.4220281445e+00
56 43 54
2 6 326 201.4100 -202.3600 7 337 182.0100 -212.0600
2.5117124288e+00 -2.9662681357e+00 -1.0489544288e+01
59 52 64
2 6 330 160.2200 -189.6300 7 339 141.2600 -195.6000
2.5117124288e+00 -2.9662681357e+00 -1.0489544288e+01
59 52 64
2 6 331 160.2200 -189.6300 7 340 141.2600 -195.6000
1.5788232012e+00 -3.2643357667e+00 -1.3243247586e+01
81 74 84
2 6 333 80.8300 -164.6200 7 353 61.6100 -162.5500
1.6389980668e+00 -2.7865970566e+00 -1.2780513314e+01
47 38 45
2 6 337 87.1900 -145.7600 7 504 69.4700 -146.0400
1.9563130775e+00 -2.3211399861e+00 -1.1819491655e+01
52 42 43
2 6 340 112.2200 -131.8100 7 513 96.4900 -135.7700
1.8869536320e+00 -1.1079689951e+00 -6.7820881569e+00
203 182 70
2 6 343 186.6000 -113.1100 7 507 185.2800 -144.2900
2.4801597533e+00 -5.5738446136e-01 -5.4147664430e+00
228 196 213
2 6 348 305.8800 -73.0700 7 358 303.9000 -125.6300
5.6412187151e-01 -2.6022710848e-01 -5.6843878570e+00
123 6 14
2 6 359 62.8500 -32.9500 7 368 86.4700 -78.1700
5.6412187151e-01 -2.6022710848e-01 -5.6843878570e+00
123 6 14
2 6 360 62.8500 -32.9500 7 369 86.4700 -78.1700
2.1104960080e+00 -2.5111108558e-01 -6.1624811213e+00
114 69 10
2 6 362 231.1500 -29.3600 7 545 234.6700 -75.4600
-8.2151351014e-01 -1.8330722397e-01 -5.0174757438e+00
35 44 92
2 6 363 -123.8900 -25.6400 7 371 -78.9400 -74.5800
1.2001553507e+00 1.8916824522e-01 -5.6134231175e+00
173 95 107
2 6 390 143.7400 22.7300 7 383 163.2800 -31.6800
5.0443293641e-01 2.2194844519e-01 -5.6874871615e+00
124 4 14
2 6 391 56.0700 27.1200 7 385 83.2000 -22.8000
2.0814223342e+00 2.8718281776e-01 -6.4210463373e+00
84 49 7
2 6 393 219.5900 30.1500 7 388 226.4700 -17.7900
-3.3667135320e-01 4.1068343898e-01 -4.6696155372e+00
207 155 168
2 6 399 -60.7900 61.2600 7 575 -8.9400 -2.6100
2.1442435321e+00 6.1660739369e-01 -6.3002414899e+00
176 139 90
2 6 402 230.3300 66.5900 7 400 239.6800 14.3700
-5.5609718215e-01 5.5082431714e-01 -4.6115304801e+00
189 126 143
2 6 405 -94.9600 83.6700 7 402 -39.2400 18.6900
-5.5609718215e-01 5.5082431714e-01 -4.6115304801e+00
189 126 143
2 6 406 -94.9600 83.6700 7 403 -39.2400 18.6900
-7.1628151383e-01 5.6165920239e-01 -4.6297383302e+00
247 228 240
2 6 408 -118.8500 84.9200 7 405 -62.0600 21.6800
3.2086563157e-01 6.7007403353e-01 -5.3512631613e+00
219 197 209
2 6 409 35.3800 87.8200 7 586 71.3000 29.8300
4.6330821385e-01 6.8791035490e-01 -5.4092173804e+00
246 224 228
2 6 411 53.3600 88.8200 7 412 87.9100 31.3100
4.6330821385e-01 6.8791035490e-01 -5.4092173804e+00
246 224 228
2 6 412 53.3600 88.8200 7 413 87.9100 31.3100
-5.8150981593e-01 5.9894869919e-01 -4.5905673878e+00
170 104 126
2 6 414 -99.1700 91.5100 7 410 -42.6600 25.7000
2.8639367015e-02 7.7732241594e-01 -5.5240470066e+00
175 25 37
2 6 416 -2.8300 99.0400 7 418 34.1600 45.0900
-6.6450596606e-01 6.5785846913e-01 -4.5673630651e+00
233 178 193
2 6 418 -112.3800 101.0000 7 415 -54.3100 34.9200
-9.6152814733e-01 7.0708526413e-01 -4.5654914995e+00
229 167 180
2 6 423 -157.5200 108.3900 7 417 -97.2200 44.5100
4.4499040083e-01 1.1027389458e+00 -5.5701642460e+00
155 24 37
2 6 429 50.1500 138.7000 7 432 85.0700 80.6100
1.2171757172e+00 1.0881230070e+00 -5.2181956262e+00
184 132 144
2 6 430 156.3400 144.2500 7 431 187.0500 74.8500
2.8119500903e+00 -3.1080511631e+00 -9.6071337759e+00
52 45 58
3 6 462 194.2300 -216.4900 7 662 173.8300 -224.2000 8 1123 -18.1800 211.2300
2.4379242868e+00 -3.3976931995e+00 -1.0687758211e+01
105 97 118
3 6 463 151.9900 -212.6200 7 479 131.9000 -215.9800 8 756 18.6800 186.3400
2.8251802201e+00 -2.9688181468e+00 -9.6010290340e+00
119 111 128
3 6 467 195.5100 -207.0900 7 675 175.8700 -215.8000 8 1106 -21.9400 204.4500
2.1707529842e+00 -3.5067624206e+00 -1.1401441995e+01
85 77 96
2 6 468 127.1700 -205.7500 7 481 107.4000 -206.7600
2.1156220554e+00 -3.4589111009e+00 -1.1576454590e+01
39 35 49
3 6 470 122.3100 -199.8200 7 484 102.6500 -200.8700 8 730 42.3100 160.3800
2.7837202802e+00 -2.7399600530e+00 -9.6767247261e+00
57 41 47
2 6 478 191.8500 -190.1200 7 485 173.0500 -199.6100
2.7837202802e+00 -2.7399600530e+00 -9.6767247261e+00
57 41 47
2 6 479 191.8500 -190.1200 7 486 173.0500 -199.6100
2.3977421479e+00 -2.8759397713e+00 -1.0833547482e+01
57 46 55
2 6 487 148.4600 -178.2100 7 715 130.2600 -183.3600
1.6318124317e+00 -3.4696070870e+00 -1.3010525474e+01
88 85 103
2 6 488 84.7100 -178.1100 7 494 65.0500 -175.9100
2.4416241050e+00 -2.1043668199e+00 -8.1657250029e+00
187 178 143
2 6 491 199.3600 -174.7300 7 487 186.2200 -192.0400
1.6879176813e+00 -3.0867235261e+00 -1.2795469660e+01
54 48 60
2 6 497 89.3100 -161.3500 7 497 70.8300 -160.6300
2.2905804969e+00 -1.9795712430e+00 -8.4545818069e+00
113 98 80
2 6 500 181.4000 -158.8900 7 493 169.3300 -175.7000
2.0932370557e+00 -2.3995606025e+00 -1.1582740368e+01
63 47 56
2 6 506 122.2000 -139.2300 7 509 106.2400 -143.6000
1.9404490376e+00 -2.2438977514e+00 -1.2021086965e+01
61 47 49
2 6 514 109.7400 -125.0700 7 520 93.8300 -128.9800
1.7751955936e+00 -2.1468188807e+00 -1.2429158786e+01
62 47 49
2 6 518 97.3700 -115.5200 7 784 81.7900 -118.3800
2.1739337666e+00 -8.1625329493e-01 -6.2540440544e+00
214 191 78
2 6 526 233.2600 -91.1200 7 518 232.1800 -130.3400
2.4804031315e+00 -5.8189985822e-01 -5.4813914342e+00
221 70 104
2 6 534 302.3400 -75.1200 7 776 299.9600 -126.6200
2.0319242284e+00 -5.2074777190e-01 -6.4930598364e+00
228 191 78
2 6 541 211.3600 -56.0000 7 797 212.3600 -96.1700
2.2196067993e+00 -4.3335797263e-01 -6.1159823146e+00
229 196 57
2 6 545 244.3700 -50.2200 7 536 245.5100 -95.2800
2.2196067993e+00 -4.3335797263e-01 -6.1159823146e+00
229 196 57
2 6 546 244.3700 -50.2200 7 537 245.5100 -95.2800
8.5002472213e-01 -3.3966842258e-01 -5.4835368246e+00
170 47 61
2 6 548 101.6100 -44.7600 7 802 123.0300 -93.0200
2.1683877893e+00 -3.2462482643e-01 -6.1695810269e+00
98 62 2
2 6 552 236.9700 -37.6000 7 812 239.4100 -83.0000
2.1416923956e+00 -2.8692066558e-01 -6.1718110495e+00
121 76 14
2 6 554 234.1000 -33.3400 7 815 237.0400 -79.0500
2.5152413102e+00 -2.1447742533e-01 -5.3560733343e+00
240 192 195
2 6 555 314.3500 -30.0700 7 543 314.6400 -88.4200
-4.5528834961e-01 1.5482830851e-02 -4.7187392436e+00
218 170 181
2 6 567 -78.1200 1.4000 7 833 -29.0700 -56.5500
-3.9329015887e-01 1.8342278549e-01 -4.6693715415e+00
225 164 172
2 6 579 -69.4400 26.9200 7 561 -19.0400 -34.4800
2.1040139843e+00 3.0146266622e-01 -6.3808611444e+00
176 139 48
3 6 580 223.2500 31.6500 7 571 230.2300 -16.6100 8 676 -132.1800 95.1400
-3.0491409126e-01 4.5567590712e-01 -4.7371239018e+00
220 191 199
2 6 597 -54.8200 67.3100 7 579 -4.6100 3.8500
-9.5589662740e-01 4.6187490657e-01 -4.6184252416e+00
173 160 196
2 6 599 -155.4500 69.8100 7 580 -97.3300 9.2400
4.0034779588e-01 6.3065949633e-01 -5.4217676242e+00
243 214 219
2 6 606 45.2300 81.4400 7 584 79.4000 24.6400
1.8759137989e-01 6.7560323476e-01 -5.4488601792e+00
71 6 13
2 6 609 17.5900 87.1600 7 588 53.4900 31.6000
-9.0602992215e-01 5.9830263482e-01 -4.5859944774e+00
242 226 244
2 6 611 -148.5900 91.4300 7 919 -89.8100 28.1700
-8.3274327186e-01 6.8307638194e-01 -4.5558423910e+00
228 165 173
2 6 615 -138.4500 104.9700 7 590 -78.6700 40.0400
-8.8655043725e-01 7.6434122223e-01 -4.5660045212e+00
157 100 122
2 6 622 -146.0100 117.2200 7 599 -85.8400 52.2600
1.0792806906e-01 1.4458220506e+00 -5.8479810275e+00
108 2 1
2 6 627 7.7400 172.9800 7 612 44.1200 120.1900
-3.8787457857e+00 3.8700125604e+00 -1.1688853291e+01
147 93 87
2 6 636 -219.3100 225.3900 7 1042 -212.5700 230.5300
2.2117815083e+00 -3.9428930544e+00 -1.1359481370e+01
51 45 59
2 6 647 129.3400 -231.3900 7 648 108.0500 -230.9200
2.2517360847e+00 -3.8846126480e+00 -1.1240046498e+01
89 87 105
2 6 648 132.9800 -230.5600 7 650 111.9900 -230.3700
9.8407116872e-01 -5.1521379922e+00 -1.4822774856e+01
49 48 57
2 6 649 44.4100 -230.3700 7 670 20.9800 -220.4700
2.5804466327e+00 -3.5263327594e+00 -1.0380094829e+01
111 107 131
2 6 654 164.9600 -226.8300 7 649 144.0000 -230.4600
2.2396468159e+00 -3.7678637027e+00 -1.1201255516e+01
88 85 102
2 6 658 132.9600 -224.5500 7 661 112.2500 -225.0100
2.6891588361e+00 -3.3342296592e+00 -1.0038639449e+01
59 54 71
3 6 667 177.7700 -221.9900 7 656 157.1800 -227.3800 8 777 -1.8600 206.5700
2.9915111727e+00 -2.9928990836e+00 -9.1655847550e+00
56 47 63
2 6 675 215.9600 -218.4400 7 653 195.3000 -228.2500
2.3877496021e+00 -3.4790054265e+00 -1.0898405183e+01
100 96 119
3 6 679 146.0200 -213.4800 7 676 125.6900 -215.8600 8 1059 24.3600 183.3800
2.3118621652e+00 -3.4907860522e+00 -1.1037484242e+01
56 46 58
3 6 683 139.7600 -211.5600 7 679 119.4700 -213.4200 8 1051 29.4900 179.0300
2.3629152432e+00 -3.2797029094e+00 -1.0838693633e+01
53 46 61
2 6 695 145.5500 -202.6500 7 684 126.1300 -206.0200
2.5182778424e+00 -3.1437725868e+00 -1.0464434515e+01
68 58 74
2 6 696 160.5300 -201.3300 7 682 141.2000 -206.3300
2.1520428750e+00 -3.4159641401e+00 -1.1506779512e+01
88 81 97
2 6 700 125.2000 -198.6300 7 690 105.5600 -199.9000
1.6259296975e+00 -3.8736647151e+00 -1.3038233261e+01
36 26 32
3 6 702 83.7200 -198.2300 7 697 63.1400 -194.6800 8 990 78.4200 137.1800
2.5044251610e+00 -3.0706375956e+00 -1.0524207808e+01
101 93 110
2 6 705 158.9400 -195.6400 7 689 139.8900 -200.8100
1.9721161305e+00 -3.5022123809e+00 -1.2032676643e+01
52 47 68
2 6 706 109.9300 -194.6400 7 695 90.2300 -194.3500
1.9705800043e+00 -3.4954883683e+00 -1.2014320819e+01
52 47 68
3 6 707 109.9300 -194.6400 7 696 90.2300 -194.3500 8 998 52.1900 149.1100
2.6538123675e+00 -2.8039257704e+00 -1.0016250232e+01
46 34 46
2 6 712 177.0200 -187.9400 7 693 158.4000 -195.9900
2.0937797346e+00 -3.2860832510e+00 -1.1747935145e+01
90 78 86
2 6 713 119.6500 -187.2700 7 707 100.4300 -188.4600
2.0937797346e+00 -3.2860832510e+00 -1.1747935145e+01
90 78 86
2 6 714 119.6500 -187.2700 7 708 100.4300 -188.4600
1.9683596816e+00 -3.1537015769e+00 -1.1987601964e+01
57 49 60
2 6 724 110.5300 -176.2200 7 725 91.9300 -177.1700
1.9656701202e+00 -3.0719535583e+00 -1.1945552584e+01
89 85 99
2 6 731 110.8700 -172.2900 7 729 92.5000 -173.6500
1.9656701202e+00 -3.0719535583e+00 -1.1945552584e+01
89 85 99
2 6 732 110.8700 -172.2900 7 730 92.5000 -173.6500
2.0323932370e+00 -2.8891779608e+00 -1.1788246840e+01
66 59 74
2 6 742 116.2800 -164.3400 7 744 98.4300 -166.7400
2.0323932370e+00 -2.8891779608e+00 -1.1788246840e+01
66 59 74
2 6 743 116.2800 -164.3400 7 745 98.4300 -166.7400
2.4847300053e+00 -2.5328480246e+00 -1.0469539588e+01
106 99 115
2 6 744 159.5400 -162.6700 7 735 142.3200 -170.4900
2.4847300053e+00 -2.5328480246e+00 -1.0469539588e+01
106 99 115
2 6 745 159.5400 -162.6700 7 736 142.3200 -170.4900
2.3975101667e+00 -2.5608269787e+00 -1.0683762788e+01
64 53 67
2 6 747 150.9400 -161.1800 7 740 133.9300 -168.0300
1.2435204544e+00 -3.0580592003e+00 -1.4113137716e+01
74 67 78
2 6 756 60.2200 -144.4400 7 756 41.5100 -140.8100
2.3109674196e+00 -1.0875414656e+00 -5.8815009728e+00
197 196 106
2 6 767 262.0800 -128.3200 7 739 257.7500 -168.4000
2.3116190199e+00 -2.0352517076e+00 -1.0930277015e+01
71 60 79
2 6 770 143.1900 -125.2500 7 768 128.1000 -133.3900
2.1661504226e+00 -2.0190233582e+00 -1.1171322788e+01
91 79 87
2 6 772 131.5600 -121.4000 7 771 116.6000 -128.7600
2.1661504226e+00 -2.0190233582e+00 -1.1171322788e+01
91 79 87
2 6 773 131.5600 -121.4000 7 772 116.6000 -128.7600
1.9987823474e+00 -2.0413919576e+00 -1.1727292471e+01
62 50 55
2 6 780 115.9900 -116.6200 7 782 100.7300 -122.1600
2.5205421450e+00 -2.6912636446e-01 -5.3281489493e+00
234 190 210
2 6 820 316.3100 -37.3700 7 798 316.3600 -95.2200
2.5258741006e+00 -1.7625699535e-01 -5.3531708947e+00
237 193 207
2 6 829 315.8100 -25.2400 7 811 316.4300 -84.1100
-7.1461522612e-01 4.4465001592e-01 -4.6128533650e+00
181 161 192
2 6 887 -119.1400 67.4600 7 884 -63.0000 4.6200
3.2447606294e-02 5.5709272966e-01 -5.3999451728e+00
194 171 186
2 6 892 -2.6600 72.6400 7 903 34.3400 18.0500
-9.1044955233e-01 4.8717138483e-01 -4.5932186542e+00
147 198 227
2 6 897 -149.4700 74.0600 7 898 -90.9400 12.3700
1.0679527462e-01 5.7173303307e-01 -5.3993145207e+00
239 225 235
2 6 898 6.9300 74.3600 7 904 43.7200 19.4600
-7.8496506702e-01 6.1219809090e-01 -4.5846298634e+00
235 199 216
2 6 912 -130.4100 93.5200 7 921 -72.0100 29.3400
5.4315226787e-01 8.4691576965e-01 -5.5496204811e+00
204 160 177
2 6 926 62.7600 107.0100 7 947 95.0700 49.4700
-6.8666810244e-01 7.0974611552e-01 -4.5668837346e+00
146 87 107
2 6 928 -115.6700 108.9900 7 939 -57.1300 42.6600
3.9768699484e-01 9.1691733823e-01 -5.5696531583e+00
203 132 150
2 6 935 44.0700 115.4900 7 955 78.2500 58.9400
-7.9013808335e-01 7.8290981456e-01 -4.5741414286e+00
216 161 173
2 6 940 -131.1300 119.8900 7 950 -71.4900 54.2200
-3.8711004506e+00 3.4166706836e+00 -1.1662461859e+01
144 79 71
2 6 965 -220.4800 200.4700 7 1002 -214.1100 205.3900
-5.2183395780e+00 3.4331398543e+00 -1.1287090364e+01
128 72 58
2 6 969 -302.9200 204.9600 7 1018 -297.7800 214.9600
-5.2183395780e+00 3.4331398543e+00 -1.1287090364e+01
128 72 58
2 6 970 -302.9200 204.9600 7 1019 -297.7800 214.9600
-5.3578642353e+00 3.4158046197e+00 -1.1200608670e+01
126 72 64
2 6 971 -312.8800 205.0700 7 639 -307.8900 215.6100
-5.3578642353e+00 3.4158046197e+00 -1.1200608670e+01
126 72 64
2 6 972 -312.8800 205.0700 7 640 -307.8900 215.6100
-3.2901640422e+00 3.5997258508e+00 -1.1804026865e+01
142 89 80
2 6 975 -185.4900 209.2400 7 1011 -178.8100 212.2500
-3.2901640422e+00 3.5997258508e+00 -1.1804026865e+01
142 89 80
2 6 976 -185.4900 209.2400 7 1012 -178.8100 212.2500
-4.8132979843e+00 3.6320105909e+00 -1.1368198017e+01
134 72 65
2 6 990 -278.1800 215.7700 7 1035 -272.0900 224.3200
-4.7613658911e+00 3.7110469728e+00 -1.1316039575e+01
135 75 58
2 6 999 -276.4600 221.1600 7 1041 -269.7600 229.7400
-3.4795530393e+00 3.8690555864e+00 -1.1766606820e+01
143 85 86
2 6 1000 -196.1600 224.4000 7 1038 -188.7900 228.4700
6.7449084428e-01 2.7353116080e-01 -5.5287423078e+00
210 33 57
2 6 24 79.2800 34.5200 5 21 81.0300 23.7000
6.7449084428e-01 2.7353116080e-01 -5.5287423078e+00
210 33 57
2 6 25 79.2800 34.5200 5 22 81.0300 23.7000
-7.3162233858e-01 5.4110077054e-01 -4.5925806417e+00
161 183 219
2 6 78 -122.0900 83.1600 5 79 -86.1000 87.6600
2.1047311071e+00 1.0999422270e+00 -5.9457784541e+00
212 176 116
2 6 82 239.0200 126.7900 5 110 224.1300 100.4700
7.7971029965e-01 7.9175334870e-02 -5.7084997694e+00
238 231 239
2 6 97 89.6400 9.1400 5 68 83.5700 -0.8000
9.1650866378e-01 6.1654975829e-01 -5.5339498574e+00
147 17 25
2 6 106 110.0600 77.8300 5 104 114.1400 64.2200
-3.2922642671e+00 3.7545488027e+00 -1.4852622373e+01
28 25 33
2 6 163 -147.0100 176.3000 5 229 -238.9800 220.0500
-3.1553777103e+00 4.0948259531e+00 -1.7076185818e+01
96 85 103
2 6 221 -121.8200 166.7600 5 226 -219.2800 209.9800
2.4531639829e+00 1.7996193783e+00 -5.2485232176e+00
173 157 104
2 6 228 310.3700 229.3600 5 225 312.5400 186.5000
1.9052791222e+00 -1.0003331795e+00 -6.7571444374e+00
203 178 60
2 6 250 189.4600 -102.4000 5 238 142.0900 -111.2500
9.1240617105e-01 -6.4273872424e-02 -5.6095656599e+00
51 9 18
2 6 264 107.6200 -8.8400 5 193 101.4700 -21.0100
3.0500748597e-01 1.2760694454e-01 -5.6012942942e+00
203 42 84
2 6 272 31.6200 15.8600 5 270 30.9200 9.9500
6.6631183215e-01 1.9330024313e-01 -5.6648302642e+00
115 4 13
2 6 276 76.3400 23.5100 5 273 73.4400 14.4300
-5.2320433314e-01 3.8486206016e-01 -4.6278853695e+00
212 160 173
2 6 279 -89.7700 58.2200 5 205 -54.8100 58.1100
-7.3623086997e-01 4.9206361992e-01 -4.5878859651e+00
188 226 254
2 6 283 -123.0700 75.2500 5 215 -87.5300 79.9900
-8.7141267255e-01 6.2360843534e-01 -4.5959920688e+00
243 231 243
2 6 290 -143.0500 95.1800 5 217 -108.1100 104.4900
2.7089028430e+00 -2.8470271461e+00 -9.8970132215e+00
59 47 61
2 6 329 182.6200 -192.8900 5 333 89.7800 -189.0200
2.0194733774e+00 -2.2825417668e+00 -1.1778826725e+01
104 96 105
2 6 342 116.3200 -130.1500 5 236 19.3600 -121.9100
1.7923759335e+00 -1.7757746049e+00 -1.2336696368e+01
75 54 61
2 6 346 99.3300 -96.0700 5 354 2.5000 -86.8300
-7.9326832673e-01 -1.6886555497e-01 -5.0389194769e+00
251 253 255
2 6 364 -119.6500 -23.8100 5 377 -111.6700 -22.9500
8.4865947360e-01 1.3287582468e-02 -5.6806642245e+00
222 196 212
2 6 384 98.4900 0.7500 5 382 91.9800 -9.7500
-8.1490326167e-01 4.0262040966e-01 -4.6038512748e+00
165 217 253
2 6 400 -134.7000 61.1100 5 411 -102.3800 66.4200
1.0742595410e+00 5.9437252173e-01 -5.4796680847e+00
101 6 12
2 6 404 131.1800 75.2800 5 596 135.1300 59.5000
-9.4060704069e-01 6.8448147504e-01 -4.5567828802e+00
173 111 132
3 6 420 -153.7200 105.8600 5 300 -118.9000 116.8000 8 467 160.2400 35.3400
5.6269927484e-01 9.2770991250e-01 -5.5917502696e+00
153 14 28
3 6 426 64.1400 116.5800 5 295 73.7100 108.3400 8 454 -33.3600 19.1400
-7.2815790797e-01 8.9839923519e-01 -4.6270248524e+00
157 123 142
2 6 428 -119.8500 136.1400 5 444 -79.8700 146.7100
9.7828226462e-01 1.5655758840e+00 -5.7365754476e+00
140 25 35
2 6 439 113.4300 189.1900 5 451 122.5800 177.5900
2.9344701551e+00 -3.1378130096e+00 -9.2805696489e+00
123 117 137
3 6 456 209.2100 -226.0400 5 463 116.5300 -221.7100 8 1158 -28.4900 225.8600
2.9344701551e+00 -3.1378130096e+00 -9.2805696489e+00
123 117 137
3 6 457 209.2100 -226.0400 5 464 116.5300 -221.7100 8 1157 -28.4900 225.8600
2.7188447756e+00 -3.2745863361e+00 -9.9516837870e+00
117 111 132
2 6 460 181.3000 -220.0200 5 468 85.9400 -214.5200
2.5484709427e+00 -2.5902992204e+00 -1.0273219830e+01
67 55 65
2 6 494 166.4300 -169.5200 5 490 73.7700 -165.1000
2.3118400398e+00 -2.3609003401e+00 -1.1027242301e+01
73 53 61
2 6 502 141.5800 -144.0300 5 497 47.1300 -137.8800
2.1748061516e+00 -6.8739022737e-01 -6.2320942976e+00
162 136 39
2 6 532 234.6600 -76.9500 5 352 194.6800 -91.5300
2.1361106715e+00 -6.5563330132e-01 -6.3062963068e+00
164 169 118
2 6 535 227.9400 -72.7100 5 527 187.7800 -86.4600
2.2141499839e+00 -4.6180439868e-01 -6.1219288996e+00
225 194 63
2 6 542 243.5100 -53.3500 5 367 207.0500 -69.7000
2.2141499839e+00 -4.6180439868e-01 -6.1219288996e+00
225 194 63
2 6 543 243.5100 -53.3500 5 368 207.0500 -69.7000
1.4064305217e+00 2.1596005386e-01 -5.5561894910e+00
75 11 12
2 6 577 170.4900 24.9200 5 388 164.3600 9.0900
-4.4674963139e-01 2.4822117458e-01 -4.6108102397e+00
226 174 184
3 6 583 -78.5500 37.1400 5 826 -44.1700 34.5900 8 688 107.0500 110.9600
-7.7327760549e-01 3.7003941857e-01 -4.6378427716e+00
245 237 249
2 6 590 -127.4400 55.6100 5 408 -96.3500 60.1700
2.4915675317e+00 -3.4573990719e+00 -1.0526089906e+01
51 47 63
3 6 673 157.4100 -219.5200 5 471 59.3200 -212.6000 8 1082 15.7000 194.6700
2.9674432507e+00 -2.9720818320e+00 -9.2040049888e+00
104 99 117
2 6 676 213.5100 -216.1000 5 470 122.2500 -212.8500
2.9093097813e+00 -2.9789342321e+00 -9.3655267199e+00
115 100 121
2 6 680 205.9700 -213.0800 5 647 114.2300 -209.2800
2.7742822065e+00 -3.0743332598e+00 -9.7257020467e+00
32 30 45
3 6 682 189.5800 -211.6800 5 648 96.0000 -207.0400 8 1107 -15.3900 205.0700
2.6334404478e+00 -3.1593034327e+00 -1.0226918706e+01
115 109 126
2 6 691 171.4500 -207.0500 5 653 75.7900 -201.0300
2.3521151148e+00 -3.2783397175e+00 -1.0967980167e+01
113 109 127
2 6 698 143.3200 -200.1100 5 662 44.4800 -192.8100
2.3958348482e+00 -2.8031940631e+00 -1.0784912384e+01
116 108 123
2 6 728 149.1200 -174.5800 5 673 53.3600 -168.3800
2.5103479569e+00 -2.4376893252e+00 -1.0319873990e+01
112 104 121
2 6 750 163.5200 -159.0000 5 683 71.6100 -154.6200
2.0398833604e+00 -2.0037692620e+00 -1.1648935248e+01
107 90 101
2 6 781 119.0700 -115.3300 5 718 23.9500 -108.0200
2.0398833604e+00 -2.0037692620e+00 -1.1648935248e+01
107 90 101
2 6 782 119.0700 -115.3300 5 719 23.9500 -108.0200
2.4753069198e+00 -5.3124821601e-01 -5.4187428895e+00
208 105 132
2 6 798 305.2800 -69.6600 5 730 274.2400 -92.0400
2.4753069198e+00 -5.3124821601e-01 -5.4187428895e+00
208 105 132
2 6 799 305.2800 -69.6600 5 731 274.2400 -92.0400
2.4837748343e+00 -4.8412119667e-01 -5.4099627740e+00
209 98 134
2 6 802 306.9000 -63.8800 5 733 276.3900 -86.7200
2.4982004932e+00 -4.0915551125e-01 -5.4007787532e+00
208 95 122
2 6 805 309.3400 -54.4800 5 741 279.5400 -78.2500
2.2358505772e+00 -4.1969989182e-01 -6.0717910150e+00
167 135 16
2 6 811 247.9200 -49.0700 5 749 212.3500 -66.1400
2.5091835855e+00 -1.9141887125e-01 -5.3546950154e+00
216 81 99
2 6 824 313.7300 -27.2500 5 756 287.0500 -53.4000
2.5091835855e+00 -1.9141887125e-01 -5.3546950154e+00
216 81 99
2 6 825 313.7300 -27.2500 5 757 287.0500 -53.4000
2.2545838001e+00 -9.0794009027e-03 -6.0174929519e+00
167 136 16
2 6 841 252.8200 -2.5500 5 793 222.2500 -22.5800
2.2545838001e+00 -9.0794009027e-03 -6.0174929519e+00
167 136 16
2 6 842 252.8200 -2.5500 5 795 222.2500 -22.5800
9.1301549443e-01 3.4759164515e-02 -5.6310492852e+00
223 194 208
2 6 846 107.3600 3.3500 5 812 101.9300 -8.2100
2.4437978308e+00 9.9014343642e-02 -5.4993939491e+00
184 158 92
2 6 849 298.5300 9.9700 5 802 274.3400 -16.9700
2.2542453975e-01 6.4410848888e-01 -5.4011117930e+00
187 157 176
2 6 903 22.5600 83.7200 5 866 34.5600 79.4900
-6.5918108038e-01 8.7715809304e-01 -4.6382078124e+00
132 93 111
2 6 944 -109.2100 132.7700 5 890 -69.1000 141.4500
-2.5042510840e+00 3.1146459416e+00 -1.2019308857e+01
91 86 95
2 6 953 -139.8100 179.4700 5 631 -217.0400 222.2400
-2.5042510840e+00 3.1146459416e+00 -1.2019308857e+01
91 86 95
2 6 954 -139.8100 179.4700 5 632 -217.0400 222.2400
2.0682749253e+00 5.0797672689e-01 -6.3344390948e+00
149 88 70
2 7 25 230.1000 4.0700 5 29 193.5600 35.9600
-3.8900087663e-01 -2.8355960627e-01 -5.3202813577e+00
158 131 133
2 7 34 -22.5200 -84.1100 5 27 -58.8300 -39.3400
5.0592236192e-01 1.2740950099e+00 -5.7455250093e+00
18 7 6
2 7 61 90.1400 98.2900 5 84 64.1500 151.2900
1.8756223245e+00 -1.0902009986e+00 -6.7566012609e+00
217 201 91
2 7 99 185.0900 -143.4000 5 57 138.4100 -119.6200
-4.0958302221e-01 -1.3875446167e-01 -5.0152814894e+00
248 206 217
2 7 137 -24.3300 -71.3300 5 191 -53.3500 -23.7200
1.3323135082e+00 1.2925898819e-01 -5.4701601157e+00
131 25 22
2 7 140 182.7500 -40.8400 5 139 159.5000 -2.5000
-8.3314410319e-01 1.9442314242e-01 -4.6428667498e+00
223 160 169
2 7 143 -81.6200 -29.7100 5 101 -109.1300 31.7500
2.6543951287e-01 7.9447590300e-01 -5.5336975797e+00
231 42 72
2 7 157 62.7100 45.0200 5 109 36.6900 97.9300
1.3999217067e+00 1.2864097731e+00 -5.2896622617e+00
201 144 155
2 7 165 207.1400 97.0600 5 159 191.8300 144.2300
1.1492958723e+00 6.8999324817e-02 -5.4524502192e+00
134 59 62
2 7 203 161.9900 -47.2400 5 197 138.5900 -8.1700
9.8352298322e-01 6.6082675231e-02 -5.5351502678e+00
74 10 10
2 7 204 140.5200 -45.6900 5 98 114.9400 -5.8100
7.7140896046e-01 -2.2505189810e+00 -1.2244199550e+01
150 127 126
2 7 251 29.6200 -123.8200 5 239 -55.1800 -110.7500
-7.0667040010e-01 2.9740175423e-01 -4.6239680523e+00
217 151 166
2 7 273 -62.8800 -16.4000 5 202 -86.3000 46.9000
1.9059270175e+00 -1.0178625503e+00 -6.7575090646e+00
234 210 88
2 7 357 188.4500 -136.9000 5 346 141.9200 -112.6100
2.1895808989e+00 -5.9497864248e-01 -6.1505842261e+00
243 216 79
3 7 361 239.6900 -110.9700 5 357 201.5800 -83.0900 8 524 -112.6100 182.7700
2.2338295750e+00 -4.9666220149e-01 -6.0936488503e+00
189 157 34
2 7 364 247.1500 -102.1600 5 362 210.0200 -74.0900
2.2338295750e+00 -4.9666220149e-01 -6.0936488503e+00
189 157 34
2 7 365 247.1500 -102.1600 5 363 210.0200 -74.0900
1.2261264385e+00 -3.0899496881e-01 -5.3438483024e+00
195 133 135
2 7 366 170.9900 -94.3800 5 179 148.0700 -58.4500
-9.6332725500e-01 2.5538271329e-01 -4.6976978889e+00
233 171 185
2 7 387 -98.9600 -19.3400 5 398 -130.1500 43.9500
-4.5537898917e-01 3.3585988286e-01 -4.6157216129e+00
187 125 131
3 7 389 -26.5600 -12.9100 5 404 -44.1800 49.0000 8 677 104.3700 98.9900
-4.9269197349e-01 4.0030917668e-01 -4.6245002518e+00
149 90 108
3 7 393 -31.2800 -3.7000 5 409 -49.4600 60.5200 8 496 106.8300 88.5500
-8.3767518770e-01 7.7061927109e-01 -4.5734258652e+00
185 119 134
2 7 426 -78.5200 52.7200 5 437 -99.6300 129.1200
2.3107325084e+00 -2.2478989960e+00 -1.0924243619e+01
153 149 170
2 7 505 127.0200 -145.6600 5 501 49.6000 -132.9400
2.1263048246e+00 -7.8505127600e-01 -6.2860256911e+00
240 219 94
3 7 523 226.7700 -126.4400 5 349 186.2700 -100.1000 8 759 -96.1500 190.1900
2.1147488466e+00 -7.9720996419e-01 -6.3489042430e+00
185 193 135
2 7 524 223.0300 -126.0400 5 515 181.9900 -100.1500
2.1147488466e+00 -7.9720996419e-01 -6.3489042430e+00
185 193 135
2 7 525 223.0300 -126.0400 5 516 181.9900 -100.1500
2.1978921512e+00 -7.0692953099e-01 -6.1638068438e+00
197 169 49
3 7 527 238.9000 -121.6900 5 351 200.1000 -94.8600 8 764 -108.8100 191.5100
2.5112639301e+00 -3.2339799502e-01 -5.3374651774e+00
254 215 233
2 7 533 314.0600 -101.2700 5 537 286.5800 -69.4600
-8.3882197108e-01 2.3177678871e-01 -4.6693170341e+00
255 216 221
3 7 567 -81.9900 -24.0800 5 395 -110.1300 38.1100 8 675 162.5500 94.2800
2.6171932588e+00 -3.0038029334e+00 -1.0176173550e+01
140 131 150
2 7 687 152.3400 -204.4000 5 661 76.9800 -192.8100
2.5271452454e+00 -2.6403131374e+00 -1.0338671668e+01
128 115 128
2 7 719 146.3200 -179.3200 5 674 70.8100 -166.9900
2.3744234725e+00 -2.7659218714e+00 -1.0821800715e+01
80 68 82
2 7 724 129.5700 -177.2600 5 675 51.7000 -165.5700
2.3169958024e+00 -2.7579478639e+00 -1.0906042279e+01
84 72 87
2 7 726 125.1900 -175.2600 5 677 46.8900 -163.4300
-1.2451978783e+00 -2.9774823779e+00 -1.3344315068e+01
85 46 56
2 7 759 -77.0100 -140.6600 5 340 -171.7000 -129.6000
2.1796932503e+00 -8.3435011004e-01 -6.1995032250e+00
200 173 44
3 7 767 234.6000 -133.5900 5 510 194.9500 -107.2700 8 1092 -101.3700 199.5500
2.1467057842e+00 -8.2220722278e-01 -6.2733141870e+00
196 170 45
2 7 770 228.6600 -130.5400 5 514 188.3100 -104.2800
1.9395530561e+00 -2.0998175346e+00 -1.1897362644e+01
74 49 49
2 7 780 95.6100 -122.8900 5 508 14.3300 -110.1200
2.2095042001e+00 -3.3862779235e-01 -6.1131727039e+00
206 172 32
3 7 810 245.6500 -85.4700 5 539 208.4700 -56.7400 8 1021 -125.3500 163.8900
-6.6017309488e-01 -1.9789234225e-01 -5.0254443612e+00
250 240 251
2 7 817 -57.4100 -77.4100 5 553 -91.9600 -29.0200
-8.8082949476e-01 -2.1514052388e-01 -5.0454999575e+00
155 201 235
2 7 818 -86.3900 -77.3600 5 781 -125.5900 -28.8100
-8.8900307406e-01 -1.6952726552e-01 -5.0002021423e+00
119 141 190
2 7 820 -87.7000 -72.3500 5 378 -125.9800 -22.4700
1.2329310528e+00 -8.3355800418e-02 -5.3513163658e+00
236 173 181
2 7 826 173.7200 -67.4900 5 780 151.6600 -29.4900
-4.2172793654e-01 -2.7046866490e-02 -4.7744805375e+00
255 209 215
2 7 829 -24.8700 -61.3800 5 568 -48.2800 -9.4100
9.0466697326e-01 1.3948175222e-01 -5.7030029441e+00
150 41 66
2 7 855 127.5400 -34.4800 5 821 99.0400 5.3500
-6.3434605329e-01 3.7117734891e-01 -4.6316316634e+00
202 131 146
3 7 873 -51.9000 -6.3400 5 845 -73.1900 57.8700 8 671 128.3100 86.3400
3.5191757701e-01 6.2158788357e-01 -5.3814637634e+00
153 104 124
2 7 910 74.0900 23.8900 5 857 51.4400 74.4900
3.6602320263e-01 6.4556928047e-01 -5.3936726523e+00
247 224 229
2 7 916 75.7900 26.7000 5 606 53.0600 77.4500
-1.0098513585e+00 7.8173396602e-01 -4.6130721057e+00
249 196 203
2 7 951 -102.8900 55.6400 5 889 -128.8200 133.4600
9.0089250138e-01 5.0422879096e-01 -5.4872496852e+00
215 196 204
2 6 105 108.2400 63.3100 8 176 -55.5200 80.4200
1.9097048042e+00 -3.2480412104e+00 -1.2270301452e+01
53 44 53
2 6 489 104.7400 -177.2200 8 707 52.3600 131.3300
2.5722409147e+00 -3.5169359503e+00 -1.0351750889e+01
111 107 131
2 6 653 164.9600 -226.8300 8 1102 11.1000 203.9500
2.3136802733e+00 -3.4929318082e+00 -1.1039935260e+01
56 46 58
2 6 684 139.7600 -211.5600 8 1050 29.4900 179.0300
4.9356541016e-01 1.0633089832e+00 -5.5940851939e+00
140 30 54
2 6 945 55.8200 133.0000 8 857 -31.7100 2.0000
1.4631880364e-01 8.7651313747e-01 -5.5713327745e+00
238 44 79
2 7 37 48.5500 56.1300 8 37 15.3000 11.3600
1.6120766555e+00 2.8763111982e+00 -7.3411978478e+00
141 135 154
2 7 67 169.3200 220.8800 8 60 -151.9200 -166.6100
5.8043916728e-02 1.0407845739e+00 -5.6625103316e+00
103 1 3
2 7 163 37.5900 75.5700 8 108 19.5200 -13.4300
-1.9546581688e+00 1.9889618445e+00 -1.1747509990e+01
121 100 115
2 7 170 -108.9100 117.9400 8 102 167.9300 -199.9600
-2.8693671527e+00 1.0096657779e+00 -1.2616225425e+01
116 95 104
2 7 220 -155.4400 62.6700 8 142 231.4800 -162.6800
1.2915984279e+00 1.0254213196e+00 -5.8468068250e+00
215 42 64
2 7 221 172.3400 63.6000 8 163 -105.7400 24.3600
5.6089747106e-02 1.2579606673e+00 -5.7709078354e+00
181 26 39
2 7 228 38.3600 100.2500 8 151 13.4000 -40.9700
2.4954822880e+00 -5.8122247412e-01 -5.3766348736e+00
255 65 99
2 7 247 307.4100 -129.3900 8 392 -167.1300 230.4900
1.4385935658e-01 5.5710925122e-01 -5.3937195641e+00
104 39 63
2 7 284 48.4300 17.4500 8 228 26.0600 54.2700
8.4806205769e-01 6.9551271713e-01 -5.5824025171e+00
234 44 79
2 7 293 128.5200 29.4000 8 477 -54.7900 54.5000
4.2448194402e-01 8.5925433350e-01 -5.5593643865e+00
181 35 56
2 7 301 81.3000 51.9800 8 318 -15.8700 23.5100
5.7384227802e-01 1.0690829971e+00 -5.5981460683e+00
188 28 41
2 7 304 99.0600 75.3600 8 313 -40.9100 4.0700
5.9978858961e-01 1.6478384783e+00 -5.8629929497e+00
96 5 3
2 7 325 100.5000 138.8500 8 202 -60.5300 -66.1000
2.6471632673e+00 -3.3557632070e+00 -1.0139176779e+01
128 117 138
2 7 334 152.8000 -226.2300 8 537 1.7800 203.8400
1.1245302737e+00 -2.8211920241e-01 -5.3519217352e+00
244 181 189
2 7 367 158.9500 -90.7000 8 521 -48.7100 174.0200
2.0683375671e-01 5.3995459163e-01 -5.4000937610e+00
150 99 104
2 7 401 55.7300 14.8700 8 480 19.3900 58.0600
1.5084776220e+00 1.2534951760e+00 -5.2953997102e+00
185 130 132
2 7 434 219.2000 91.8800 8 460 -160.1800 27.0500
5.1078815678e-01 1.3679297401e+00 -5.8261208078e+00
179 29 36
2 7 438 89.5300 108.5500 8 441 -40.2700 -37.8500
-3.4775861540e-01 1.7175436795e+00 -9.5844513785e+00
6 6 4
2 7 440 -14.9500 110.0600 8 418 71.0400 -142.2300
6.4535044384e-01 1.6360273348e+00 -5.8348101000e+00
211 40 57
2 7 445 106.0300 137.5600 8 439 -65.7900 -62.4900
1.2928996723e+00 2.4936427076e+00 -7.9977598631e+00
19 14 17
2 7 453 126.7800 178.1100 8 294 -94.3900 -147.6300
1.6652881479e+00 -4.6557897592e+00 -1.3095488783e+01
92 88 103
2 7 467 61.9300 -230.2400 8 735 88.4300 168.0500
2.0994246769e+00 -3.9641770741e+00 -1.1720549933e+01
117 113 129
2 7 470 98.0600 -224.2500 8 745 52.5500 178.8400
2.0460179690e+00 -3.3071369468e+00 -1.1821030867e+01
74 62 78
2 7 488 97.0500 -188.1700 8 722 44.5400 146.4700
2.0460179690e+00 -3.3071369468e+00 -1.1821030867e+01
74 62 78
2 7 489 97.0500 -188.1700 8 721 44.5400 146.4700
2.1932210183e+00 -5.4324240895e-01 -6.1517518393e+00
246 219 83
2 7 532 240.4300 -105.6200 8 744 -114.9500 178.5800
-4.7345967491e-01 3.1630909113e-01 -4.6087737980e+00
247 197 208
2 7 572 -29.3000 -15.7500 8 679 107.7400 101.2300
4.6606676305e-01 8.4965463404e-01 -5.5794629173e+00
230 194 215
2 7 597 85.6900 50.4800 8 631 -19.6500 25.2600
4.0455561391e-02 8.8412668252e-01 -5.6037916442e+00
150 9 13
2 7 600 35.6500 57.7000 8 446 27.6500 5.5700
-3.4445550960e-01 1.6593379209e+00 -9.6085873858e+00
72 59 60
2 7 608 -15.2100 105.7200 8 570 72.1300 -138.2100
-6.4237825559e-01 1.7178489461e+00 -1.0192561085e+01
14 12 15
2 7 609 -35.3100 107.0500 8 567 93.2400 -152.0100
1.5925225456e+00 2.3936213921e+00 -7.4488184258e+00
115 95 81
2 7 630 162.9900 176.8100 8 573 -130.3200 -126.1500
2.6359904255e+00 -3.4001994913e+00 -1.0210063136e+01
124 118 149
2 7 657 150.7200 -227.1600 8 1100 3.9500 203.5900
2.7116258179e+00 -3.2591583503e+00 -9.9085114267e+00
146 138 160
2 7 660 161.3300 -225.9900 8 1113 -5.9000 207.4200
2.8768192422e+00 -3.0396012442e+00 -9.4401770411e+00
142 138 159
2 7 663 181.7000 -224.1700 8 1133 -25.4500 214.2800
1.8148624650e+00 -4.3064433280e+00 -1.2631433428e+01
107 103 120
2 7 666 73.7500 -222.8800 8 1028 75.0700 166.7300
2.7988296412e+00 -3.0667034697e+00 -9.6660586987e+00
124 114 122
2 7 668 172.1200 -220.2500 8 1112 -17.7700 206.9300
2.3089203201e+00 -3.2473937568e+00 -1.1061039879e+01
116 110 129
2 7 692 120.2400 -199.6900 8 1029 25.2400 166.9400
1.8377039382e+00 -3.1973040725e+00 -1.2401429083e+01
110 102 119
2 7 734 81.0800 -172.4500 8 975 55.6000 125.2100
-8.5976811127e-01 2.9617056090e-01 -4.6499468959e+00
229 166 184
2 7 865 -84.3800 -15.0300 8 945 163.7500 86.0900
-4.9449455321e-01 4.2888856766e-01 -4.6528371688e+00
196 138 152
2 7 880 -31.3200 0.9600 8 940 105.8800 83.1800
-6.3897234046e-01 6.6682087558e-01 -4.5676032192e+00
198 130 142
2 7 933 -50.5400 36.0100 8 909 115.5600 49.9900
-9.0456228504e-01 7.0152210637e-01 -4.5505587567e+00
195 122 141
2 7 941 -89.0300 43.3100 8 638 153.5800 34.4400
4.5466529261e-01 9.0579647374e-01 -5.5738050634e+00
234 150 171
2 7 952 84.8600 57.2300 8 881 -20.9300 18.8700
5.8067334229e-01 1.0495475913e+00 -5.6004329267e+00
159 29 51
2 7 962 99.9700 73.1200 8 616 -40.4300 6.4300
4.0359012785e-01 1.0354948909e+00 -5.5830719700e+00
243 209 229
2 7 963 79.6200 72.9600 8 858 -20.5700 2.2900
4.4521612914e-01 1.0500423939e+00 -5.5881625928e+00
225 203 227
2 7 966 84.3800 74.2800 8 856 -25.8500 1.9700
1.1851369869e-01 1.5902345622e+00 -5.8769145078e+00
127 2 0
2 7 985 45.9000 136.0100 8 600 -5.7900 -78.3600
2.5069661032e+00 -2.4642000583e-01 -5.3297981794e+00
227 157 174
2 5 123 287.8700 -60.4400 8 271 -185.1400 203.5500
2.5069661032e+00 -2.4642000583e-01 -5.3297981794e+00
227 157 174
2 5 124 287.8700 -60.4400 8 270 -185.1400 203.5500
2.5749388621e+00 9.1280341464e-03 -5.3068163143e+00
219 176 191
2 5 132 299.2700 -30.7900 8 191 -204.4300 183.1000
2.5620580309e+00 -4.1209667582e-01 -5.2931747219e+00
222 87 50
2 5 171 293.4800 -81.1000 8 281 -184.3700 221.8700
2.5329190910e+00 -2.9856977408e-01 -5.2932662709e+00
213 37 57
2 5 176 292.1400 -67.4100 8 276 -186.9700 211.1000
2.5414551962e+00 -2.1867480160e-01 -5.2675453283e+00
215 38 58
2 5 178 296.1500 -58.3800 8 382 -192.4200 205.4600
2.5116273733e+00 -1.6091269156e-01 -5.2945110831e+00
220 180 190
2 5 181 292.0600 -50.8300 8 267 -191.0800 197.9200
2.4890753284e+00 -2.2525654578e-02 -5.3136270612e+00
214 39 52
2 5 187 290.5200 -33.8500 8 260 -194.2900 183.4300
2.5465012138e+00 1.5330840750e-01 -5.2004853449e+00
220 188 205
2 5 195 307.1600 -14.3700 8 365 -213.0900 174.4900
2.5084789828e+00 -5.0425452368e-01 -5.3619118800e+00
214 37 60
2 5 245 281.8100 -90.2600 8 388 -172.5800 224.8800
-3.1171309993e+00 -5.8776150253e-01 -1.4955909947e+01
103 100 125
2 5 271 -251.5100 9.5900 8 591 245.4600 -98.1200
-6.6818797469e-01 6.5867289898e-01 -4.5605347480e+00
220 166 180
2 5 294 -72.7500 107.1700 8 331 120.3300 50.2100
2.8166796383e+00 -2.9819092316e+00 -9.6895672985e+00
87 79 92
2 5 330 100.7500 -202.1300 8 773 -19.7900 201.8600
2.1339116975e+00 -9.5824766308e-01 -6.2065017988e+00
175 149 39
2 5 344 188.7800 -119.8700 8 778 -92.8400 208.1300
2.1714073031e+00 -6.2077577205e-01 -6.2177808908e+00
162 134 36
2 5 356 196.0000 -84.5800 8 750 -108.1700 181.2200
2.2063200785e+00 -4.9988105923e-01 -6.1283463392e+00
213 182 65
2 5 364 205.4400 -73.5900 8 522 -118.4700 176.4500
2.5497491107e+00 -2.9941489718e-01 -5.2179876046e+00
218 37 51
2 5 369 299.8100 -69.0400 8 789 -191.4700 215.8500
-3.1355859799e+00 -6.1916955809e-01 -1.5127385255e+01
105 101 122
2 5 387 -251.0700 8.5100 8 592 245.4600 -98.1200
2.1522251180e+00 5.4794448801e-01 -6.2461072855e+00
135 83 24
2 5 396 206.3900 39.3500 8 488 -150.3700 79.8300
-2.2914206404e+00 3.8089454468e-01 -1.2284339024e+01
30 22 27
2 5 406 -219.9200 55.7000 8 424 212.6200 -115.9500
-2.2914206404e+00 3.8089454468e-01 -1.2284339024e+01
30 22 27
2 5 407 -219.9200 55.7000 8 423 212.6200 -115.9500
4.1701602546e-01 1.1185310935e+00 -5.5923071418e+00
205 168 181
2 5 439 57.8200 135.8900 8 611 -25.3300 -6.9000
4.1701602546e-01 1.1185310935e+00 -5.5923071418e+00
205 168 181
2 5 440 57.8200 135.8900 8 612 -25.3300 -6.9000
9.5936488472e-01 1.6114409328e+00 -5.6992496373e+00
144 21 29
2 5 452 122.4500 184.3200 8 606 -102.6500 -44.7700
2.7357602596e+00 -3.5019914217e+00 -9.9030250608e+00
56 54 64
2 5 457 86.3400 -229.8100 8 1142 -2.3800 219.8100
2.1124226270e+00 -8.9968556800e-01 -6.3285619810e+00
202 176 70
2 5 506 181.4600 -110.9800 8 768 -89.8800 196.8600
2.1882562736e+00 -7.5298111944e-01 -6.1701468737e+00
159 131 35
2 5 517 198.3300 -99.4400 8 1084 -106.0900 194.6700
2.1882562736e+00 -7.5298111944e-01 -6.1701468737e+00
159 131 35
2 5 518 198.3300 -99.4400 8 1083 -106.0900 194.6700
2.2258347925e+00 -4.5788108544e-01 -6.0747712644e+00
172 142 32
2 5 536 210.7000 -70.1200 8 1046 -123.4600 176.0200
2.5347455849e+00 -4.6370698530e-02 -5.2425086378e+00
221 186 200
2 5 547 299.7700 -37.9700 8 1074 -200.9200 190.8500
2.5368637100e+00 -1.0018576928e-03 -5.2228734070e+00
228 178 201
2 5 550 302.1700 -32.7600 8 1067 -204.0900 187.7400
2.5119620353e+00 2.6899847627e-02 -5.2955838316e+00
229 167 175
2 5 554 294.7300 -28.3300 8 1055 -199.5300 180.3700
2.5119620353e+00 2.6899847627e-02 -5.2955838316e+00
229 167 175
2 5 555 294.7300 -28.3300 8 1054 -199.5300 180.3700
2.5482380361e+00 1.8611980751e-01 -5.1778338886e+00
208 42 65
2 5 565 309.3600 -10.5600 8 1044 -216.1100 172.7500
2.5607268195e+00 2.8187740188e-01 -5.1573590043e+00
190 71 99
2 5 573 313.6400 0.8600 8 1024 -222.7100 164.8500
2.5607268195e+00 2.8187740188e-01 -5.1573590043e+00
190 71 99
2 5 574 313.6400 0.8600 8 1025 -222.7100 164.8500
-2.8237598670e+00 3.5405259362e-02 -1.3227544927e+01
34 25 28
2 5 588 -245.8200 38.2700 8 841 238.6100 -112.7600
-2.0103263360e+00 4.9082368703e-01 -1.1856911520e+01
41 29 37
2 5 597 -204.5400 61.4000 8 583 197.9800 -114.1400
-1.9132311913e+00 5.4915405072e-01 -1.1705102613e+01
39 29 37
2 5 600 -198.9300 64.7400 8 581 192.2700 -114.6100
-1.9132311913e+00 5.4915405072e-01 -1.1705102613e+01
39 29 37
2 5 601 -198.9300 64.7400 8 580 192.2700 -114.6100
-7.1416934084e-01 4.4396903081e-01 -4.6063490287e+00
166 140 175
2 5 602 -84.8400 71.5400 8 663 136.6100 74.9300
-1.0381714678e+00 6.2226054146e-01 -4.5750010940e+00
177 111 130
2 5 613 -136.4300 107.9100 8 640 176.6100 38.4600
3.6923050388e-01 9.0196902729e-01 -5.5605044691e+00
147 25 40
2 5 614 50.2900 109.4700 8 879 -11.5600 16.7900
3.9661507337e-01 9.1589335373e-01 -5.5655469723e+00
183 112 129
2 5 616 53.8000 110.7300 8 876 -14.9900 15.9700
5.6641745391e-01 9.9701199642e-01 -5.5920343515e+00
132 8 22
2 5 618 74.9700 117.8300 8 621 -36.2700 11.8200
2.8058823675e+00 -2.8979123048e+00 -9.5899857576e+00
41 31 41
2 5 656 102.5400 -198.8700 8 1095 -22.8200 201.0200
2.1479419316e+00 -8.7912161704e-01 -6.2577136884e+00
205 177 65
2 5 717 188.4300 -110.5400 8 1091 -95.6000 199.5400
2.5169231008e+00 -2.6674639774e-01 -5.3154958203e+00
234 185 202
2 5 750 289.3900 -63.1300 8 1109 -185.9700 206.5600
2.5094150095e+00 -1.7359696828e-01 -5.3233567896e+00
230 183 190
2 5 760 289.4200 -51.8700 8 1087 -189.1200 197.4300
2.5546393705e+00 -2.5299444685e-02 -5.2159316317e+00
206 52 79
2 5 772 304.1000 -35.9400 8 1075 -204.9400 190.8300
2.5290945173e+00 -1.8822754126e-02 -5.2546450266e+00
190 82 110
2 5 774 298.7900 -34.4600 8 1066 -200.9900 187.3900
2.5563054905e+00 1.6207919903e-01 -5.1676096825e+00
233 168 187
2 5 805 310.7400 -13.6900 8 1047 -216.1300 175.7700
2.5598890033e+00 2.0560884384e-01 -5.1520476758e+00
250 156 168
2 5 810 312.9300 -8.5300 8 1043 -219.3000 172.5300
2.5598890033e+00 2.0560884384e-01 -5.1520476758e+00
250 156 168
2 5 811 312.9300 -8.5300 8 1042 -219.3000 172.5300
