ply
format ascii 1.0
element face 0
property list uchar int vertex_indices
element vertex 391
property float x
property float y
property float z
property uchar diffuse_red
property uchar diffuse_green
property uchar diffuse_blue
end_header
1.872523e+00 -1.099194e+00 -6.767069e+00 203 182 70
2.145261e+00 -8.349070e-01 -6.226660e+00 221 195 83
2.145261e+00 -8.349070e-01 -6.226660e+00 221 195 83
2.163370e+00 -8.245712e-01 -6.187588e+00 177 153 51
2.163580e+00 -7.254123e-01 -6.205140e+00 214 189 76
2.154463e+00 -7.645593e-01 -6.213921e+00 215 192 85
2.125918e+00 -9.289879e-01 -6.266393e+00 212 189 70
2.170922e+00 -6.504121e-01 -6.175457e+00 215 190 73
1.876477e+00 -1.061304e+00 -6.775842e+00 41 28 0
1.876477e+00 -1.061304e+00 -6.775842e+00 41 28 0
2.479739e+00 -3.265433e-01 -5.386960e+00 234 192 195
2.472036e+00 -3.753270e-01 -5.402429e+00 240 179 181
-8.322832e-01 5.146794e-01 -4.588547e+00 22 27 46
-8.322832e-01 5.146794e-01 -4.588547e+00 22 27 46
-8.322832e-01 5.146794e-01 -4.588547e+00 22 27 46
-7.995297e-01 -2.118779e-01 -5.057596e+00 23 24 28
8.655645e-01 6.982697e-02 -5.659946e+00 210 177 196
8.616056e-02 3.505407e-01 -5.529414e+00 144 19 27
-8.740807e-01 6.235453e-01 -4.592278e+00 201 211 244
1.025707e+00 1.108817e-02 -5.486555e+00 173 109 126
9.939376e-01 5.652476e-01 -5.521661e+00 213 193 208
9.939376e-01 5.652476e-01 -5.521661e+00 213 193 208
3.800021e-01 4.889823e-01 -5.404475e+00 73 2 3
-8.161182e-01 3.919607e-01 -4.642204e+00 190 201 238
4.680248e-01 9.735712e-01 -5.567791e+00 163 18 29
2.294211e+00 -1.080238e+00 -5.875111e+00 202 197 105
2.989044e-02 4.462667e-01 -5.502718e+00 224 55 94
2.989044e-02 4.462667e-01 -5.502718e+00 224 55 94
8.254109e-01 5.579099e-01 -5.521493e+00 95 0 2
-5.309041e-01 4.439024e-01 -4.662548e+00 108 54 70
1.813802e-01 6.405043e-01 -5.421513e+00 218 203 221
4.116156e-01 1.060410e+00 -5.567245e+00 171 150 172
2.467443e+00 -4.364735e-01 -5.386167e+00 226 182 185
2.467443e+00 -4.364735e-01 -5.386167e+00 226 182 185
9.535464e-01 1.693360e-01 -5.717066e+00 99 3 5
-4.478284e-01 3.175086e-01 -4.601013e+00 156 98 112
1.031767e+00 6.510574e-01 -5.520820e+00 45 10 7
1.429702e-01 5.704466e-01 -5.404791e+00 82 11 26
-5.460070e-01 4.853934e-01 -4.651976e+00 235 181 194
-9.170243e-01 4.647885e-01 -4.599408e+00 183 230 255
-7.877145e-01 7.417506e-01 -4.550512e+00 225 165 176
9.502719e-01 -4.146233e-03 -5.614890e+00 66 13 22
1.224157e+00 1.081183e-01 -5.517284e+00 95 35 39
1.104625e+00 1.139018e-01 -5.571411e+00 172 101 113
7.198825e-01 1.769827e-01 -5.679963e+00 111 13 20
2.043988e+00 3.446107e-01 -6.433279e+00 147 111 51
9.054847e-01 6.009873e-01 -5.517718e+00 104 11 16
-6.113392e-02 6.011331e-01 -5.417513e+00 106 9 21
-8.428718e-01 4.843072e-01 -4.610241e+00 255 254 254
-8.533659e-01 7.547117e-01 -4.564181e+00 224 166 176
-8.847443e-01 7.518039e-01 -4.563290e+00 227 167 179
-9.892108e-01 7.503437e-01 -4.571024e+00 133 74 96
4.421123e-01 1.108689e+00 -5.563500e+00 161 21 32
1.556367e+00 1.257391e+00 -5.314847e+00 69 31 28
1.556367e+00 1.257391e+00 -5.314847e+00 69 31 28
2.703162e+00 -2.851404e+00 -9.900249e+00 59 47 61
2.114233e+00 -8.165685e-01 -6.304492e+00 216 192 86
9.112590e-01 -1.594282e-02 -5.651994e+00 173 134 153
2.084859e+00 5.951770e-01 -6.302752e+00 111 64 25
-9.445126e-01 4.387993e-01 -4.618136e+00 168 157 198
-5.888046e-01 6.149809e-01 -4.584708e+00 170 104 126
-8.767385e-01 7.212410e-01 -4.551788e+00 174 107 127
-8.767385e-01 7.212410e-01 -4.551788e+00 174 107 127
1.671889e+00 1.378084e+00 -5.462530e+00 69 30 30
2.532703e+00 -2.910821e+00 -1.032066e+01 103 99 121
2.286643e+00 -3.031332e+00 -1.111774e+01 108 101 118
1.767029e+00 -3.422651e+00 -1.264200e+01 97 90 106
2.619272e+00 -2.578804e+00 -1.012879e+01 119 113 129
2.546954e+00 -2.597405e+00 -1.027670e+01 67 55 65
2.396731e+00 -2.569205e+00 -1.068577e+01 64 53 67
2.396731e+00 -2.569205e+00 -1.068577e+01 64 53 67
2.308241e+00 -2.369733e+00 -1.102325e+01 73 53 61
2.261521e+00 -2.377085e+00 -1.108424e+01 124 120 134
2.261521e+00 -2.377085e+00 -1.108424e+01 124 120 134
2.305170e+00 -2.251851e+00 -1.090756e+01 121 117 134
2.455049e+00 -5.396726e-01 -5.456635e+00 240 183 194
2.472592e+00 -5.055855e-01 -5.397366e+00 243 196 214
2.479555e+00 -4.236640e-01 -5.375081e+00 234 171 187
2.169508e+00 -5.587084e-01 -6.186562e+00 177 147 41
2.483133e+00 -3.720614e-01 -5.346958e+00 237 187 201
9.569743e-01 3.325960e-02 -5.616260e+00 171 124 141
-4.738629e-01 -7.176679e-03 -4.747952e+00 226 178 187
-4.263483e-01 1.110107e-01 -4.667949e+00 157 101 112
-4.263483e-01 1.110107e-01 -4.667949e+00 157 101 112
-8.566681e-01 1.038413e-01 -4.634111e+00 215 151 168
-4.336074e-01 2.649007e-01 -4.618571e+00 158 99 111
1.311110e-01 5.981602e-01 -5.387389e+00 233 218 229
1.583607e-01 6.165579e-01 -5.380928e+00 229 219 231
-8.293026e-01 6.390126e-01 -4.585672e+00 241 217 230
3.895761e-01 9.249417e-01 -5.557102e+00 203 132 150
-8.342879e-01 7.252167e-01 -4.555942e+00 178 107 123
-9.127688e-01 7.356636e-01 -4.552632e+00 232 172 179
4.415788e-01 1.032069e+00 -5.558101e+00 151 23 55
2.748002e+00 -3.296286e+00 -9.844749e+00 111 102 120
2.437857e+00 -3.616757e+00 -1.073282e+01 100 95 113
2.526756e+00 -3.452260e+00 -1.047851e+01 114 111 129
2.545617e+00 -3.121864e+00 -1.040065e+01 117 106 126
2.444267e+00 -2.904578e+00 -1.062616e+01 57 46 60
2.086686e+00 -2.221796e+00 -1.150019e+01 107 92 111
1.897451e+00 -2.397816e+00 -1.218971e+01 97 87 99
2.479448e+00 -6.350602e-01 -5.385166e+00 247 138 75
2.154463e+00 -7.645593e-01 -6.213921e+00 215 192 85
2.481004e+00 -4.641689e-01 -5.382443e+00 249 179 194
2.464325e+00 -4.512332e-01 -5.419905e+00 234 189 194
-7.846705e-02 5.731062e-01 -5.384694e+00 209 176 193
1.538667e+00 1.048107e+00 -5.225720e+00 159 96 109
5.632639e-01 9.740371e-01 -5.583078e+00 212 136 155
-7.478482e-05 5.169135e-01 -5.473026e+00 243 238 244
1.939088e+00 8.134451e-01 -6.259888e+00 193 133 142
2.058785e+00 -5.899338e-01 -6.327668e+00 219 186 70
-4.860920e-02 3.065195e-01 -5.560008e+00 235 234 243
2.110755e-02 1.457987e+00 -5.883865e+00 161 16 26
-3.180110e-02 1.941980e-01 -5.722765e+00 198 31 51
1.308647e+00 2.181575e-01 -5.562779e+00 188 119 130
1.394688e+00 3.323031e-01 -5.708588e+00 65 8 8
1.241184e+00 1.215539e+00 -5.386448e+00 184 137 151
-2.959064e+00 3.072890e+00 -1.205003e+01 24 22 27
-2.959064e+00 3.072890e+00 -1.205003e+01 24 22 27
-1.249535e+00 -2.911009e+00 -1.254370e+01 63 59 70
-1.141354e-01 2.355136e-01 -5.622655e+00 231 213 229
-8.889485e-02 6.859863e-01 -5.429697e+00 193 32 49
2.294457e+00 -1.080748e+00 -5.875652e+00 202 197 105
1.158320e+00 1.362787e-01 -5.557553e+00 189 123 137
2.942042e-01 5.103670e-01 -5.420461e+00 230 208 219
-7.781827e-02 5.556001e-01 -5.490639e+00 221 208 222
-8.864566e-02 6.808839e-01 -5.412307e+00 195 34 51
-2.445315e-02 7.519316e-01 -5.489540e+00 90 1 7
1.169683e+00 1.281215e+00 -5.967354e+00 157 20 30
1.533504e+00 1.400074e+00 -5.424443e+00 168 118 129
8.402326e-01 -5.035216e+00 -1.489604e+01 42 42 51
2.384681e+00 -3.635281e+00 -1.087519e+01 37 33 48
2.384681e+00 -3.635281e+00 -1.087519e+01 37 33 48
2.991409e+00 -2.899995e+00 -9.140694e+00 60 49 64
2.391923e+00 -2.000982e+00 -8.206594e+00 188 174 148
4.833593e-01 -3.269885e+00 -1.314831e+01 105 81 64
2.486958e+00 -3.180416e-01 -5.353620e+00 224 181 193
2.486958e+00 -3.180416e-01 -5.353620e+00 224 181 193
5.983762e-01 1.654044e+00 -5.871710e+00 68 1 1
2.668120e+00 -3.183083e+00 -1.001328e+01 53 42 51
2.668120e+00 -3.183083e+00 -1.001328e+01 53 42 51
1.748916e+00 -3.713364e+00 -1.262059e+01 10 10 12
1.748916e+00 -3.713364e+00 -1.262059e+01 10 10 12
2.281285e+00 -1.905862e+00 -8.505352e+00 178 170 140
1.523132e+00 -2.615351e+00 -1.256520e+01 110 83 65
1.387577e+00 -2.557797e+00 -1.254465e+01 18 29 45
2.037583e+00 -2.165847e+00 -1.162070e+01 54 40 42
2.451625e+00 -5.431584e-01 -5.388933e+00 225 192 209
8.250354e-01 1.371068e-01 -5.747401e+00 138 31 47
5.645538e-01 1.395229e-01 -5.691544e+00 211 42 80
-8.727338e-01 5.842417e-01 -4.587880e+00 179 225 255
-9.282738e-01 7.694016e-01 -4.553629e+00 152 97 120
1.672022e+00 1.376799e+00 -5.462235e+00 69 30 30
2.340001e+00 -3.915183e+00 -1.103781e+01 84 79 97
2.540415e+00 -3.315102e+00 -1.051591e+01 98 89 106
2.850036e+00 -2.847713e+00 -9.429024e+00 56 43 54
2.509957e+00 -2.973608e+00 -1.049492e+01 59 52 64
2.509957e+00 -2.973608e+00 -1.049492e+01 59 52 64
1.586454e+00 -3.276301e+00 -1.323903e+01 81 74 84
1.645442e+00 -2.797700e+00 -1.277358e+01 47 38 45
1.959483e+00 -2.330927e+00 -1.181359e+01 52 42 43
1.873558e+00 -1.099667e+00 -6.770719e+00 203 182 70
2.459589e+00 -5.466084e-01 -5.403715e+00 228 196 213
5.531065e-01 -2.469466e-01 -5.669012e+00 123 6 14
5.531065e-01 -2.469466e-01 -5.669012e+00 123 6 14
2.094584e+00 -2.437877e-01 -6.149798e+00 114 69 10
-8.277845e-01 -1.645822e-01 -5.007790e+00 35 44 92
1.186747e+00 1.990160e-01 -5.599168e+00 173 95 107
4.947705e-01 2.329521e-01 -5.673415e+00 124 4 14
2.066925e+00 2.910759e-01 -6.407587e+00 84 49 7
-3.453319e-01 4.268365e-01 -4.661415e+00 207 155 168
2.129306e+00 6.191582e-01 -6.287354e+00 176 139 90
-5.637071e-01 5.670835e-01 -4.606248e+00 189 126 143
-5.637071e-01 5.670835e-01 -4.606248e+00 189 126 143
-7.231459e-01 5.781599e-01 -4.625860e+00 247 228 240
3.120115e-01 6.806295e-01 -5.340435e+00 219 197 209
4.539865e-01 6.978061e-01 -5.398091e+00 246 224 228
4.539865e-01 6.978061e-01 -5.398091e+00 246 224 228
-5.889977e-01 6.151519e-01 -4.585993e+00 170 104 126
2.210893e-02 7.872901e-01 -5.514636e+00 175 25 37
-6.716395e-01 6.741158e-01 -4.564148e+00 233 178 193
-9.675159e-01 7.238714e-01 -4.565661e+00 229 167 180
4.372887e-01 1.109893e+00 -5.561392e+00 155 24 37
1.204225e+00 1.094949e+00 -5.208652e+00 184 132 144
2.815195e+00 -3.122237e+00 -9.640012e+00 52 45 58
2.437568e+00 -3.405677e+00 -1.069705e+01 105 97 118
2.805091e+00 -2.955943e+00 -9.556694e+00 119 111 128
2.171678e+00 -3.515661e+00 -1.140751e+01 85 77 96
2.110342e+00 -3.456843e+00 -1.154729e+01 39 35 49
2.779368e+00 -2.745493e+00 -9.682535e+00 57 41 47
2.779368e+00 -2.745493e+00 -9.682535e+00 57 41 47
2.397161e+00 -2.883983e+00 -1.083723e+01 57 46 55
1.638380e+00 -3.480909e+00 -1.300895e+01 88 85 103
2.431854e+00 -2.102106e+00 -8.162937e+00 187 178 143
1.694086e+00 -3.097887e+00 -1.279172e+01 54 48 60
2.281997e+00 -1.977971e+00 -8.450026e+00 113 98 80
2.095457e+00 -2.409073e+00 -1.157924e+01 63 47 56
1.944329e+00 -2.254448e+00 -1.201404e+01 61 47 49
1.780751e+00 -2.158266e+00 -1.241895e+01 62 47 49
2.157907e+00 -8.074620e-01 -6.243001e+00 214 191 78
2.460096e+00 -5.713206e-01 -5.470375e+00 221 70 104
2.017319e+00 -5.135332e-01 -6.480317e+00 228 191 78
2.203013e+00 -4.254071e-01 -6.104027e+00 229 196 57
2.203013e+00 -4.254071e-01 -6.104027e+00 229 196 57
8.367913e-01 -3.258913e-01 -5.468336e+00 170 47 61
2.152250e+00 -3.171882e-01 -6.157241e+00 98 62 2
2.125678e+00 -2.795726e-01 -6.159296e+00 121 76 14
2.494330e+00 -2.048940e-01 -5.344606e+00 240 192 195
-4.640592e-01 3.361662e-02 -4.708409e+00 218 170 181
-4.021800e-01 2.007864e-01 -4.659833e+00 225 164 172
2.096444e+00 3.052443e-01 -6.388389e+00 176 139 48
-3.133766e-01 4.712698e-01 -4.728919e+00 220 191 199
-9.620489e-01 4.793702e-01 -4.615864e+00 173 160 196
3.912415e-01 6.409317e-01 -5.410352e+00 243 214 219
1.797583e-01 6.860261e-01 -5.438298e+00 71 6 13
-9.122876e-01 6.152759e-01 -4.584391e+00 242 226 244
-8.392526e-01 6.996854e-01 -4.554499e+00 228 165 173
-8.926997e-01 7.807396e-01 -4.566020e+00 157 100 122
1.037161e-01 1.450862e+00 -5.842416e+00 108 2 1
-3.811284e+00 3.823201e+00 -1.164214e+01 147 93 87
2.212207e+00 -3.952016e+00 -1.136911e+01 51 45 59
2.251845e+00 -3.893558e+00 -1.124973e+01 89 87 105
9.953133e-01 -5.163242e+00 -1.482168e+01 49 48 57
2.578181e+00 -3.533979e+00 -1.039035e+01 111 107 131
2.239704e+00 -3.776515e+00 -1.120991e+01 88 85 102
2.685181e+00 -3.339020e+00 -1.004360e+01 59 54 71
2.985578e+00 -2.997621e+00 -9.174532e+00 56 47 63
2.396136e+00 -3.500815e+00 -1.094479e+01 100 96 119
2.329251e+00 -3.526390e+00 -1.112298e+01 56 46 58
2.362159e+00 -3.287626e+00 -1.084508e+01 53 46 61
2.516414e+00 -3.151149e+00 -1.047132e+01 68 58 74
2.153385e+00 -3.425127e+00 -1.151195e+01 88 81 97
1.630129e+00 -3.883129e+00 -1.303283e+01 36 26 32
2.502783e+00 -3.078140e+00 -1.053044e+01 101 93 110
1.975163e+00 -3.512172e+00 -1.203631e+01 52 47 68
1.975163e+00 -3.512172e+00 -1.203631e+01 52 47 68
2.650548e+00 -2.810146e+00 -1.002156e+01 46 34 46
2.096032e+00 -3.295795e+00 -1.175144e+01 90 78 86
2.096032e+00 -3.295795e+00 -1.175144e+01 90 78 86
1.971541e+00 -3.163554e+00 -1.198848e+01 57 49 60
1.968768e+00 -3.081657e+00 -1.194574e+01 89 85 99
1.968768e+00 -3.081657e+00 -1.194574e+01 89 85 99
2.035056e+00 -2.898771e+00 -1.178783e+01 66 59 74
2.035056e+00 -2.898771e+00 -1.178783e+01 66 59 74
2.482973e+00 -2.539932e+00 -1.047122e+01 106 99 115
2.482973e+00 -2.539932e+00 -1.047122e+01 106 99 115
2.396493e+00 -2.568308e+00 -1.068488e+01 64 53 67
1.254920e+00 -3.071298e+00 -1.410105e+01 74 67 78
2.292842e+00 -1.076679e+00 -5.871522e+00 197 196 106
2.311537e+00 -2.043608e+00 -1.092620e+01 71 60 79
2.167004e+00 -2.027660e+00 -1.116548e+01 91 79 87
2.167004e+00 -2.027660e+00 -1.116548e+01 91 79 87
2.001683e+00 -2.051368e+00 -1.171940e+01 62 50 55
2.499512e+00 -2.592144e-01 -5.316822e+00 234 190 210
2.504935e+00 -1.668563e-01 -5.341745e+00 237 193 207
-7.217642e-01 4.617152e-01 -4.607924e+00 181 161 192
2.494116e-02 5.686659e-01 -5.389295e+00 194 171 186
-9.168366e-01 5.045680e-01 -4.590543e+00 147 198 227
9.895064e-02 5.830684e-01 -5.388516e+00 239 225 235
-7.916518e-01 6.288435e-01 -4.582008e+00 235 199 216
5.342537e-01 8.552093e-01 -5.538796e+00 204 160 177
-6.936227e-01 7.258561e-01 -4.564395e+00 146 87 107
3.897788e-01 9.251224e-01 -5.559716e+00 203 132 150
-7.965568e-01 7.989683e-01 -4.573376e+00 216 161 173
-3.805777e+00 3.376117e+00 -1.161517e+01 144 79 71
-5.138080e+00 3.396403e+00 -1.125270e+01 128 72 58
-5.138080e+00 3.396403e+00 -1.125270e+01 128 72 58
-5.276860e+00 3.380240e+00 -1.116910e+01 126 72 64
-5.276860e+00 3.380240e+00 -1.116910e+01 126 72 64
-3.230973e+00 3.555544e+00 -1.175378e+01 142 89 80
-3.230973e+00 3.555544e+00 -1.175378e+01 142 89 80
-4.736830e+00 3.591600e+00 -1.133073e+01 134 72 65
-4.685809e+00 3.670025e+00 -1.127989e+01 135 75 58
-3.416993e+00 3.821562e+00 -1.171779e+01 143 85 86
6.634448e-01 2.844717e-01 -5.514554e+00 210 33 57
6.634448e-01 2.844717e-01 -5.514554e+00 210 33 57
-7.385327e-01 5.579530e-01 -4.588372e+00 161 183 219
2.091204e+00 1.102044e+00 -5.939937e+00 212 176 116
7.683824e-01 9.002715e-02 -5.693595e+00 238 231 239
9.049889e-01 6.252486e-01 -5.520854e+00 147 17 25
-3.261029e+00 3.741101e+00 -1.495328e+01 28 25 33
-3.118583e+00 4.076296e+00 -1.720506e+01 96 85 103
2.433141e+00 1.797757e+00 -5.240864e+00 173 157 104
1.891145e+00 -9.919429e-01 -6.742824e+00 203 178 60
8.995936e-01 -5.268054e-02 -5.593267e+00 51 9 18
2.958369e-01 1.397475e-01 -5.589249e+00 203 42 84
6.556854e-01 2.040953e-01 -5.650841e+00 115 4 13
-5.312606e-01 4.016492e-01 -4.620796e+00 212 160 173
-7.432730e-01 5.091267e-01 -4.583517e+00 188 226 254
-8.775292e-01 6.404675e-01 -4.593568e+00 243 231 243
2.704000e+00 -2.851428e+00 -9.898260e+00 59 47 61
2.027842e+00 -2.299475e+00 -1.180501e+01 104 96 105
1.805775e+00 -1.796386e+00 -1.237822e+01 75 54 61
-8.004494e-01 -1.512469e-01 -5.033436e+00 251 253 255
8.366773e-01 2.438358e-02 -5.665079e+00 222 196 212
-8.218492e-01 4.201327e-01 -4.600035e+00 165 217 253
1.061619e+00 6.029397e-01 -5.466168e+00 101 6 12
-9.476086e-01 7.070951e-01 -4.587604e+00 173 111 132
5.461297e-01 9.283704e-01 -5.540273e+00 153 14 28
-7.339194e-01 9.135164e-01 -4.623977e+00 157 123 142
9.693719e-01 1.568408e+00 -5.729998e+00 140 25 35
2.939618e+00 -3.151117e+00 -9.316360e+00 123 117 137
2.939618e+00 -3.151117e+00 -9.316360e+00 123 117 137
2.713223e+00 -3.278188e+00 -9.953393e+00 117 111 132
2.546442e+00 -2.597326e+00 -1.027725e+01 67 55 65
2.315126e+00 -2.372928e+00 -1.104035e+01 73 53 61
2.158550e+00 -6.787577e-01 -6.219760e+00 162 136 39
2.120238e+00 -6.473135e-01 -6.293554e+00 164 169 118
2.197842e+00 -4.537531e-01 -6.110338e+00 225 194 63
2.197842e+00 -4.537531e-01 -6.110338e+00 225 194 63
1.391622e+00 2.252773e-01 -5.541363e+00 75 11 12
-4.553978e-01 2.656416e-01 -4.605954e+00 226 174 184
-7.803755e-01 3.874413e-01 -4.633546e+00 245 237 249
2.488815e+00 -3.462574e+00 -1.052886e+01 51 47 63
2.958439e+00 -2.972768e+00 -9.202480e+00 104 99 117
2.901141e+00 -2.980343e+00 -9.364460e+00 115 100 121
2.774645e+00 -3.083096e+00 -9.744578e+00 32 30 45
2.629657e+00 -3.164791e+00 -1.023041e+01 115 109 126
2.352494e+00 -3.288058e+00 -1.097822e+01 113 109 127
2.396399e+00 -2.812854e+00 -1.079395e+01 116 108 123
2.509013e+00 -2.445279e+00 -1.032447e+01 112 104 121
2.048347e+00 -2.020106e+00 -1.167443e+01 107 90 101
2.048347e+00 -2.020106e+00 -1.167443e+01 107 90 101
2.456248e+00 -5.209228e-01 -5.410708e+00 208 105 132
2.456248e+00 -5.209228e-01 -5.410708e+00 208 105 132
2.464763e+00 -4.739720e-01 -5.402093e+00 209 98 134
2.479281e+00 -3.993088e-01 -5.393185e+00 208 95 122
2.219419e+00 -4.116844e-01 -6.060556e+00 167 135 16
2.490464e+00 -1.822859e-01 -5.347694e+00 216 81 99
2.490464e+00 -1.822859e-01 -5.347694e+00 216 81 99
2.238715e+00 -2.600478e-03 -6.007476e+00 167 136 16
2.238715e+00 -2.600478e-03 -6.007476e+00 167 136 16
9.005275e-01 4.581245e-02 -5.615204e+00 223 194 208
2.426204e+00 1.065626e-01 -5.492514e+00 184 158 92
2.171208e-01 6.551096e-01 -5.391295e+00 187 157 176
-6.652770e-01 8.921559e-01 -4.634447e+00 132 93 111
-2.479842e+00 3.105178e+00 -1.207895e+01 91 86 95
-2.479842e+00 3.105178e+00 -1.207895e+01 91 86 95
2.053689e+00 5.111366e-01 -6.322011e+00 149 88 70
-3.961933e-01 -2.687291e-01 -5.318694e+00 158 131 133
4.985307e-01 1.279787e+00 -5.736275e+00 18 7 6
1.860961e+00 -1.081178e+00 -6.741509e+00 217 201 91
-4.174828e-01 -1.227340e-01 -5.012020e+00 248 206 217
1.317822e+00 1.395197e-01 -5.456089e+00 131 25 22
-8.403946e-01 2.122417e-01 -4.640455e+00 223 160 169
2.575771e-01 8.041674e-01 -5.523140e+00 231 42 72
1.388717e+00 1.291925e+00 -5.285904e+00 201 144 155
1.135475e+00 8.006173e-02 -5.437863e+00 134 59 62
9.708123e-01 7.721357e-02 -5.520554e+00 74 10 10
7.900424e-01 -2.281246e+00 -1.233474e+01 150 127 126
-7.141634e-01 3.148384e-01 -4.619777e+00 217 151 166
1.891146e+00 -1.009154e+00 -6.742183e+00 234 210 88
2.169706e+00 -5.852373e-01 -6.131074e+00 243 216 79
2.216266e+00 -4.882555e-01 -6.080462e+00 189 157 34
2.216266e+00 -4.882555e-01 -6.080462e+00 189 157 34
1.210937e+00 -2.960090e-01 -5.328914e+00 195 133 135
-9.698520e-01 2.730988e-01 -4.696315e+00 233 171 185
-4.635459e-01 3.527395e-01 -4.610323e+00 187 125 131
-5.011777e-01 4.169572e-01 -4.609656e+00 149 90 108
-8.436300e-01 7.868106e-01 -4.568694e+00 185 119 134
2.315077e+00 -2.261018e+00 -1.094039e+01 153 149 170
2.115710e+00 -7.777862e-01 -6.282977e+00 240 219 94
2.097745e+00 -7.880812e-01 -6.334011e+00 185 193 135
2.097745e+00 -7.880812e-01 -6.334011e+00 185 193 135
2.186054e+00 -6.998282e-01 -6.161796e+00 197 169 49
2.492559e+00 -3.140031e-01 -5.330509e+00 254 215 233
-8.475779e-01 2.490076e-01 -4.672610e+00 255 216 221
2.612859e+00 -3.008576e+00 -1.017748e+01 140 131 150
2.525322e+00 -2.647682e+00 -1.034314e+01 128 115 128
2.376921e+00 -2.777560e+00 -1.083614e+01 80 68 82
2.320498e+00 -2.770534e+00 -1.092286e+01 84 72 87
-1.234337e+00 -3.023859e+00 -1.350090e+01 85 46 56
2.166810e+00 -8.263084e-01 -6.194134e+00 200 173 44
2.129295e+00 -8.127393e-01 -6.258713e+00 196 170 45
1.952975e+00 -2.121579e+00 -1.194008e+01 74 49 49
2.203987e+00 -3.335958e-01 -6.122898e+00 206 172 32
-6.674668e-01 -1.815253e-01 -5.025185e+00 250 240 251
-8.875924e-01 -1.985346e-01 -5.047793e+00 155 201 235
-8.957951e-01 -1.527311e-01 -5.002102e+00 119 141 190
1.218123e+00 -7.141329e-02 -5.336680e+00 236 173 181
-4.302405e-01 -1.009175e-02 -4.769421e+00 255 209 215
8.931084e-01 1.497975e-01 -5.688872e+00 150 41 66
-6.416759e-01 3.882849e-01 -4.624444e+00 202 131 146
3.429122e-01 6.324600e-01 -5.370272e+00 153 104 124
3.570142e-01 6.562465e-01 -5.382418e+00 247 224 229
-1.014888e+00 7.980553e-01 -4.609618e+00 249 196 203
7.760045e-02 8.520703e-02 -2.292315e-01 0 255 0
7.731719e-02 8.455265e-02 -2.792265e-01 255 255 0
-5.248785e-01 7.300552e-01 1.069743e-01 255 0 0
-5.223441e-01 7.271245e-01 5.712464e-02 255 255 0
-1.086002e+00 2.474186e-01 -5.429340e-01 0 255 0
-1.074931e+00 2.454270e-01 -5.916524e-01 255 255 0
