# Bundle file v0.3
11 508
7.1035669706e+02 -2.5552088216e-01 4.9829924284e-01
9.8778908971e-01 -1.4082801745e-01 6.6634703849e-02
1.1291380481e-01 9.4180783649e-01 3.1662039070e-01
-1.0734610818e-01 -3.0523018957e-01 9.4620893276e-01
2.2083235840e-01 1.0180656487e+00 -7.4016586539e-01
7.0921147908e+02 -2.0186205139e-01 2.7238506491e-01
9.8378250632e-01 4.8954715498e-02 -1.7255554495e-01
-3.1138131812e-03 9.6654945477e-01 2.5646141161e-01
1.7933846333e-01 -2.5176494455e-01 9.5102688094e-01
-4.6587282188e-01 8.4250061275e-01 -5.0676177387e-01
7.4029914022e+02 -2.6804751340e-01 1.1197861841e+00
8.2729216603e-01 3.1685020875e-01 -4.6388966063e-01
-1.3676093529e-01 9.1451205180e-01 3.8074158387e-01
5.4487073568e-01 -2.5154254576e-01 7.9990138709e-01
-1.2253068082e+00 1.1508693937e+00 -1.4929533868e+00
0 0 0
0 0 0
0 0 0
0 0 0
0 0 0
0 0 0
0 0 0
0 0 0
0 0 0
0 0 0
0 0 0
0 0 0
0 0 0
0 0 0
0 0 0
0 0 0
0 0 0
0 0 0
0 0 0
0 0 0
7.1769507731e+02 -2.2577779719e-01 3.8587343122e-01
9.9922505383e-01 -2.8796642051e-02 -2.6833658126e-02
2.9286286390e-02 9.9940832260e-01 1.8036577931e-02
2.6298388378e-02 -1.8808458750e-02 9.9947718165e-01
-9.8075601759e-02 -2.8168219657e-03 -5.9935923257e-01
7.0327609769e+02 -1.9700141324e-01 3.3822678232e-01
9.9264039205e-01 3.8714197839e-02 -1.1474433736e-01
-7.8735981865e-02 9.2623634397e-01 -3.6862837692e-01
9.2009223610e-02 3.7494992465e-01 9.2246780799e-01
-1.9059239446e-01 -1.1069857351e+00 -6.0726327799e-01
7.0256578820e+02 -2.2976766480e-01 4.8515712336e-01
9.2656862872e-01 1.8640097758e-02 -3.7566357693e-01
2.3752766361e-01 7.4541553446e-01 6.2284531788e-01
2.9163536359e-01 -6.6633942382e-01 6.8625111072e-01
-1.0886752775e+00 1.8745661000e+00 -1.0272628468e+00
0 0 0
0 0 0
0 0 0
0 0 0
0 0 0
-4.2253349243e-01 -3.2982141172e-01 -2.5772040039e+00
100 180 114
3 7 43 -98.8700 -87.6000 8 55 -71.5800 -95.7300 0 31 -76.2700 -36.3600
-1.3621429656e-01 -7.8586687322e-01 -2.6269896729e+00
226 232 74
4 7 94 -32.0700 -185.2800 8 77 -11.5400 -177.9100 0 71 5.7500 -134.2100 1 78 -45.5200 -147.0200
-4.4321171981e-01 -4.5590996011e-01 -2.6222837678e+00
31 27 24
4 7 73 -100.9600 -113.6900 8 89 -75.4800 -113.8500 0 76 -75.3800 -68.2100 1 87 -112.3700 -64.2200
-4.0074536697e-01 -5.0659074881e-01 -2.6487651285e+00
102 165 98
5 7 177 -90.2900 -124.3900 8 237 -64.2900 -120.8500 0 150 -65.1200 -79.5600 1 169 -101.5200 -77.2000 2 235 -97.6100 -52.9000
-4.6879840604e-01 -3.7437727036e-01 -2.5754887499e+00
38 39 34
6 7 134 -108.8800 -97.5200 8 126 -82.7600 -103.3400 0 154 -84.6300 -47.5500 1 176 -119.8900 -42.6000 2 240 -106.6300 -21.4300 9 155 -145.8800 -31.3600
-1.4929430269e-01 -3.0059759335e-01 -2.5164521386e+00
208 204 203
5 7 189 -40.1000 -81.0400 8 170 -15.5700 -102.4200 0 160 -11.0000 -18.1900 1 180 -47.6400 -23.1400 2 242 -57.6100 -13.2700
-1.1158757678e-01 -2.9437966931e-01 -2.5312967443e+00
217 218 212
6 7 190 -30.5300 -79.0800 8 239 -4.9600 -100.3300 0 162 -4.1800 -17.1200 1 179 -37.8800 -22.4500 2 241 -50.0000 -14.1200 9 165 -66.3500 13.9900
-8.9851485285e-02 -2.4660305593e-01 -2.5249956208e+00
97 55 30
5 7 136 -26.1300 -67.9600 8 173 1.7200 -91.5700 0 166 -0.7100 -5.9800 1 124 -32.8300 -10.5800 2 173 -44.3100 -5.0500
6.6441923028e-01 3.1786775971e-01 -2.7676497736e+00
220 236 235
4 7 206 133.9500 60.0300 8 195 185.6500 36.5100 0 246 129.4500 102.6200 1 195 153.7000 99.0900
-1.1037640542e-01 -4.0709135966e-01 -2.5688671975e+00
209 211 205
6 7 260 -28.8000 -103.7300 8 336 -5.3600 -117.9600 0 310 -0.3900 -44.5100 1 241 -37.1400 -51.7300 2 308 -53.3800 -38.7700 9 240 -63.9900 -15.2400
-3.9898571820e-01 -2.4185074830e-01 -2.5758687043e+00
56 78 65
4 7 539 -93.4800 -67.5200 8 510 -66.8500 -79.3000 0 319 -73.3400 -16.5300 1 488 -101.6300 -11.8800
-6.7159611309e-01 -2.1517464368e-01 -2.5117279505e+00
109 171 181
6 7 274 -157.8800 -64.0500 8 243 -131.1100 -74.2400 0 321 -136.9200 -13.1300 1 349 -166.8500 -1.9400 2 433 -132.0600 16.9400 9 350 -190.5300 -2.2600
-6.7640264990e-01 -1.7232488390e-01 -2.4948384991e+00
112 171 178
4 7 277 -160.2300 -54.6800 8 244 -133.5800 -67.4600 0 322 -139.4000 -2.5400 1 352 -168.4900 9.0700
-4.5753968931e-01 -5.4686251509e-01 -2.6354602563e+00
90 155 95
6 7 485 -103.2700 -134.0900 8 707 -77.5200 -128.6300 0 438 -77.1800 -89.6700 1 456 -116.1500 -85.8800 2 606 -110.2300 -57.4900 9 327 -141.0200 -75.1100
-1.2898445130e-01 -4.5021685838e-01 -2.5777882763e+00
29 28 26
6 7 354 -32.6400 -113.1900 8 480 -9.2000 -124.5700 0 449 -3.4200 -55.3800 1 336 -41.9400 -62.5900 2 405 -58.4500 -47.1900 9 337 -68.5400 -26.8600
6.6421404265e-03 -4.2326932204e-01 -2.6097078449e+00
28 28 33
6 7 359 -2.0100 -105.3700 8 482 21.6200 -118.5100 0 451 26.1200 -47.5600 1 338 -7.2400 -57.9700 2 403 -30.6400 -49.1900 9 340 -30.4100 -17.9300
-8.1066875798e-02 -4.0501332503e-01 -2.5773970387e+00
24 22 23
6 7 361 -22.1600 -102.8100 8 483 2.0100 -117.0800 0 455 6.0400 -43.8500 1 341 -29.7400 -51.6500 2 406 -47.6200 -40.1000 9 343 -55.8300 -14.4000
-1.1261038884e-01 -3.5453091190e-01 -2.5507806713e+00
208 210 206
6 7 367 -29.9600 -92.2600 8 492 -4.7000 -109.4800 0 463 -2.5200 -31.9600 1 343 -38.2500 -38.1200 2 413 -52.5300 -27.3000 9 351 -65.8000 -1.4200
-5.4058239058e-02 -3.4985911989e-01 -2.5666697826e+00
208 210 202
6 7 512 -16.3600 -90.5300 8 744 8.2300 -107.9600 0 464 10.7900 -30.3800 1 473 -23.4400 -37.9500 2 634 -40.5300 -29.6300 9 507 -49.2400 0.7600
8.7408410863e-01 1.1836768276e-02 -2.9921185940e+00
214 224 216
5 7 391 170.1500 -3.9000 8 364 216.1300 -13.1600 0 492 168.2200 34.4600 1 356 198.9500 18.3600 9 375 205.5500 55.1700
2.0912138645e+00 -1.2193540383e+00 -4.8203449383e+00
129 119 124
3 7 480 280.9700 -162.3700 8 509 307.6300 -80.3600 0 581 284.9000 -189.4300
-4.1935773629e-01 -9.4495216427e-01 -2.5129416599e+00
33 38 41
3 7 447 -95.7900 -227.0800 8 432 -73.9800 -213.0800 0 590 -56.9300 -179.5600
1.0722627868e-01 -5.7877149729e-01 -2.6923094074e+00
78 7 0
5 7 658 21.3600 -136.0100 8 1015 42.8800 -139.4800 0 638 51.5400 -83.3600 1 628 18.4200 -99.4100 9 479 3.3400 -59.2300
5.8662467871e-02 -5.7322970662e-01 -2.6734944002e+00
168 130 128
6 7 659 10.5900 -135.9000 8 1017 32.3200 -139.6900 0 641 41.5000 -82.3700 1 630 6.1600 -97.0300 2 798 -25.3100 -85.1900 9 608 -11.5700 -58.2100
-6.8755660312e-01 -4.4977515844e-01 -2.5887926417e+00
131 186 191
6 7 495 -155.3700 -114.6900 8 491 -127.8900 -110.8900 0 644 -133.8300 -71.3500 1 651 -168.8600 -59.8400 2 1125 -141.5200 -29.5300 9 607 -194.5800 -60.3200
-5.1209580447e-02 -4.8904988256e-01 -2.6150276997e+00
207 211 204
4 7 489 -14.4400 -120.1900 8 706 7.9600 -128.7300 0 646 15.7100 -64.0700 2 809 -44.3700 -60.3200
2.2781572016e-02 -4.7904503807e-01 -2.6329378578e+00
207 210 203
6 7 493 2.0500 -116.9900 8 713 24.7700 -126.3600 0 650 31.3400 -60.7900 1 640 -3.0900 -72.6100 2 808 -29.2700 -62.4300 9 484 -24.3500 -32.6100
-1.0360036195e-01 -4.3693984007e-01 -2.5818576598e+00
30 29 35
6 7 682 -26.8800 -109.8600 8 1056 -3.3200 -121.9900 0 655 2.0000 -52.0200 1 652 -35.4100 -59.5700 2 830 -53.2100 -45.9100 9 632 -61.4800 -23.1500
-1.0360036195e-01 -4.3693984007e-01 -2.5818576598e+00
30 29 35
6 7 683 -26.8800 -109.8600 8 1057 -3.3200 -121.9900 0 656 2.0000 -52.0200 1 653 -35.4100 -59.5700 2 831 -53.2100 -45.9100 9 633 -61.4800 -23.1500
9.9706227808e-02 -4.1579498470e-01 -2.6365169500e+00
49 12 11
6 7 503 18.7100 -102.5900 8 485 42.9800 -115.8800 0 663 45.7900 -44.8700 1 464 16.3700 -57.7300 2 611 -11.1800 -52.9500 9 496 -3.7600 -14.9600
4.4122651128e-02 -3.9222991173e-01 -2.6118250715e+00
30 27 28
6 7 504 6.1500 -98.3200 8 731 30.5000 -112.8600 0 667 33.4200 -39.9700 1 660 2.2500 -50.8500 2 622 -21.8500 -44.6000 9 500 -20.4400 -9.1800
4.4122651128e-02 -3.9222991173e-01 -2.6118250715e+00
30 27 28
6 7 505 6.1500 -98.3200 8 732 30.5000 -112.8600 0 668 33.4200 -39.9700 1 661 2.2500 -50.8500 2 623 -21.8500 -44.6000 9 501 -20.4400 -9.1800
-1.3322571189e-01 -3.8094493390e-01 -2.5497720453e+00
29 28 32
5 7 506 -34.5900 -98.3500 8 726 -10.3400 -114.7600 0 670 -6.4300 -38.3100 1 669 -43.3200 -44.3000 2 851 -57.2900 -31.6400
-4.5545204139e-01 -3.1637641425e-01 -2.5651590080e+00
54 103 70
6 7 524 -106.8100 -85.0300 8 761 -80.1900 -93.1400 0 674 -83.0400 -33.4700 1 484 -116.5900 -28.7300 2 646 -102.1100 -10.5500 9 494 -142.0500 -17.3400
3.0345603672e-02 -3.1908438934e-01 -2.5800450360e+00
240 43 42
5 7 525 2.4200 -82.9100 8 752 27.9800 -102.4800 0 678 28.3200 -22.1800 1 681 -1.6900 -31.3700 2 638 -22.2300 -27.2000
9.0870451019e-02 -2.9734209390e-01 -2.5932557537e+00
56 9 0
5 7 534 15.8700 -77.1700 8 501 41.8100 -98.2400 0 684 40.9200 -16.5300 2 640 -8.6600 -25.8100 9 514 -9.7100 15.9700
2.3600184861e-01 3.9121176707e-01 -2.6321447726e+00
189 216 227
4 7 570 43.7600 76.8300 8 561 87.9800 50.7300 0 713 46.9200 120.8800 1 725 54.8800 125.2800
-1.2739740964e-01 -6.0690683321e-01 -2.6345960187e+00
34 24 4
5 7 654 -30.3800 -145.7200 8 1007 -8.4900 -146.3700 0 831 1.2800 -93.9000 1 622 -40.7100 -102.7700 9 474 -64.4900 -70.3800
-1.2739740964e-01 -6.0690683321e-01 -2.6345960187e+00
34 24 4
5 7 655 -30.3800 -145.7200 8 1008 -8.4900 -146.3700 0 832 1.2800 -93.9000 1 623 -40.7100 -102.7700 9 475 -64.4900 -70.3800
-6.7241726137e-01 -4.6380419585e-01 -2.6002055023e+00
149 42 81
4 7 670 -151.2500 -117.7200 8 1077 -124.4000 -112.5400 0 841 -129.5000 -74.7000 1 882 -164.9000 -63.6400
-1.1910986492e-01 -4.3090215767e-01 -2.5749509895e+00
211 211 203
6 7 688 -30.5700 -108.8300 8 1058 -6.7200 -121.1800 0 857 -1.6900 -50.7300 1 892 -39.3800 -57.7900 2 1115 -56.1100 -43.8100 9 638 -66.1500 -21.5800
7.2326431640e-02 -4.1645051356e-01 -2.6280115944e+00
36 34 37
6 7 698 12.6500 -103.1000 8 1071 36.7300 -116.3700 0 867 40.0700 -45.3100 1 655 9.3900 -57.4400 2 818 -16.8700 -51.4900 9 647 -11.7000 -15.3700
7.2326431640e-02 -4.1645051356e-01 -2.6280115944e+00
36 34 37
6 7 699 12.6500 -103.1000 8 1072 36.7300 -116.3700 0 868 40.0700 -45.3100 1 656 9.3900 -57.4400 2 819 -16.8700 -51.4900 9 648 -11.7000 -15.3700
-1.2027785200e-01 -3.8924286529e-01 -2.5587657862e+00
214 217 209
6 7 702 -31.3900 -99.9600 8 1073 -7.1600 -115.6400 0 871 -3.2100 -40.2100 1 902 -39.9200 -46.7200 2 1119 -54.8800 -34.1600 9 822 -67.4000 -10.6600
2.6684494330e-02 -3.7242143358e-01 -2.5973804987e+00
224 227 223
6 7 707 2.0000 -94.3800 8 734 26.6800 -110.9800 0 875 28.9300 -34.7700 1 667 -2.3400 -45.1400 2 839 -24.7800 -38.8100 9 655 -26.1000 -4.2100
6.0238630578e-02 -3.6810274362e-01 -2.6064909037e+00
225 225 223
6 7 708 9.5000 -92.9700 8 737 34.3000 -109.9200 0 876 36.0900 -33.4800 1 904 6.2400 -44.6100 2 1116 -17.6500 -39.6900 9 656 -16.5700 -2.7800
8.4908130282e-02 -3.6517951031e-01 -2.6134342576e+00
224 225 217
6 7 711 15.0200 -92.0200 8 741 39.9100 -109.0700 0 878 41.3500 -32.5800 1 905 12.4300 -44.2600 2 837 -12.3900 -40.5800 9 657 -9.5300 -1.7500
1.1518135021e-02 -3.4489398759e-01 -2.5849612959e+00
227 37 31
6 7 717 -1.5700 -88.5900 8 1089 23.2900 -106.3200 0 881 25.1100 -28.6000 1 676 -6.2300 -37.9200 2 848 -27.0300 -32.1800 9 659 -31.0200 2.8300
3.7957987012e-02 -3.4271678981e-01 -2.5925201516e+00
234 35 31
6 7 718 4.5000 -87.8400 8 1094 29.4500 -105.6700 0 882 30.7100 -27.9200 1 675 0.3900 -37.8200 2 847 -21.4200 -33.0500 9 660 -23.5100 3.6400
-4.4146011517e-01 -2.0844056643e-01 -2.5369886716e+00
65 86 77
5 7 733 -105.4300 -60.9300 8 765 -79.1300 -75.7800 0 888 -83.0400 -6.9400 1 690 -113.1000 -2.0400 9 666 -138.4800 8.3100
-4.4682388370e-03 -4.4301111258e-01 -2.6107765777e+00
210 212 211
4 7 938 -4.3500 -109.6800 8 1055 19.3400 -122.2100 0 1130 24.0400 -51.8900 9 812 -33.4800 -23.3200
-3.4183848582e-01 -1.7195783975e-01 -2.5719094926e+00
194 209 199
4 7 1007 -82.2500 -51.9300 8 1142 -55.0100 -66.4100 0 1171 -60.6300 0.6100 1 1197 -87.4400 4.2900
1.0005131861e+00 1.9437513094e-01 -3.0168827753e+00
56 51 49
3 7 558 192.3200 32.7000 8 554 246.5600 22.9700 0 1200 182.7800 66.6900
-4.0028504300e-01 -5.0647325126e-01 -2.6480862619e+00
102 165 98
4 7 178 -90.2900 -124.3900 8 238 -64.2900 -120.8500 1 170 -101.5200 -77.2000 2 236 -97.6100 -52.9000
-5.0112951438e-02 -4.0027125405e-01 -2.5848892029e+00
163 163 161
4 7 263 -15.0000 -101.1800 8 337 9.1700 -115.9300 1 240 -22.0500 -51.1500 9 243 -47.2600 -12.6400
-4.7689656313e-01 -3.0096115903e-01 -2.5510314617e+00
77 158 112
5 7 268 -112.0900 -81.8200 8 348 -85.9000 -91.4900 1 244 -122.4700 -24.4100 2 315 -105.5200 -6.0900 9 242 -147.6700 -13.2000
-1.5646726694e-01 -4.7112987766e-01 -2.5871896455e+00
202 200 194
4 7 259 -38.1600 -117.3800 8 234 -14.6400 -126.3900 1 335 -48.1900 -67.9800 2 402 -64.2600 -51.1500
1.0003801601e+00 1.9518265343e-01 -3.0167864617e+00
56 51 49
3 7 557 192.3200 32.7000 8 555 246.5600 22.9700 1 512 225.2600 54.7600
1.8341112806e+00 -8.2568608695e-01 -5.2201969440e+00
123 110 115
3 7 944 231.3400 -105.8600 8 794 271.5000 -11.3500 1 780 305.1200 -180.3900
1.7917773178e+00 -6.9994244799e-01 -5.3556335827e+00
138 126 130
3 7 715 221.3000 -89.0100 8 544 265.1200 9.4700 1 801 294.0200 -163.0900
1.7917773178e+00 -6.9994244799e-01 -5.3556335827e+00
138 126 130
3 7 716 221.3000 -89.0100 8 545 265.1200 9.4700 1 803 294.0200 -163.0900
1.9030722716e+00 -6.0313029361e-01 -5.4491616050e+00
137 126 132
3 7 988 231.0100 -76.0500 8 1210 277.6200 23.3700 1 815 305.9000 -150.9000
2.6211497439e-01 4.1541615888e-01 -2.6280221783e+00
220 246 252
3 7 574 49.4200 82.3500 8 562 95.3200 55.5900 1 954 60.6200 130.7600
1.7901076867e+00 -1.0178591509e+00 -5.0281982380e+00
86 77 83
3 7 908 233.5700 -133.3100 8 1157 267.3000 -42.4000 1 1007 306.6600 -208.4500
1.7466712679e+00 -7.1779239575e-01 -5.3332598896e+00
95 80 83
3 7 968 216.8400 -91.6800 8 1192 260.0100 6.9300 1 1062 288.3900 -165.2600
-3.0509659288e-01 -8.4657354799e-01 -2.5696047171e+00
38 84 154
3 7 827 -69.4100 -201.7400 8 938 -48.3800 -192.1200 1 1072 -90.9600 -158.9600
-3.0509659288e-01 -8.4657354799e-01 -2.5696047171e+00
38 84 154
3 7 828 -69.4100 -201.7400 8 939 -48.3800 -192.1200 1 1073 -90.9600 -158.9600
4.0307171143e-02 -8.0768860993e-01 -2.6123276093e+00
211 233 127
3 7 852 7.9100 -189.5000 8 949 24.7500 -187.4700 1 1084 -3.8800 -153.8000
2.6158846394e-01 4.3416833562e-01 -2.6300441698e+00
41 75 77
3 7 1077 48.9600 86.4300 8 821 95.5300 60.0900 1 1271 60.8600 134.4800
-4.3629007015e-01 -2.5566337031e-01 -2.5552072803e+00
62 87 68
4 7 270 -102.9500 -71.3000 8 350 -76.4600 -82.5700 2 426 -96.5800 0.5100 9 349 -137.0800 -2.9500
-7.1609887155e-01 -1.7062998906e-01 -2.4798342350e+00
151 140 158
4 7 541 -170.0300 -54.5000 8 517 -143.5600 -67.7400 2 882 -138.8400 27.9600 9 667 -201.5300 8.2300
-4.1916466695e-03 -4.8358810254e-01 -2.6274678624e+00
213 215 213
3 7 668 -3.8400 -118.3700 8 1042 19.0600 -127.4300 2 1087 -34.7100 -61.8900
-6.6511394029e-01 -5.7651052387e-01 -2.6436098035e+00
127 34 48
3 7 895 -146.5100 -140.2900 8 1041 -119.1800 -128.4900 9 963 -188.4900 -93.8100
-6.8677304363e-01 8.8367575369e-03 -2.4245933927e+00
183 158 143
2 7 34 -167.3900 -13.5400 8 28 -143.1000 -36.2200
9.3605542430e-01 7.1708992938e-01 -2.9143528296e+00
209 218 216
2 7 61 179.4800 138.4100 8 36 257.2200 130.1400
-2.7871145530e-02 -8.0410371149e-01 -2.6343544229e+00
238 239 76
2 7 93 -7.3900 -187.9600 8 120 11.3500 -182.7100
-1.3966759873e-01 -7.8948662437e-01 -2.6343703675e+00
226 232 74
2 7 95 -32.0700 -185.2800 8 78 -11.5400 -177.9100
-8.6835176298e-02 -2.4562710501e-01 -2.5262829058e+00
97 55 30
2 7 135 -26.1300 -67.9600 8 172 1.7200 -91.5700
6.5078600050e-01 -3.3380577465e-01 -3.3183260657e+00
129 130 132
2 7 137 119.8200 -68.9700 8 134 152.8600 -45.4700
-1.5373868448e-01 -2.9978702780e-01 -2.5124631229e+00
208 204 203
2 7 188 -40.1000 -81.0400 8 169 -15.5700 -102.4200
-6.0840400050e-01 -1.5331784815e-01 -2.5217887174e+00
117 163 176
2 7 194 -143.5800 -49.7900 8 245 -117.4300 -62.2200
6.0735278778e-01 2.0560498371e-02 -2.9662269726e+00
69 116 51
2 7 200 118.0900 -3.6200 8 181 160.1100 -9.0000
-1.6797785768e-01 -9.0760685860e-01 -2.5707356971e+00
92 100 98
2 7 237 -37.8200 -214.6300 8 218 -20.6000 -205.0100
-1.2026429382e-01 2.5309250158e-01 -2.6407000044e+00
63 191 229
2 7 310 -33.7000 43.9100 8 193 0.2600 26.2600
-4.5966852224e-01 -6.0275955085e-01 -2.6505312569e+00
31 59 39
2 7 348 -102.4000 -145.3400 8 473 -76.6800 -136.8500
-6.6239545485e-02 2.6386461772e-01 -2.6588165986e+00
230 107 151
2 7 406 -21.8000 46.3400 8 268 13.7100 29.1100
-1.6671830895e-01 -9.5890239816e-01 -2.5239466715e+00
25 61 49
2 7 443 -38.2900 -228.8900 8 421 -21.6700 -219.7100
-2.0263260991e-01 -8.5611506980e-01 -2.6274697859e+00
22 59 38
2 7 462 -45.1000 -200.2300 8 449 -25.4200 -188.5400
-3.1531599088e-01 -8.3416142073e-01 -2.5753230568e+00
191 211 219
2 7 464 -71.3600 -198.7800 8 654 -50.1000 -188.9500
1.7863320649e+00 -1.0987477840e+00 -4.9454474440e+00
127 123 126
2 7 483 236.3100 -145.2900 8 525 267.4800 -56.1300
5.6398454608e-01 -5.9159492720e-01 -2.8381135635e+00
38 56 13
2 7 486 116.3900 -130.6900 8 703 137.1200 -133.4900
-4.5542998508e-01 -3.1647398265e-01 -2.5676891849e+00
54 103 70
2 7 523 -106.8100 -85.0300 8 760 -80.1900 -93.1400
-1.2204869117e-01 -2.6542394775e-01 -2.5157702830e+00
105 58 34
2 7 536 -33.3700 -72.9100 8 1109 -7.6400 -95.9000
-1.4968924617e-01 -1.4855333132e-01 -2.6520415448e+00
203 206 190
2 7 543 -37.8200 -44.8600 8 524 -9.2700 -57.3700
2.4316062160e-02 -2.0044141118e-02 -2.7221834175e+00
41 25 19
2 7 546 0.4900 -15.4100 8 251 32.1500 -27.8400
2.0205184885e+00 -8.3435239254e-02 -6.0055864084e+00
96 92 97
2 7 547 224.3100 -14.5400 8 387 285.8600 99.5600
6.2839648510e-01 3.0636524349e-01 -2.7955290680e+00
120 133 108
2 7 563 125.3600 57.1100 8 370 176.7200 36.3900
-1.2263285706e-01 3.6831911081e-01 -2.7321838881e+00
222 244 206
2 7 566 -34.0500 66.9700 8 373 3.8000 58.7200
4.6167027616e-01 4.7013032807e-01 -2.6835553867e+00
36 52 59
2 7 577 91.7000 93.9300 8 277 144.4000 68.4400
-1.8698201460e-01 -9.2501762959e-01 -2.5491591698e+00
47 49 52
2 7 614 -42.6900 -219.8500 8 631 -24.8600 -210.3300
1.8259461570e+00 -1.4912270328e+00 -4.5238181770e+00
96 79 78
2 7 620 260.4100 -209.6000 8 708 276.1200 -127.7900
-1.7047558341e-01 -8.5682905049e-01 -2.6192030045e+00
36 59 36
2 7 625 -38.2600 -200.7400 8 651 -19.0400 -190.3900
1.8577434971e+00 -1.4203438862e+00 -4.5989976622e+00
146 130 133
2 7 630 261.1200 -197.0400 8 725 279.5900 -114.8700
1.9088827112e+00 -1.3883269884e+00 -4.6415463478e+00
146 144 149
2 7 633 265.9300 -191.0300 8 739 285.7300 -108.9300
2.0312082331e+00 -1.3806599968e+00 -4.6443370354e+00
78 61 72
2 7 634 282.1300 -189.3700 8 738 302.0300 -109.2400
1.8603080210e+00 -1.3480090578e+00 -4.6815090208e+00
140 134 140
2 7 637 257.5000 -184.5600 8 754 279.0700 -101.1900
1.6653599440e+00 -1.3268445124e+00 -4.6948296213e+00
145 135 139
2 7 639 231.1200 -182.2900 8 758 253.7400 -95.8400
1.9715277808e+00 -1.2995553802e+00 -4.7311833389e+00
123 117 119
2 7 641 269.7800 -176.0700 8 759 293.1700 -93.6900
1.8097422337e+00 -1.1484685614e+00 -4.8949853230e+00
98 89 87
2 7 648 241.4500 -152.7200 8 773 270.7100 -64.8800
2.0585132303e+00 -8.2074029973e-01 -5.2504855318e+00
86 68 66
2 7 694 256.9700 -103.7500 8 539 298.2900 -11.5400
2.0218509939e+00 -7.1919786102e-01 -5.3506800247e+00
86 76 78
2 7 712 248.3900 -90.3700 8 542 292.9300 4.8800
2.0218509939e+00 -7.1919786102e-01 -5.3506800247e+00
86 76 78
2 7 713 248.3900 -90.3700 8 543 292.9300 4.8800
1.9174350700e+00 -6.3385010240e-01 -5.4399909055e+00
86 72 72
2 7 725 232.7300 -79.7100 8 802 279.4400 19.3400
1.9174350700e+00 -6.3385010240e-01 -5.4399909055e+00
86 72 72
2 7 726 232.7300 -79.7100 8 803 279.4400 19.3400
1.9524327696e+00 -3.0585928492e-01 -5.7480864052e+00
103 103 106
2 7 740 225.4800 -39.7400 8 1232 281.3100 67.4800
8.3484320405e-01 -8.8640851410e-02 -3.0687419905e+00
109 111 98
2 7 745 160.0000 -23.8400 8 787 201.5200 -25.2400
6.7981008365e-01 2.2658862655e-01 -2.7884993161e+00
201 218 218
2 7 760 136.8300 40.7600 8 798 186.3900 17.6800
1.7026068606e+00 -1.5362714188e+00 -4.4696671349e+00
99 83 87
2 7 809 246.1000 -218.4800 8 1027 260.1200 -135.3700
-4.0612963583e-01 -9.1356593809e-01 -2.5506695877e+00
34 70 50
2 7 811 -91.5300 -217.8300 8 922 -69.7100 -203.2700
1.5984332869e+00 -1.4728611262e+00 -4.5300593489e+00
106 90 94
2 7 818 229.0500 -207.9200 8 1052 246.0600 -122.7300
1.6874844113e+00 -1.4424458993e+00 -4.5585305170e+00
90 80 80
2 7 823 239.9100 -202.2900 8 1067 257.7900 -118.2800
-2.8621896461e-01 -8.4822266342e-01 -2.5642260003e+00
26 78 160
2 7 826 -65.1400 -202.4100 8 937 -44.4900 -193.3800
1.9507030873e+00 -1.3914665303e+00 -4.6364107503e+00
102 87 91
2 7 842 271.6600 -191.4500 8 1081 291.4700 -110.1100
6.3672362088e-02 -8.0969556196e-01 -2.6109948276e+00
217 242 116
2 7 848 13.0300 -189.9800 8 945 29.5400 -188.4400
4.0578280218e-02 -8.0702099503e-01 -2.6113197869e+00
211 233 127
2 7 851 7.9100 -189.5000 8 948 24.7500 -187.4700
2.0849168590e+00 -1.3776473257e+00 -4.6599032550e+00
87 77 83
2 7 855 288.5400 -188.2200 8 743 308.6400 -108.4600
1.6579761200e+00 -9.5185215712e-01 -5.0835542788e+00
123 110 113
2 7 914 215.0500 -124.5500 8 1168 250.7500 -30.7200
2.0764800647e+00 -9.6563093862e-01 -5.0898562842e+00
83 72 76
2 7 919 266.1000 -124.1400 8 785 302.6000 -36.1300
1.7801652242e+00 -8.8665108147e-01 -5.1521679178e+00
122 113 121
2 7 928 227.4400 -114.6600 8 1175 265.4500 -21.0500
1.9128919223e+00 -8.4206254918e-01 -5.2121615433e+00
90 68 67
2 7 940 241.0800 -107.6000 8 791 281.1200 -14.3700
-6.7112918892e-02 -4.2479389838e-01 -2.5906578295e+00
210 211 210
2 7 942 -18.7500 -106.8200 8 1063 5.2600 -119.4700
1.8253924015e+00 -8.0183102891e-01 -5.2584266044e+00
126 112 116
2 7 954 228.9500 -102.4100 8 795 269.7700 -6.7600
2.0813491856e+00 -3.3648019103e-01 -5.7582046897e+00
106 98 106
2 7 1013 239.3900 -42.6300 8 824 295.4500 63.2300
-2.5483335577e-01 -5.9065853691e-02 -2.6555518054e+00
157 86 117
2 7 1021 -61.2900 -25.7700 8 1163 -32.1500 -36.8300
2.0134300459e+00 -4.0205797470e-03 -6.0936172049e+00
78 74 75
2 7 1032 220.4400 -6.1400 8 840 284.2400 110.7400
2.2849771567e+00 1.8558549080e-01 -6.2959169574e+00
53 46 47
2 7 1039 241.4600 13.9900 8 843 312.6600 134.3600
2.6210150601e-01 4.3377341960e-01 -2.6328264597e+00
41 75 77
2 7 1076 48.9600 86.4300 8 820 95.5300 60.0900
-6.4757637303e-02 -7.1830246428e-01 -2.6451256252e+00
221 198 54
2 7 8 -16.1000 -169.3900 1 7 -26.2800 -130.6000
-2.6783236473e-01 -6.6761846124e-01 -2.5971819821e+00
32 30 23
2 7 13 -61.8900 -161.3400 1 11 -77.0000 -115.1600
-4.9249746458e-01 2.6273784054e-01 -2.4891568912e+00
219 224 225
3 7 21 -120.1400 45.7700 0 21 -106.7900 95.1800 1 30 -118.3300 106.6800
-6.2498928597e-01 -5.3525772312e-01 -2.6221749306e+00
181 180 146
3 7 25 -139.8000 -132.8100 1 42 -154.2000 -81.7000 2 57 -133.7500 -47.7300
1.0472055828e+00 4.6181092286e-01 -2.9597546508e+00
22 21 23
2 7 37 201.7200 86.7100 1 51 234.2600 112.3600
-7.5745386575e-02 -5.5013408160e-01 -2.6338760626e+00
17 17 15
5 7 40 -19.5200 -133.7400 0 44 10.7300 -79.2900 1 41 -27.0000 -89.3800 2 53 -49.3100 -72.5900 9 35 -51.5200 -54.3200
6.9167401278e-01 1.6851220515e-01 -2.7739879906e+00
205 223 222
2 7 49 140.5100 28.8100 1 49 160.5200 66.7700
-6.0804744774e-01 -6.8200116286e-01 -2.7063874804e+00
67 146 165
2 7 68 -130.4100 -160.4600 0 41 -107.9500 -127.2000
-4.5295435952e-01 -6.4136440584e-01 -2.6722142737e+00
93 163 103
3 7 69 -100.0000 -152.8600 0 74 -73.2100 -112.3500 1 82 -113.7800 -109.2700
-4.5183344628e-01 -6.4023893454e-01 -2.6735591907e+00
93 163 103
5 7 70 -100.0000 -152.8600 0 75 -73.2100 -112.3500 1 83 -113.7800 -109.2700 2 163 -110.5700 -77.2800 9 75 -138.7100 -100.8500
2.7813876950e-01 -6.2471906086e-01 -2.7998587176e+00
115 180 91
2 7 71 57.6400 -140.7500 1 60 61.7200 -114.3100
6.1388841179e-01 -6.2749685228e-01 -2.8189651058e+00
113 182 93
2 7 72 128.0300 -137.9900 1 81 141.6500 -117.5800
-3.3541877102e-01 -2.5455228755e-01 -2.5862995269e+00
16 16 14
2 7 76 -80.0100 -70.3600 1 96 -86.2600 -15.6300
1.2254189485e-01 6.3719063582e-01 -2.6548977324e+00
125 131 130
2 7 83 17.8000 128.4600 0 134 14.2400 160.8500
2.5360943293e-01 -8.4127902275e-01 -2.6288496477e+00
244 254 98
2 7 90 54.8200 -194.9200 1 111 50.2800 -164.5400
2.8151684937e-01 -7.8802933413e-01 -2.6183736101e+00
23 24 16
2 7 96 61.1800 -183.5800 1 77 57.2800 -151.1700
-4.1521291031e-01 -3.6900699123e-01 -2.5989020728e+00
88 174 118
4 7 103 -96.3900 -95.5000 0 78 -72.0400 -46.3000 1 89 -105.7800 -42.5300 2 117 -95.8300 -24.3300
5.8960462348e-01 4.2743107674e-01 -2.7594795990e+00
205 225 220
2 7 118 117.3700 83.2100 1 139 136.6800 122.0900
-6.0150634995e-02 5.9889406733e-01 -2.6445317372e+00
153 149 141
3 7 120 -22.9500 119.7800 0 132 -20.2300 151.6800 1 144 -8.7600 163.8000
-6.7735229418e-01 -8.2046507201e-01 -2.7965185971e+00
112 121 128
2 7 126 -139.9500 -184.9500 0 105 -118.2900 -163.1900
6.0752335649e-01 -7.3407182811e-01 -2.7275197058e+00
16 19 12
2 7 129 130.0200 -163.9800 1 113 140.2900 -141.8400
6.6573448256e-01 -3.0825275705e-02 -2.9255313862e+00
112 184 93
2 7 143 131.4900 -13.5600 1 128 153.8100 13.3800
-6.7466536601e-01 5.9357272348e-01 -2.5183036122e+00
146 141 139
2 7 156 -161.7600 117.8400 0 259 -150.5600 151.7500
-2.4153145665e-01 -8.1474501611e-01 -2.6787483960e+00
110 111 106
2 7 168 -53.4900 -189.1800 1 315 -67.5400 -152.8000
6.2867844889e-01 -8.2127887737e-01 -2.7564773777e+00
18 18 14
2 7 170 132.4500 -181.4500 1 219 146.4100 -163.5900
-4.2322356827e-01 -6.8626239612e-01 -2.6928710210e+00
30 41 25
5 7 175 -91.8700 -161.0800 0 215 -64.9900 -122.5800 1 229 -106.6600 -120.6600 2 230 -108.2800 -87.6900 9 146 -131.5100 -113.5600
-1.0161896429e-02 -4.6766383181e-01 -2.6176714349e+00
205 207 204
5 7 180 -5.9400 -114.9200 0 153 24.1900 -58.1800 1 171 -11.6600 -69.0100 2 166 -35.7800 -57.9400 9 110 -34.3800 -29.9200
7.3537375619e-02 -4.5756434730e-01 -2.6420435773e+00
214 213 210
3 7 181 13.4300 -111.8200 0 221 41.2100 -54.9500 2 233 -17.9800 -60.6900
-3.9282356537e-01 -2.1222654814e-01 -2.5653089064e+00
98 113 105
3 7 192 -93.6900 -61.3800 0 228 -71.2700 -8.9400 1 246 -100.1400 -4.5800
8.0301205154e-01 -6.5388673184e-02 -3.0517875947e+00
66 55 44
2 7 197 154.5000 -19.4800 1 187 182.6100 -1.3100
8.3393213112e-01 -3.2115295838e-02 -3.0306530657e+00
175 182 174
4 7 198 161.0600 -13.1800 1 247 189.1100 7.1700 2 238 182.1200 -30.9700 9 172 200.2200 39.2100
5.5944892994e-01 9.5114746975e-02 -2.9651627749e+00
79 136 67
2 7 201 108.2100 11.1100 1 191 130.1300 37.3000
-2.3675528834e-01 4.3406344883e-01 -2.6072278190e+00
64 51 41
2 7 208 -60.9800 83.4500 0 250 -53.2400 122.3100
-2.2871828166e-01 5.1666079693e-01 -2.6099175429e+00
194 197 191
3 7 210 -59.9200 101.5600 0 352 -53.4100 137.9400 1 266 -47.6100 149.1800
-2.2170340894e-01 5.6377870694e-01 -2.6112415599e+00
150 150 144
3 7 214 -58.8300 112.4100 0 353 -52.1800 145.8700 1 268 -45.8500 158.5700
-1.3923092564e-01 -9.6850409545e-01 -2.5142646399e+00
181 206 205
2 7 224 -32.2100 -231.5800 1 428 -56.4300 -192.4700
-1.3678828592e-01 -8.8556890542e-01 -2.5861508253e+00
40 49 48
2 7 239 -31.5300 -209.0400 1 218 -49.6200 -171.0200
9.3562318206e-01 -8.7364436358e-01 -2.7143414521e+00
60 33 16
2 7 249 200.8600 -191.3200 1 155 224.0500 -179.5400
-1.9786233895e-01 -8.1964245033e-01 -2.6622718972e+00
40 34 10
2 7 250 -43.6700 -190.5000 1 446 -59.0400 -154.6400
-4.7648520878e-01 -7.0818815632e-01 -2.6817696233e+00
93 155 92
3 7 253 -104.0000 -166.4900 0 213 -76.6100 -128.7900 1 228 -119.8700 -125.1000
-1.5117229157e-01 -5.2303353988e-01 -2.5986705208e+00
208 183 42
5 7 256 -36.6900 -129.0400 0 301 -6.5400 -73.4900 1 326 -47.1800 -81.0400 2 398 -65.1200 -61.5000 9 234 -73.1000 -47.6700
-1.5457709668e-01 -4.7154482034e-01 -2.5808979583e+00
202 200 194
4 7 258 -38.1600 -117.3800 1 334 -48.1900 -67.9800 2 401 -64.2600 -51.1500 9 336 -75.0300 -33.3100
-1.5593811722e-01 -3.6782147588e-01 -2.5432186707e+00
205 207 200
4 7 265 -39.9400 -95.7200 0 313 -11.8600 -35.7600 1 242 -49.1500 -40.7100 9 246 -77.4800 -5.5800
-1.3160133362e-01 -3.3326717567e-01 -2.5373458833e+00
189 189 194
5 7 267 -34.7500 -87.8700 0 316 -7.2500 -26.7400 1 345 -43.2400 -32.4400 2 310 -55.2100 -21.4500 9 249 -71.4300 4.0400
4.7069022994e-02 -3.0132314258e-01 -2.5819768484e+00
80 5 0
4 7 269 6.0500 -78.8900 1 243 2.8800 -27.1700 2 309 -18.0700 -24.4000 9 251 -21.9400 14.2800
-5.2242683717e-01 -2.3900415961e-01 -2.5171129090e+00
99 121 98
4 7 271 -124.0100 -69.0800 0 227 -101.4700 -14.5600 1 245 -133.9200 -7.7200 9 353 -159.7300 0.9600
-4.0530917835e-01 -2.4470415960e-01 -2.5678315154e+00
55 75 63
3 7 272 -96.2600 -68.7900 0 320 -73.3400 -16.5300 1 346 -103.2900 -12.1900
-6.2199939566e-01 4.0917907861e-02 -2.4524471218e+00
190 207 155
3 7 289 -151.8100 -5.4600 0 333 -131.4800 48.9600 1 370 -154.8800 60.4500
-4.6932962911e-01 9.8713625548e-02 -2.5587308586e+00
222 80 135
3 7 294 -118.8500 3.9500 1 372 -105.5500 67.4800 2 460 -75.3000 65.4300
-8.2284469827e-01 2.4046802539e-01 -2.5318009877e+00
110 88 90
2 7 307 -192.0300 37.8300 1 384 -185.2500 95.5000
5.6296298372e-01 5.2275405882e-01 -2.6936230134e+00
91 102 84
2 7 319 112.8500 105.4400 1 545 130.4100 147.7700
9.8718735461e-01 6.7616612544e-01 -2.9003645810e+00
203 205 210
2 7 322 191.3600 131.2100 1 267 220.2800 158.9200
-1.3372978093e-01 -4.8927810272e-01 -2.5895776161e+00
42 16 15
4 7 352 -33.3100 -121.5300 1 460 -43.0500 -72.3500 2 608 -60.9900 -55.7000 9 483 -69.0600 -37.4400
-4.6188694912e-02 -4.3291246715e-01 -2.5963175364e+00
28 28 33
5 7 357 -13.7700 -108.5100 0 450 14.5900 -50.2200 1 463 -20.9700 -59.3300 2 404 -41.6300 -48.2200 9 338 -45.3700 -21.1600
-8.1192694871e-02 -4.0480156687e-01 -2.5778633941e+00
24 22 23
5 7 360 -22.1600 -102.8100 0 454 6.0400 -43.8500 1 340 -29.7400 -51.6500 2 407 -47.6200 -40.1000 9 342 -55.8300 -14.4000
2.3397777589e-02 -4.0561132735e-01 -2.6073035551e+00
212 214 208
4 7 362 1.4200 -101.1700 0 664 29.3600 -43.7400 1 466 -3.1100 -53.6200 9 344 -26.3000 -12.4500
-7.0528521603e-02 -3.7725002851e-01 -2.5707673259e+00
25 25 24
5 7 363 -19.9600 -96.9500 0 458 7.6500 -36.8500 1 342 -27.1400 -44.7600 2 411 -44.4900 -34.3800 9 346 -53.6200 -6.9000
-3.1253638976e-02 -3.7247446289e-01 -2.5805074490e+00
30 28 29
5 7 364 -11.0900 -95.4300 0 461 16.2500 -35.3500 1 470 -17.0600 -44.0600 2 408 -36.5900 -35.6700 9 347 -42.5800 -5.0000
-3.1253638976e-02 -3.7247446289e-01 -2.5805074490e+00
30 28 29
5 7 365 -11.0900 -95.4300 0 462 16.2500 -35.3500 1 471 -17.0600 -44.0600 2 409 -36.5900 -35.6700 9 348 -42.5800 -5.0000
-2.0056647128e-02 -3.2544252746e-01 -2.5692076132e+00
216 213 211
5 7 369 -8.9500 -84.8700 0 467 17.4400 -24.0900 1 478 -14.4700 -32.2200 2 416 -32.7900 -26.0500 9 354 -40.0900 7.3500
4.7094428651e-03 -3.1870893034e-01 -2.5758057995e+00
42 18 15
5 7 370 -3.3800 -83.0000 0 469 22.9000 -22.5300 1 482 -8.1000 -30.9800 2 414 -27.2300 -25.9300 9 357 -33.3200 9.1300
4.4534685641e-03 -3.1840209036e-01 -2.5761321394e+00
42 18 15
4 7 371 -3.3800 -83.0000 1 483 -8.1000 -30.9800 2 415 -27.2300 -25.9300 9 358 -33.3200 9.1300
-3.6096995205e-01 -1.8428539199e-01 -2.5705627721e+00
59 73 64
2 7 379 -86.4500 -54.8500 1 500 -92.0600 1.4500
8.7318132890e-01 1.2392987511e-02 -2.9929151551e+00
214 224 216
5 7 392 170.1500 -3.9000 0 493 168.2200 34.4600 1 357 198.9500 18.3600 2 311 190.3700 -20.4600 9 376 205.5500 55.1700
-7.1588126762e-04 5.2900395961e-02 -2.7382414378e+00
109 201 215
2 7 393 -5.6800 0.1000 0 500 6.3100 42.6100
8.3296824682e-01 3.9019120279e-02 -2.9810742867e+00
202 207 202
2 7 394 162.4400 1.2800 0 495 160.5800 39.3100
8.6209966421e-01 4.2929242113e-02 -2.9760674876e+00
75 67 52
2 7 395 167.7300 2.5300 0 497 166.6200 40.7400
6.8537921949e-01 2.4884120909e-01 -2.7907727094e+00
111 116 99
2 7 405 137.9600 45.4400 0 706 134.5300 88.7000
-7.3794460197e-01 3.1565894962e-01 -2.4857049769e+00
146 135 141
2 7 408 -177.0500 56.0400 0 525 -161.4700 100.0400
2.4194438352e-01 -7.8326903039e-01 -2.6199299328e+00
124 127 116
2 7 473 52.3500 -182.7400 1 447 47.3500 -149.6000
6.1556632111e-01 -7.9124016166e-01 -2.7472791458e+00
124 137 129
2 7 476 130.7900 -175.2700 1 444 142.4800 -156.2500
-6.6782207850e-01 -6.9391487315e-01 -2.6792424445e+00
172 73 97
4 7 479 -144.4300 -163.9400 0 627 -121.7000 -130.9300 1 616 -161.7100 -119.7000 2 1071 -144.6200 -78.7900
-4.7339020779e-01 -5.7455986198e-01 -2.6394887518e+00
97 158 106
5 7 484 -105.6100 -139.3200 0 635 -79.9400 -96.4900 1 635 -119.8900 -92.4100 2 603 -114.0100 -62.2500 9 467 -146.2500 -83.1500
-8.2526268373e-02 -4.8135185526e-01 -2.6014443472e+00
210 215 208
4 7 490 -21.6900 -119.2500 0 649 7.7400 -62.0000 1 462 -29.9400 -71.6700 2 607 -50.4000 -56.6500
9.9171234399e-02 -4.8810029506e-01 -2.6626752716e+00
50 6 7
3 7 492 19.5200 -117.0300 1 331 16.1100 -76.8400 9 334 -1.7700 -34.8100
7.7576119500e-02 -4.7291003372e-01 -2.6472260527e+00
209 214 207
5 7 494 13.9800 -114.8000 0 651 43.1000 -58.5400 1 461 10.8400 -71.9000 2 600 -17.5000 -64.3600 9 486 -9.1000 -30.4100
1.0189259359e-01 -4.5873928231e-01 -2.6498511405e+00
56 9 5
4 7 496 19.3900 -111.6500 0 652 47.3300 -55.0700 2 602 -12.2500 -62.6700 9 488 -1.8700 -25.9200
1.0092779278e-01 -4.4050058912e-01 -2.6454624010e+00
55 6 1
5 7 497 19.1500 -107.9900 0 658 46.7700 -50.5600 1 646 16.7200 -64.0400 2 605 -11.7400 -58.3800 9 491 -2.5000 -21.7400
5.4703015488e-02 -4.2792499985e-01 -2.6258872254e+00
26 25 28
4 7 498 8.8400 -105.9400 0 661 36.5300 -48.0100 2 612 -20.8300 -52.9200 9 492 -16.5300 -18.6300
5.4803168911e-02 -4.2799226634e-01 -2.6258654664e+00
26 25 28
5 7 499 8.8400 -105.9400 0 662 36.5300 -48.0100 1 650 5.0300 -60.1000 2 613 -20.8300 -52.9200 9 493 -16.5300 -18.6300
9.9359471196e-01 -5.1263686055e-01 -3.1445106129e+00
25 23 21
2 7 502 189.0100 -103.2500 1 455 224.0200 -100.6600
-4.9600082722e-02 -3.8467871233e-01 -2.5796061157e+00
201 204 193
5 7 507 -15.0400 -98.0500 0 669 12.5600 -38.4900 1 467 -21.8300 -47.1400 2 628 -40.7600 -37.2800 9 502 -47.4000 -8.5600
-1.0648599689e-01 -3.7667198499e-01 -2.5600129274e+00
27 30 34
5 7 509 -28.3800 -97.0700 0 671 -0.3000 -37.1300 1 668 -36.3500 -43.9200 2 632 -51.7200 -32.4600 9 504 -63.7400 -7.2200
-9.8845128810e-03 -3.7955989852e-01 -2.5880872968e+00
215 218 212
4 7 510 -6.1900 -96.6000 0 672 21.0200 -36.6500 1 468 -11.5300 -46.6900 2 626 -32.6000 -38.2500
-1.0176576403e-02 -3.7948957685e-01 -2.5906035634e+00
215 218 212
5 7 511 -6.1900 -96.6000 0 673 21.0200 -36.6500 1 469 -11.5300 -46.6900 2 627 -32.6000 -38.2500 9 506 -36.1500 -6.9200
9.8616018883e-02 -3.5331833450e-01 -2.6165492098e+00
57 6 1
4 7 513 18.1200 -89.4900 1 671 16.0000 -41.6100 2 625 -9.0800 -38.9000 9 508 -5.6600 1.1900
-8.1958843349e-02 -3.3193821433e-01 -2.5528428361e+00
207 212 208
2 7 516 -23.1300 -87.0300 1 677 -30.2600 -32.8500
-8.2075203652e-02 -3.3223783882e-01 -2.5532278833e+00
207 212 208
5 7 517 -23.1300 -87.0300 0 675 3.9100 -26.1800 1 678 -30.2600 -32.8500 2 855 -45.3400 -24.1900 9 662 -57.5900 4.5800
-5.2179060881e-01 -3.1745878091e-01 -2.5389529171e+00
39 53 39
2 7 518 -122.5400 -86.1500 1 684 -133.5900 -27.3400
7.5101242413e-02 -3.3323156342e-01 -2.5998836146e+00
243 42 29
5 7 519 12.5800 -85.0200 0 677 38.5400 -25.7200 1 475 9.8600 -35.9000 2 631 -13.4800 -33.3900 9 509 -13.2700 7.0700
7.5030065712e-02 -3.3207841961e-01 -2.5997761110e+00
243 42 29
3 7 520 12.5800 -85.0200 1 476 9.8600 -35.9000 9 510 -13.2700 7.0700
-2.9336424527e-02 -3.2622862642e-01 -2.5644665050e+00
208 216 209
4 7 522 -10.7000 -85.0700 1 680 -16.8800 -32.1500 2 854 -34.7600 -25.4400 9 665 -43.4600 7.1700
2.9998918943e-02 -3.1886283518e-01 -2.5809230855e+00
240 43 42
4 7 526 2.4200 -82.9100 0 679 28.3200 -22.1800 1 682 -1.6900 -31.3700 2 637 -22.2300 -27.2000
7.3133242985e-02 -3.1175918073e-01 -2.5937913163e+00
242 42 33
4 7 529 12.1100 -80.6300 0 680 37.4200 -20.0800 1 481 9.4500 -30.8500 2 635 -12.9600 -28.1700
7.3142122232e-02 -3.1132827300e-01 -2.5934109393e+00
242 42 33
3 7 530 12.1100 -80.6300 0 681 37.4200 -20.0800 2 636 -12.9600 -28.1700
9.0650895305e-02 -2.9648448810e-01 -2.5947437972e+00
56 9 0
4 7 533 15.8700 -77.1700 0 683 40.9200 -16.5300 2 639 -8.6600 -25.8100 9 513 -9.7100 15.9700
-7.2205248088e-01 -1.1557648376e-01 -2.4562273469e+00
189 118 137
5 7 544 -173.1100 -42.1700 0 691 -152.2300 11.8800 1 698 -180.4200 24.5400 2 1179 -138.5800 39.9100 9 673 -203.0800 21.1300
1.0121602556e+00 2.3272797371e-01 -3.0361219785e+00
53 52 49
2 7 560 193.2300 40.1000 0 922 181.6000 71.8200
6.2854374656e-01 4.0997117558e-01 -2.7523185349e+00
211 225 223
2 7 573 125.9200 79.9800 0 712 119.1100 119.6300
-7.0544588908e-01 4.9776848039e-01 -2.5077859044e+00
42 24 21
2 7 579 -169.1500 96.7100 0 720 -155.9800 134.0800
-7.2192640452e-01 5.3093256119e-01 -2.5273599298e+00
99 80 78
2 7 584 -171.7800 103.2700 0 722 -159.3000 137.8500
-8.0177503694e-02 6.2726044611e-01 -2.6129206682e+00
141 140 135
5 7 588 -27.6000 127.4500 0 725 -24.8700 159.4200 1 734 -13.9600 172.7600 2 906 22.2400 143.5800 9 707 -35.8200 148.0600
-7.9791609849e-02 6.2962713963e-01 -2.6168752198e+00
141 140 135
3 7 589 -27.6000 127.4500 0 726 -24.8700 159.4200 1 733 -13.9600 172.7600
-1.1363739402e-01 -8.4351976394e-01 -2.6413665979e+00
61 38 1
3 7 631 -25.5100 -196.1000 0 809 12.4700 -148.2000 1 808 -40.8000 -161.4200
2.0127868891e+00 -1.3090335275e+00 -4.7032008035e+00
83 79 81
2 7 640 276.6500 -178.0600 0 753 285.3100 -202.6100
-4.6813026878e-01 -7.3689638663e-01 -2.6935466172e+00
41 73 48
5 7 642 -101.3700 -172.0700 0 818 -73.9400 -135.4500 1 832 -117.6000 -132.2600 2 1053 -117.8800 -95.3800 9 589 -143.8300 -127.3800
-6.4977091100e-01 -7.1288870334e-01 -2.6892964338e+00
154 30 59
2 7 644 -140.0300 -167.5200 1 836 -157.5100 -124.4400
1.4099431539e-01 -7.2520236591e-01 -2.7501799538e+00
209 54 37
2 7 645 29.3500 -164.6500 1 831 26.9700 -136.3000
-6.5541635710e-01 -6.4416130717e-01 -2.6685540820e+00
155 30 60
2 7 647 -142.9400 -153.9500 0 630 -120.1000 -118.6700
1.5649646560e+00 -1.1172203432e+00 -4.9236281438e+00
99 85 91
2 7 652 209.3100 -149.2600 1 755 276.4900 -222.6800
1.5649646560e+00 -1.1172203432e+00 -4.9236281438e+00
99 85 91
2 7 653 209.3100 -149.2600 1 756 276.4900 -222.6800
-4.8423767354e-01 -5.9547874581e-01 -2.6421320215e+00
107 164 113
4 7 656 -107.6800 -143.7600 1 854 -122.5900 -97.4400 2 1079 -116.6600 -65.8900 9 602 -149.1400 -88.6000
7.4949293312e-02 -5.7001022068e-01 -2.6793751086e+00
154 122 119
5 7 661 14.3400 -134.9900 0 837 44.4500 -81.5900 1 857 10.5000 -96.5900 2 797 -21.6400 -85.5700 9 609 -6.6400 -57.2900
-6.7098292796e-01 -4.6441320654e-01 -2.5965726068e+00
149 42 81
3 7 669 -151.2500 -117.7200 0 840 -129.5000 -74.7000 1 883 -164.9000 -63.6400
-4.1797713774e-02 -4.7385183637e-01 -2.6112349065e+00
21 20 16
5 7 671 -12.5400 -116.6900 0 843 16.6900 -60.0600 1 873 -19.5400 -70.2300 2 1094 -42.1900 -57.7500 9 618 -43.3200 -31.9200
-4.1853433113e-02 -4.7363690211e-01 -2.6113132258e+00
21 20 16
5 7 672 -12.5400 -116.6900 0 844 16.6900 -60.0600 1 643 -19.5600 -70.0300 2 1095 -42.1900 -57.7500 9 619 -43.3200 -31.9200
-8.5082527938e-02 -4.5408502802e-01 -2.5929005244e+00
208 209 200
5 7 674 -22.4900 -113.2800 0 850 6.4100 -55.8400 1 878 -30.4600 -64.4300 2 822 -50.1300 -50.6500 9 622 -55.9900 -27.5000
3.4937742843e-02 -4.5776869372e-01 -2.6309528523e+00
19 15 16
3 7 675 4.6100 -112.2000 1 644 0.0600 -67.4300 2 811 -25.9400 -58.5800
3.4937742843e-02 -4.5776869372e-01 -2.6309528523e+00
19 15 16
3 7 676 4.6100 -112.2000 1 645 0.0600 -67.4300 2 810 -25.9400 -58.5800
-5.8223081585e-02 -4.4966192085e-01 -2.5992340151e+00
212 217 212
4 7 677 -16.4300 -112.1400 0 851 12.4000 -54.3400 1 880 -23.7900 -63.6500 9 624 -48.4600 -26.0000
-5.8272614927e-02 -4.4965417640e-01 -2.5988976655e+00
212 217 212
5 7 678 -16.4300 -112.1400 0 852 12.4000 -54.3400 1 881 -23.7900 -63.6500 2 1108 -44.6200 -51.0700 9 625 -48.4600 -26.0000
-7.5108792983e-02 -4.4148039080e-01 -2.5917360077e+00
18 17 23
5 7 680 -20.3500 -110.6300 0 653 8.3100 -52.7000 1 648 -28.0800 -61.2100 2 827 -47.6600 -48.4400 9 629 -53.3000 -24.0100
-7.5108792983e-02 -4.4148039080e-01 -2.5917360077e+00
18 17 23
5 7 681 -20.3500 -110.6300 0 654 8.3100 -52.7000 1 649 -28.0800 -61.2100 2 828 -47.6600 -48.4400 9 630 -53.3000 -24.0100
1.7060667966e+00 -8.4828268541e-01 -5.2118541969e+00
122 118 123
2 7 684 216.3400 -109.3400 1 777 287.1800 -182.9600
2.0467004034e-02 -4.4108123404e-01 -2.6192656387e+00
214 214 207
5 7 685 1.2100 -109.2600 0 855 29.6400 -51.3100 1 647 -3.7600 -62.8200 2 817 -28.2800 -53.7300 9 634 -26.2600 -22.6400
-1.1893613864e-01 -4.3087840484e-01 -2.5744742103e+00
211 211 203
3 7 687 -30.5700 -108.8300 0 856 -1.6900 -50.7300 9 637 -66.1500 -21.5800
-1.7626471532e-02 -4.3251521840e-01 -2.6047540029e+00
17 20 23
5 7 690 -7.4400 -107.8900 0 858 20.8900 -49.8500 1 889 -13.4000 -59.9300 2 824 -35.8800 -49.6900 9 639 -37.3200 -20.6500
-9.0677319783e-02 -4.2649494662e-01 -2.5813250885e+00
209 215 208
5 7 691 -24.1100 -107.4300 0 859 4.5800 -49.3200 1 893 -32.2100 -57.1100 2 833 -50.3300 -44.2700 9 641 -58.2100 -20.0400
-9.0677319783e-02 -4.2649494662e-01 -2.5813250885e+00
209 215 208
5 7 692 -24.1100 -107.4300 0 860 4.5800 -49.3200 1 894 -32.2100 -57.1100 2 834 -50.3300 -44.2700 9 642 -58.2100 -20.0400
-1.0715195331e-02 -4.1760096001e-01 -2.6019469827e+00
221 224 220
5 7 693 -6.1000 -104.3800 0 864 22.1000 -46.3600 1 896 -11.7500 -56.3000 2 1111 -33.9500 -46.9500 9 646 -35.6700 -16.4300
5.4240686128e-02 -4.1006971446e-01 -2.6192816491e+00
215 222 219
4 7 700 7.9200 -102.3100 0 665 36.0000 -43.8300 1 658 4.7100 -55.5100 9 498 -16.6500 -13.4100
8.5897417035e-02 -4.0469053483e-01 -2.6281268219e+00
216 219 215
5 7 701 15.5200 -100.3400 0 870 42.6700 -42.4300 1 898 12.8300 -54.7300 2 823 -13.5300 -49.7200 9 651 -8.1300 -11.9300
-9.2745910708e-02 -3.8587336497e-01 -2.5679963052e+00
213 220 214
5 7 704 -25.0800 -98.8900 0 873 3.0000 -39.2700 1 901 -32.7700 -46.5800 2 841 -49.2900 -35.2900 9 653 -59.5000 -9.5900
2.6358141242e-02 -3.7182513786e-01 -2.5986662674e+00
224 227 223
5 7 706 2.0000 -94.3800 0 874 28.9300 -34.7700 1 666 -2.3400 -45.1400 2 838 -24.7800 -38.8100 9 654 -26.1000 -4.2100
-9.3006198705e-02 -3.5977812368e-01 -2.5582612247e+00
208 212 206
2 7 709 -25.6500 -93.1600 0 877 2.3900 -33.0600
7.1794212858e-02 -3.5399177211e-01 -2.6069673379e+00
25 19 16
5 7 714 11.9600 -89.8900 0 880 38.3500 -30.2300 1 672 9.2200 -41.3900 2 840 -14.7200 -37.5900 9 658 -13.5700 1.0900
-3.0354199330e-02 -3.2610676371e-01 -2.5651895590e+00
206 214 208
4 7 720 -11.4400 -85.2500 1 679 -16.8800 -32.1500 2 853 -34.7600 -25.4400 9 664 -43.4600 7.1700
9.1517774405e-02 -3.2361956562e-01 -2.6036134088e+00
115 7 5
5 7 722 16.2900 -82.8300 0 1160 41.8000 -23.2700 1 913 14.2100 -34.0000 2 849 -9.5700 -31.8500 9 835 -8.7500 9.1700
9.1517774405e-02 -3.2361956562e-01 -2.6036134088e+00
115 7 5
5 7 723 16.2900 -82.8300 0 1161 41.8000 -23.2700 1 914 14.2100 -34.0000 2 850 -9.5700 -31.8500 9 836 -8.7500 9.1700
2.5999657691e+00 -6.5740018467e-01 -5.4163831577e+00
58 57 58
2 7 724 312.1200 -79.7500 0 1071 292.0600 -118.4100
7.0552561706e-01 2.6980603373e-02 -2.8650898593e+00
117 128 100
5 7 750 141.3800 -1.9300 0 909 143.3500 42.9000 1 699 163.3000 29.7500 2 870 150.1100 -2.1800 9 535 158.6300 68.6500
6.7788668929e-01 6.9714350543e-02 -2.8311647337e+00
163 176 162
3 7 753 136.3200 7.3800 0 916 138.4200 52.7300 1 701 157.2300 41.3200
6.8593013206e-01 9.6046209573e-02 -2.8106433445e+00
192 204 195
3 7 754 138.5600 13.1400 0 1199 139.9700 59.2200 1 938 159.0700 48.5200
6.4175216263e-01 3.6081488642e-01 -2.7612750893e+00
171 183 169
4 7 762 128.9300 69.5000 0 938 123.3100 110.2400 1 716 148.4500 108.5000 9 705 128.0100 134.0800
-1.8232697174e-02 4.0443556031e-01 -2.6475399969e+00
153 141 132
2 7 766 -12.5200 77.6800 0 942 -6.4000 117.0800
-1.8232697174e-02 4.0443556031e-01 -2.6475399969e+00
153 141 132
2 7 767 -12.5200 77.6800 0 943 -6.4000 117.0800
2.1783715825e-01 3.9625274473e-01 -2.6348538234e+00
28 36 45
3 7 768 39.6900 77.9800 0 948 42.7800 121.2600 1 950 50.7800 125.7800
-4.7043874065e-02 4.4376054589e-01 -2.6291898805e+00
123 119 115
2 7 772 -19.3700 86.6300 0 952 -13.2100 125.5400
-6.9446544195e-01 4.4994966626e-01 -2.4984662471e+00
58 36 32
2 7 775 -167.2500 86.4500 0 715 -153.1100 126.1200
-2.4004935999e-01 4.8302130911e-01 -2.6080062532e+00
89 81 76
2 7 780 -62.3800 94.4000 1 1279 -51.0100 142.9900
-2.3318984614e-01 5.6004879157e-01 -2.6154018326e+00
136 133 125
2 7 783 -60.9800 111.0700 1 961 -48.0100 157.6300
-6.7846282812e-01 6.1903268198e-01 -2.5128007874e+00
136 122 126
2 7 784 -163.4500 123.8500 0 961 -151.3500 156.8000
-2.8271114973e-01 -9.1125977476e-01 -2.5588481035e+00
16 16 15
3 7 814 -63.7900 -216.5600 0 1027 -24.8500 -167.5200 1 1056 -87.8500 -175.6900
-3.2812799253e-01 -8.5421052709e-01 -2.5630084723e+00
153 184 220
2 7 821 -74.2700 -203.8700 1 1069 -97.5200 -160.5500
1.1274386801e-01 -8.3253255831e-01 -2.6038595743e+00
178 200 84
3 7 836 24.0200 -195.1200 0 1060 65.4100 -136.9600 1 1068 13.7500 -160.8100
9.7529463216e-02 -8.2945614998e-01 -2.6037075444e+00
169 189 85
3 7 837 20.6600 -194.5100 0 1061 61.7900 -136.7500 1 1070 9.9100 -159.8700
-3.8671967074e-01 -6.5660008090e-01 -2.7020117548e+00
89 126 90
4 7 884 -84.3700 -154.5200 0 1079 -57.3600 -115.0300 1 843 -97.3200 -114.2500 9 767 -120.7800 -106.0000
-4.6830424101e-01 -5.8828134550e-01 -2.6440944284e+00
23 70 32
3 7 893 -104.4900 -142.5700 0 1085 -78.4600 -99.6900 1 1124 -118.5700 -95.6800
-5.6850392776e-02 -5.8708081183e-01 -2.6458385344e+00
156 115 107
5 7 894 -14.6900 -140.5500 0 1098 16.4000 -87.6300 1 847 -23.0300 -98.7700 2 1067 -48.8500 -81.4500 9 776 -44.8900 -63.7200
-3.5045846838e-02 -5.8330254608e-01 -2.6505965293e+00
167 128 128
5 7 896 -9.9400 -139.5100 0 1104 21.1600 -86.2600 1 850 -17.4700 -98.2100 2 1064 -44.3600 -81.8300 9 777 -38.7000 -62.3800
-1.4970402724e-02 -5.8051037213e-01 -2.6547566920e+00
168 133 128
4 7 897 -5.5000 -138.6800 0 1105 25.4600 -85.2600 1 849 -12.4800 -97.8000 9 779 -32.9300 -61.1500
-4.5628595512e-01 -5.6843857260e-01 -2.6437041956e+00
28 60 29
5 7 900 -101.9600 -138.0900 0 1087 -76.1100 -94.7100 1 862 -115.6000 -91.2000 2 1089 -110.4500 -61.8900 9 772 -141.4500 -81.5400
3.8409635434e-02 -5.7379425540e-01 -2.6690357308e+00
165 133 134
4 7 904 6.1900 -136.4200 0 1109 36.9800 -82.8900 1 855 1.0700 -96.8800 9 785 -17.3700 -58.7600
9.4484409867e-02 -5.6730126738e-01 -2.6849380128e+00
178 140 137
5 7 907 18.5500 -134.1100 0 838 48.7000 -80.5900 1 858 15.2700 -96.1700 2 1058 -17.4400 -86.2800 9 610 -0.8700 -56.4400
-9.7635992738e-02 -4.6476140302e-01 -2.5930143923e+00
31 27 26
3 7 925 -25.3800 -115.8600 1 875 -33.9000 -66.8900 9 808 -59.1300 -30.4700
-9.8669189905e-02 -4.6496722818e-01 -2.5950985983e+00
31 27 26
3 7 926 -25.3800 -115.8600 0 848 3.6200 -58.9000 1 876 -33.9000 -66.8900
8.9863918207e-02 -4.7224591503e-01 -2.6526759990e+00
212 218 212
5 7 930 16.9600 -114.5300 0 1124 45.2300 -58.3200 1 872 13.9300 -72.0600 2 1082 -15.0700 -64.9700 9 807 -4.8900 -30.3200
-6.7452141154e-01 -4.4519460703e-01 -2.5911193299e+00
25 107 130
2 7 931 -152.3900 -113.6300 1 1145 -165.8000 -58.9400
1.6087755204e+00 -8.6493955465e-01 -5.1722939039e+00
94 81 85
2 7 933 206.0100 -112.4600 1 1044 274.4300 -184.8700
-2.8087531183e-02 -4.4533544506e-01 -2.6064523990e+00
212 215 210
5 7 934 -9.6500 -110.7300 0 853 19.0100 -53.0200 1 884 -16.0700 -63.0600 2 1107 -38.4400 -51.8700 9 627 -39.9300 -24.4300
-4.9822729565e-03 -4.4190831155e-01 -2.6124574225e+00
210 212 211
4 7 937 -4.3500 -109.6800 0 1129 24.0400 -51.8900 2 1103 -33.5500 -52.4700 9 811 -33.4800 -23.3200
-6.7122223180e-02 -4.2488781246e-01 -2.5879987742e+00
210 211 210
5 7 941 -18.7500 -106.8200 0 1131 9.7200 -48.6500 1 895 -26.1100 -57.0700 2 1114 -45.5700 -45.3600 9 816 -51.5100 -19.3000
8.8724084929e-02 -4.2933656488e-01 -2.6378962030e+00
178 183 176
3 7 946 16.3800 -105.6200 0 1133 43.8800 -48.1400 9 817 -6.5200 -18.7200
8.8837947971e-02 -4.2957946366e-01 -2.6375757866e+00
178 183 176
5 7 947 16.3800 -105.6200 0 1134 43.8800 -48.1400 1 1140 13.7500 -61.1900 2 1099 -13.9000 -55.3700 9 818 -6.5200 -18.7200
-3.0694552843e-02 -4.2133828398e-01 -2.5971865234e+00
217 216 214
4 7 948 -10.5300 -105.6100 0 1135 17.7500 -47.4800 1 897 -16.8600 -56.8000 9 819 -41.2800 -17.7500
3.8473576100e-02 -4.2363134051e-01 -2.6196225091e+00
25 16 23
5 7 949 5.1700 -105.1500 0 862 32.8000 -47.2500 1 890 0.8500 -58.6600 2 820 -24.2700 -51.0500 9 644 -21.0900 -17.6400
3.8473576100e-02 -4.2363134051e-01 -2.6196225091e+00
25 16 23
5 7 950 5.1700 -105.1500 0 863 32.8000 -47.2500 1 891 0.8500 -58.6600 2 821 -24.2700 -51.0500 9 645 -21.0900 -17.6400
1.1838410579e-03 -4.0696522404e-01 -2.6058798032e+00
61 61 58
2 7 955 -3.5500 -101.9900 0 1138 24.4700 -43.8200
1.1838410579e-03 -4.0696522404e-01 -2.6058798032e+00
61 61 58
2 7 956 -3.5500 -101.9900 0 1137 24.4700 -43.8200
2.1546016915e-02 -3.3465011035e-01 -2.5846712887e+00
114 15 10
5 7 972 0.5300 -86.2800 0 1153 26.9700 -26.1000 1 1160 -3.6900 -35.4400 2 1124 -24.5200 -30.2800 9 828 -28.3700 5.5400
-2.1660515188e-03 -3.3360892847e-01 -2.5787763816e+00
52 15 13
4 7 973 -4.7800 -86.2700 1 912 -9.6500 -34.7900 2 1126 -29.3900 -28.8900 9 827 -34.8000 5.1400
-1.3782777901e-01 -3.2460770736e-01 -2.5331865686e+00
19 18 19
5 7 974 -36.2400 -86.2100 0 1158 -8.9700 -24.7600 1 916 -44.6900 -29.8400 2 1131 -56.1600 -19.1400 9 830 -73.2700 5.9300
-1.3782777901e-01 -3.2460770736e-01 -2.5331865686e+00
19 18 19
5 7 975 -36.2400 -86.2100 0 1157 -8.9700 -24.7600 1 917 -44.6900 -29.8400 2 1132 -56.1600 -19.1400 9 831 -73.2700 5.9300
4.7807893054e-02 -3.3072772192e-01 -2.5914543078e+00
72 8 5
5 7 976 6.4500 -85.0400 0 1156 32.7000 -24.9400 1 911 3.0000 -34.9100 2 1122 -18.8000 -31.0400 9 833 -21.2600 6.8800
-1.1757238929e-02 -3.1145572899e-01 -2.5643331613e+00
216 213 209
2 7 979 -7.3300 -81.8000 1 1163 -12.3400 -28.6700
4.2555680546e-01 -3.0850917130e-01 -2.4909232954e+00
106 179 85
2 7 982 93.4300 -79.8100 1 1175 95.4800 -24.8400
1.8332324635e+00 -6.2588562325e-01 -5.4275008484e+00
126 113 114
2 7 983 223.6100 -79.2500 1 1085 297.0300 -153.6000
4.6971352259e-02 -3.0049307348e-01 -2.5817947795e+00
98 6 0
2 7 985 6.1300 -78.5300 1 918 2.6600 -27.1900
-6.7655038697e-01 -2.7887637843e-01 -2.5295186715e+00
84 170 187
2 7 986 -157.7100 -78.2700 0 1151 -136.2800 -28.8600
1.9037050326e+00 -6.0290463229e-01 -5.4467488139e+00
137 126 132
2 7 987 231.0100 -76.0500 1 814 305.9000 -150.9000
1.8400619210e+00 -5.9933652866e-01 -5.4521858750e+00
90 69 71
2 7 989 223.4200 -75.8800 1 1087 297.1200 -150.2000
1.8915092378e+00 -5.0936848349e-01 -5.5340027118e+00
123 111 117
2 7 998 226.4400 -64.4000 1 828 300.9000 -139.1600
-6.8749861113e-01 -1.9379277157e-01 -2.4929680649e+00
78 171 197
2 7 1001 -162.7500 -59.7000 0 1166 -141.5700 -7.4700
-3.4190103503e-01 -1.7194897007e-01 -2.5719255028e+00
194 209 199
3 7 1008 -82.2500 -51.9300 0 1172 -60.6300 0.6100 1 1198 -87.4400 4.2900
8.1530999879e-01 -4.7679236361e-02 -3.0562048868e+00
74 74 59
2 7 1024 156.4100 -16.0200 1 924 185.3200 2.2000
4.6228216687e-01 3.2686816428e-03 -2.9696602656e+00
62 106 15
2 7 1031 89.2500 -7.9400 1 929 108.9100 17.9300
9.3218631720e-01 1.7970351194e-02 -3.0050731099e+00
213 218 213
5 7 1033 181.1300 -2.3600 0 906 177.9400 35.6400 1 930 211.5000 18.7900 2 857 203.3800 -22.2100 9 689 220.0700 57.7700
7.9761493191e-01 1.0601808862e-01 -2.9460376697e+00
93 91 80
3 7 1040 155.9500 14.8300 0 915 153.5000 52.7900 9 691 182.0400 74.0000
9.7413630013e-01 1.9284046738e-01 -2.9901117688e+00
178 173 176
2 7 1047 188.6600 32.7200 1 939 219.5800 55.8400
6.0614978209e-01 3.1396225800e-01 -2.8003004668e+00
138 155 138
2 7 1058 120.6400 58.5000 1 1236 140.4900 95.1300
6.2707088119e-01 3.4889013562e-01 -2.7628246745e+00
210 224 216
2 7 1061 125.9200 66.8000 1 1242 145.2300 105.6900
6.1548147213e-01 3.5980347593e-01 -2.7660182323e+00
162 179 161
4 7 1064 123.2600 69.0800 0 937 118.0200 109.3000 1 945 142.5800 107.5000 2 1192 144.1300 72.6400
-7.6325445599e-01 4.1023418979e-01 -2.5468692618e+00
84 71 71
2 7 1069 -179.0800 75.4700 0 1213 -166.3400 111.9000
-6.7759784751e-01 4.5564001886e-01 -2.4905794950e+00
140 120 117
2 7 1078 -164.0500 88.1600 0 1227 -149.6500 128.4300
6.0091327812e-01 5.0337932451e-01 -2.6695044481e+00
129 146 128
4 7 1089 121.7500 102.3800 0 1234 113.6500 143.3200 1 959 138.9700 146.4800 9 896 110.2200 167.3100
6.1133066340e-01 5.0893997333e-01 -2.6584338377e+00
192 209 199
2 7 1090 124.5200 103.9900 1 1283 141.4900 148.7600
1.0682384487e-01 -5.7940412002e-01 -2.6932769083e+00
91 25 8
3 8 1016 42.8800 -139.4800 0 639 51.5400 -83.3600 1 629 18.4200 -99.4100
-4.1758564583e-03 -4.8389319164e-01 -2.6277870958e+00
214 215 216
4 8 1043 19.0600 -127.4300 0 1123 25.3700 -62.3300 1 871 -9.8100 -73.3300 2 1088 -34.7100 -61.8900
-1.6428924453e-01 -4.4396423133e-01 -2.5934507674e+00
185 150 131
4 0 18 -12.7800 -56.1200 1 21 -47.8300 -61.4400 2 37 -59.7100 -47.3300 9 22 -78.1400 -29.4800
-3.2164198369e-01 3.3134818126e-01 -2.6149416537e+00
233 238 241
3 0 22 -68.5800 99.8100 1 31 -70.2400 111.0200 2 45 -33.5400 96.4500
-3.2280898059e-01 3.3667009226e-01 -2.6268280200e+00
233 238 241
2 0 23 -68.5800 99.8100 1 32 -70.2400 111.0200
4.3538810378e-02 -8.5953586230e-01 -2.6239813389e+00
100 76 20
2 0 28 49.7400 -146.2000 1 18 -3.1100 -167.0900
4.1287704090e-01 2.4507306981e-01 -2.6472302990e+00
101 4 0
2 0 63 87.3500 96.3700 1 50 95.7500 92.8100
-9.8432732006e-02 3.9872581255e-01 -2.6679232965e+00
107 95 79
2 0 64 -22.9900 112.1100 1 75 -18.5200 121.6000
-4.3961236594e-01 -4.5980722689e-01 -2.6095172078e+00
43 41 40
2 0 77 -75.3800 -68.2100 1 88 -112.3700 -64.2200
-5.7385126010e-01 -2.0359197177e-01 -2.5187918496e+00
18 20 17
2 0 82 -113.9300 -9.2600 1 126 -144.4200 1.1700
-9.2067640700e-02 5.0456418653e-01 -2.6526725248e+00
180 185 180
2 0 93 -24.4900 133.5000 1 104 -16.3900 144.0300
-4.5448283844e-01 -9.6126669750e-01 -2.5005865938e+00
31 38 40
2 0 101 -65.4300 -184.7400 1 109 -135.0600 -185.3300
-1.7872428188e-01 4.6834830903e-01 -2.6320898127e+00
188 191 182
2 0 128 -41.4000 127.2700 1 142 -36.6300 138.1000
-4.1977423249e-01 -5.7489323313e-01 -2.6598458947e+00
41 35 32
3 0 149 -67.2000 -95.8300 1 166 -105.8300 -93.1400 9 150 -131.7800 -83.6500
-4.7621389236e-01 -2.6764177705e-01 -2.5249588798e+00
78 91 73
2 0 159 -89.6800 -20.7800 1 181 -123.3300 -14.8100
-1.5011826511e-01 -2.5431146512e-01 -2.5120954137e+00
190 117 74
2 0 164 -13.8300 -8.0600 1 182 -47.7400 -11.5500
-1.5011826511e-01 -2.5431146512e-01 -2.5120954137e+00
190 117 74
2 0 165 -13.8300 -8.0600 1 183 -47.7400 -11.5500
-1.3710820061e-01 3.3904314703e-01 -2.7244002071e+00
230 240 240
2 0 182 -29.8900 95.4400 1 136 -25.0800 103.7400
-1.9125528890e-02 -8.0780181162e-01 -2.5953956438e+00
232 234 77
2 0 210 34.0600 -135.2300 1 161 -19.3300 -152.9900
-3.7092222049e-01 -5.2772460330e-01 -2.6511697884e+00
27 20 17
2 0 219 -57.4300 -83.7100 1 325 -95.0200 -82.2500
-6.0169627595e-01 -1.5666665053e-01 -2.5156057595e+00
101 173 193
2 0 229 -121.6900 1.3800 1 248 -149.6000 11.3700
2.6209547787e-01 1.1529510913e-01 -2.6854305491e+00
32 58 20
2 0 240 60.3500 64.2000 1 254 60.5700 61.9500
-2.2912198857e-02 -9.4292197040e-01 -2.5297491399e+00
176 137 71
2 0 283 39.9900 -165.9000 1 212 -25.5900 -187.5200
-2.2912198857e-02 -9.4292197040e-01 -2.5297491399e+00
176 137 71
2 0 284 39.9900 -165.9000 1 213 -25.5900 -187.5200
9.7975357956e-01 -5.4504102562e-01 -3.2058903414e+00
112 104 97
2 0 299 197.1900 -74.5500 1 232 219.4700 -109.5300
-4.0433360796e-01 -1.8468657025e-01 -2.5442424192e+00
89 100 87
3 0 323 -74.8900 -1.6400 1 350 -103.6700 3.2100 2 431 -87.3700 13.4700
-3.8912352618e-01 -1.0051415939e-01 -2.6038866119e+00
175 188 202
2 0 327 -73.0600 12.5000 1 358 -94.3500 18.3300
-6.2082555595e-01 3.8809458631e-02 -2.4481238185e+00
200 207 174
2 0 332 -131.4800 48.9600 1 369 -154.8800 60.4500
-4.5023204530e-01 3.4203319765e-01 -2.8693102969e+00
94 183 215
2 0 339 -93.2500 77.2400 1 377 -82.1300 90.1800
2.8548130414e-01 1.8825535903e-01 -2.6891363182e+00
89 0 0
3 0 340 62.1900 78.5300 1 256 66.6900 77.1400 2 255 66.2800 54.5000
-5.7053731360e-01 1.9636336922e-01 -2.4893667997e+00
228 233 239
3 0 342 -122.1300 81.0800 1 528 -136.2700 91.5200 2 1200 -91.9900 86.6700
-1.5743441071e-01 3.2074172429e-01 -2.7834815014e+00
230 130 162
2 0 345 -33.9700 86.6900 1 383 -26.9300 94.6200
4.7222108783e-01 -1.0531230980e+00 -2.5269942236e+00
144 147 135
3 0 401 162.0200 -174.8200 1 285 103.6700 -223.7500 2 353 1.1100 -204.5400
1.8104621870e-01 -9.9181104150e-01 -2.5087625447e+00
40 48 46
2 0 404 91.9200 -170.4400 1 421 25.8000 -203.1400
5.2278514955e-01 -1.0291064042e+00 -2.5552828448e+00
148 151 140
3 0 408 170.3200 -166.8500 1 208 117.6400 -217.4800 2 201 16.1600 -204.2600
-7.3213127121e-02 -9.3884741463e-01 -2.5342558817e+00
58 65 66
2 0 409 27.5900 -166.8800 1 300 -38.0800 -185.6100
9.8345402962e-02 -9.1890824213e-01 -2.5592040533e+00
44 57 57
2 0 417 67.1300 -156.7800 1 302 7.1400 -182.6600
-3.6396033821e-02 -8.7652395848e-01 -2.6062958385e+00
100 111 99
2 0 421 32.4200 -152.8900 1 439 -24.1000 -169.8000
-4.6490251803e-01 -5.2284656184e-01 -2.6308907644e+00
44 39 37
2 0 439 -79.4000 -84.3000 1 327 -117.6600 -79.6800
-6.0563050707e-01 -3.3516653860e-01 -2.5793471584e+00
180 174 131
4 0 456 -117.3500 -42.7700 1 479 -149.0200 -33.2300 2 869 -123.2600 -10.2400 9 485 -173.1900 -31.9100
-6.1977490456e-01 -2.0534329095e-01 -2.5279324251e+00
204 110 127
3 0 472 -124.7000 -10.5100 1 498 -153.6200 -0.6700 2 655 -122.0000 16.3800
-4.7682723504e-01 -1.0426339920e-01 -2.5590276983e+00
180 82 112
3 0 482 -93.2900 12.8700 1 504 -117.1900 20.4700 2 660 -91.0100 28.5000
-3.3579321723e-01 -8.9206371666e-02 -2.6217645846e+00
189 183 196
2 0 484 -61.2800 14.7800 1 359 -81.0700 19.8200
-3.6439056073e-01 -7.5541305332e-02 -2.6046139011e+00
200 100 129
2 0 485 -68.0900 18.2400 1 361 -88.3300 23.9900
-3.9074918622e-01 3.5877196914e-01 -2.8994314016e+00
225 123 157
2 0 517 -81.5100 79.1900 1 378 -68.3300 91.1900
-6.2462109291e-01 2.9151705266e-01 -2.4724088335e+00
158 167 159
2 0 524 -136.0900 99.3900 1 719 -147.0800 113.1100
-1.4267175832e-01 4.9347591815e-01 -2.6602157605e+00
190 200 196
3 0 531 -34.4600 129.7900 1 542 -27.4600 141.1800 2 488 9.1500 116.5600
2.3607105426e-01 5.6429890709e-01 -2.6553726752e+00
170 180 173
2 0 536 40.4800 148.5400 1 200 56.3300 159.2800
2.0131334434e-01 5.6019856707e-01 -2.5837548194e+00
146 152 142
2 0 538 35.0300 155.9900 1 390 46.9600 164.6500
-4.7902347292e-01 -1.0508055989e+00 -2.4292970560e+00
107 127 125
2 0 566 -69.4000 -207.6200 1 575 -149.6300 -208.5800
6.0370386531e-01 -8.3159830244e-01 -2.7414941348e+00
145 145 136
2 0 628 166.7000 -125.5500 1 601 139.6400 -165.7700
-4.5731908962e-01 -6.0782813830e-01 -2.6534321169e+00
50 69 45
3 0 633 -75.3400 -104.1400 1 627 -115.7200 -100.8300 2 803 -111.9600 -69.8100
-1.4957008727e-01 -1.4840972084e-01 -2.6568303941e+00
198 199 183
2 0 688 -18.5000 4.5800 1 692 -37.9300 4.1700
4.1634308373e-01 2.1801367975e-01 -2.7211302334e+00
119 17 13
2 0 705 86.5500 83.9000 1 519 97.1300 81.4000
2.5593663823e-01 -1.0961320487e+00 -2.4149839671e+00
154 170 169
2 0 763 119.4400 -191.7800 1 746 41.7300 -234.4900
-1.1316828101e-01 -8.4450255883e-01 -2.6348400815e+00
41 33 3
2 0 810 12.4700 -148.2000 1 809 -40.8000 -161.4200
1.3409812894e-02 -8.0548660465e-01 -2.6169000069e+00
62 65 22
3 0 819 40.9400 -134.1000 1 610 -10.2200 -153.0200 2 774 -55.6100 -127.2400
2.1332457979e-02 -5.7699637857e-01 -2.6646568185e+00
166 120 115
3 0 834 33.3600 -83.9800 1 851 -3.3100 -97.4400 9 783 -22.3300 -59.7600
2.1246809279e-02 -5.7715495797e-01 -2.6638445534e+00
166 120 115
2 0 835 33.3600 -83.9800 1 852 -3.3100 -97.4400
-1.2016196783e-01 -3.8842954139e-01 -2.5592378608e+00
218 220 217
3 0 872 -3.2100 -40.2100 1 903 -39.9200 -46.7200 2 1120 -54.8800 -34.1600
-4.3693468726e-01 -2.1011822676e-01 -2.2586326532e+00
139 197 199
2 0 899 -84.5500 13.1600 1 696 -135.8200 17.2500
-5.8906828800e-01 3.1604382025e-01 -2.4538194730e+00
230 229 234
2 0 936 -128.8800 106.8700 1 1254 -140.3700 120.5600
-6.3468868229e-01 -7.3139574378e-01 -2.7003922599e+00
201 77 116
2 0 1058 -112.6000 -139.1100 1 834 -153.4900 -129.1800
6.3325452765e-02 -8.0957859271e-01 -2.6110184190e+00
217 235 127
2 0 1064 52.8600 -133.4300 1 811 1.8800 -154.5600
-4.0730887149e-01 -6.6530664161e-01 -2.6952854008e+00
86 125 78
3 0 1074 -61.9300 -117.5700 1 841 -102.5100 -115.8700 9 597 -126.7300 -107.9200
9.3183167172e-01 -7.2863426826e-01 -2.6081011447e+00
105 136 60
2 0 1094 240.1100 -87.3200 1 1098 227.1300 -139.9700
2.6955057037e-03 -5.4988322104e-01 -2.7547041242e+00
23 19 15
3 0 1110 27.3600 -82.2300 1 860 -5.6800 -94.6900 2 1063 -23.3300 -82.5700
-3.6394575384e-03 -4.8422732980e-01 -2.6259957688e+00
215 218 215
3 0 1122 25.3700 -62.3300 1 870 -9.8100 -73.3300 9 616 -32.0200 -34.2900
1.3639549405e-02 -3.8167292269e-01 -2.5984973318e+00
54 54 56
3 0 1141 26.2700 -37.0200 1 1152 -5.4500 -47.8500 9 1018 -29.4800 -6.9200
1.3677575725e-02 -3.8136355753e-01 -2.5999255726e+00
54 54 56
2 0 1142 26.2700 -37.0200 1 1153 -5.4500 -47.8500
-1.3285340812e-01 -3.6458248628e-01 -2.5501940552e+00
211 214 213
4 0 1144 -6.4700 -34.6800 1 1156 -43.4400 -40.5800 2 1127 -55.5200 -28.4100 9 1020 -71.5000 -4.6300
-3.4082566882e-02 -3.5288278222e-01 -2.5735929585e+00
218 204 203
4 0 1147 15.0200 -30.8600 1 907 -17.9300 -39.1400 2 1123 -36.5800 -31.2200 9 1026 -43.5100 0.2100
2.1675328405e-02 -3.3481790344e-01 -2.5847257633e+00
126 18 9
2 0 1154 26.9700 -26.1000 1 1161 -3.6900 -35.4400
9.1077736673e-01 3.8808459359e-02 -2.9904563869e+00
213 211 202
2 0 1187 174.2500 40.0000 1 932 206.9600 24.1300
8.7435798655e-01 4.4205650830e-02 -2.9500668089e+00
209 212 207
2 0 1189 169.7300 43.1100 1 1215 199.7600 27.8500
-4.1721761263e-01 -3.6962253657e-01 -2.6021109370e+00
88 174 118
2 7 104 -96.3900 -95.5000 2 118 -95.8300 -24.3300
-8.6905292383e-02 -4.7934303590e-01 -2.6043533198e+00
210 214 208
2 7 130 -22.6800 -118.7900 2 167 -50.6300 -56.1700
-2.4268175511e+00 2.9800656786e+00 -8.2795523699e+00
69 45 43
2 7 159 -185.6000 214.0600 0 337 -236.2700 69.7300
-4.9222595439e-01 9.5689926222e-02 -2.5741404930e+00
222 80 135
2 7 295 -118.8500 3.9500 2 459 -75.3000 65.4300
3.2807302493e-01 -5.1840355355e-02 -2.9392827460e+00
99 147 71
2 7 386 62.9400 -19.9200 9 361 76.6000 20.0000
-4.5807184146e-01 -6.0675406424e-01 -2.6551378081e+00
28 59 35
2 7 482 -101.6000 -145.9500 9 465 -141.9700 -91.6500
-4.9588006897e-02 -3.8477240284e-01 -2.5796714106e+00
201 204 193
3 7 508 -15.0400 -98.0500 2 629 -40.7600 -37.2800 9 503 -47.4000 -8.5600
4.3805625984e-02 -4.3992071461e-01 -2.6249957800e+00
204 210 203
2 7 686 6.3900 -108.5800 2 815 -23.6500 -54.8800
8.3939507451e-01 -1.7288327712e-02 -3.0128353096e+00
192 193 187
2 7 747 162.5500 -10.0200 2 852 183.0600 -26.8200
4.3100861311e-03 -5.7905421158e-01 -2.6594263219e+00
186 146 143
2 7 898 -1.2700 -138.0600 2 1060 -36.4100 -83.2000
-1.3753468959e-01 -3.5371145225e-01 -2.5449808735e+00
37 35 33
2 7 965 -35.7500 -92.4700 9 1022 -72.4800 -1.8700
-1.3753468959e-01 -3.5371145225e-01 -2.5449808735e+00
37 35 33
2 7 966 -35.7500 -92.4700 9 1023 -72.4800 -1.8700
8.7593715689e-02 -2.8338410521e-01 -2.5901187313e+00
249 41 38
2 7 990 15.1600 -74.3000 9 1051 -10.8300 19.2000
-6.1352741708e-01 -2.7195928031e-01 -2.5554790102e+00
180 88 109
2 8 351 -115.4800 -82.3500 9 495 -175.3200 -16.3700
7.3329796800e-02 -3.2713766147e-01 -2.6044169122e+00
241 44 32
2 8 498 37.7800 -102.0500 9 511 -13.2700 7.0700
-6.2224032689e-01 -6.4116089139e-02 -2.4861183992e+00
155 155 162
2 8 1153 -123.0500 -47.0500 9 1064 -176.8700 31.4900
-1.3813906450e-01 -6.3739075457e-01 -2.6194240392e+00
212 186 39
2 0 147 -0.5500 -100.9700 9 152 -69.6900 -75.3700
-1.1224726051e-01 -2.9320665971e-01 -2.5330748249e+00
216 220 216
2 0 161 -4.1800 -17.1200 9 164 -66.3500 13.9900
-4.2264769708e-01 2.8646822531e-01 -2.6584428995e+00
235 237 241
2 0 245 -88.5100 84.7800 2 260 -47.1300 86.6400
-1.5544483236e-01 -3.6872450531e-01 -2.5423186281e+00
210 210 206
2 0 314 -11.8600 -35.7600 9 245 -77.4800 -5.5800
-5.1588637272e-01 -2.9294309789e-01 -2.5383062340e+00
102 126 101
2 0 315 -98.2500 -28.2500 9 499 -157.8200 -12.0600
-5.9588284714e-01 -4.5121713536e-01 -2.6197595867e+00
119 170 165
2 0 445 -111.7800 -70.8500 2 630 -124.9500 -34.4200
-7.0508174014e-02 -3.7632711382e-01 -2.5709190056e+00
32 30 30
2 0 457 7.6500 -36.8500 2 410 -44.4900 -34.3800
-2.2297244912e-01 2.6161268294e-01 -2.6553913217e+00
94 198 223
2 0 521 -45.5600 85.1400 2 467 -18.4400 79.4900
1.0146141814e-01 -1.2091740033e+00 -2.3879162607e+00
52 21 8
2 0 550 87.2400 -227.1000 9 428 -45.4600 -185.3200
-8.1986014356e-02 -3.3265678246e-01 -2.5528789489e+00
213 214 213
3 0 676 3.9100 -26.1800 2 856 -45.3400 -24.1900 9 663 -57.5900 4.5800
-3.7582296138e-01 -6.8628506734e-01 -2.7160485728e+00
113 137 121
2 0 822 -53.9300 -121.9900 9 595 -117.3500 -114.2600
-6.5713746686e-01 -6.2116958582e-01 -2.6542512916e+00
159 34 65
2 0 824 -121.3800 -112.7700 2 1084 -141.0600 -65.0300
-9.9523568475e-02 -4.6622326444e-01 -2.5908508739e+00
13 14 10
2 0 847 3.6200 -58.9000 2 1105 -53.4500 -52.4000
7.2299753625e-02 -4.3315836232e-01 -2.6329702359e+00
221 223 221
3 0 861 40.7300 -49.0600 2 814 -17.2500 -55.1800 9 640 -11.5500 -19.8800
-4.0306066174e-01 -6.3825967205e-03 -2.5640129757e+00
186 189 198
2 0 905 -78.8000 35.0200 9 852 -119.9900 42.6600
4.0800667452e-01 9.4734707882e-01 -2.6655135376e+00
61 30 20
2 0 963 60.5400 214.6600 2 340 129.8800 189.9300
-5.7023564747e-02 -5.8717789369e-01 -2.6454210670e+00
159 118 119
2 0 1097 16.4000 -87.6300 2 1066 -48.8500 -81.4500
4.7861903864e-02 -3.3186870832e-01 -2.5899085415e+00
87 16 8
2 0 1155 32.7000 -24.9400 9 832 -21.2600 6.8800
-5.1102716143e-01 -4.4405347586e-01 -2.6087810906e+00
32 35 28
3 1 22 -128.6800 -60.1800 2 58 -111.4800 -36.6200 9 21 -154.8500 -51.8700
4.0996005493e-01 3.9845554922e-01 -2.6777511772e+00
134 210 113
2 1 33 95.6200 123.7700 2 21 100.7400 91.2200
1.8664117798e-01 -9.3344039080e-01 -2.5629355997e+00
18 61 38
2 1 154 29.8100 -188.2400 2 210 -40.3200 -160.1800
7.4902259570e-02 -3.8184321211e-01 -2.6183375476e+00
145 149 149
2 1 175 10.0500 -48.6600 9 158 -11.8000 -6.3700
-4.8986263745e-01 -3.0581461947e-01 -2.5515387812e+00
78 151 107
2 1 178 -124.8000 -25.2500 9 157 -151.2200 -15.2000
6.2513526808e-01 4.4606767753e-01 -2.7294942195e+00
123 127 108
3 1 197 144.6600 129.6600 2 331 148.7300 90.9200 9 192 119.9200 150.6900
2.4321114065e-01 6.1692980517e-01 -2.5422595521e+00
216 226 225
2 1 204 55.8400 181.2500 2 193 72.3600 147.2100
4.8301113711e-01 -1.0240926393e+00 -2.5401712525e+00
43 26 18
2 1 209 107.0700 -216.1100 2 204 7.0400 -198.5900
-4.2922896418e-01 -7.2565730568e-01 -2.6981989629e+00
70 148 99
2 1 225 -108.3100 -129.9500 2 298 -110.7000 -95.3700
-3.7641842357e-01 -7.1113710834e-01 -2.7126604995e+00
80 157 107
2 1 226 -95.1200 -127.3000 2 226 -100.2700 -95.7500
-2.0991219350e-01 3.3667519576e-01 -2.6381363149e+00
162 163 147
2 1 260 -45.0800 110.9700 2 262 -13.3600 93.2000
-2.0991219350e-01 3.3667519576e-01 -2.6381363149e+00
162 163 147
2 1 261 -45.0800 110.9700 2 263 -13.3600 93.2000
6.2715208615e-01 4.4367420321e-01 -2.7315101482e+00
119 124 105
2 1 264 145.1800 128.6700 2 332 148.7300 90.9200
-5.9190024605e-01 -1.0419711551e+00 -2.4423096822e+00
69 96 81
2 1 289 -175.5000 -204.6600 2 382 -189.3100 -134.8100
9.9275708978e-02 -4.9072986900e-01 -2.6593246582e+00
24 18 19
2 1 330 16.1100 -76.8400 9 333 -1.7700 -34.8100
-5.9764386086e-01 -4.5347974229e-01 -2.6252341009e+00
110 168 163
2 1 337 -145.9300 -62.5900 9 331 -170.6700 -61.7700
4.9417173970e-01 1.1467414380e-01 -2.9878813200e+00
18 39 15
2 1 367 116.0700 39.5200 2 320 122.3900 10.4700
-4.5308832664e-01 7.8165297447e-02 -2.5077024116e+00
190 214 164
2 1 371 -111.9700 65.0200 9 379 -133.9800 62.5400
-5.0557487665e-01 1.6056734591e-01 -2.4694756428e+00
212 100 139
2 1 376 -124.5100 86.1700 9 387 -146.2400 78.3800
5.9595654537e-01 3.0474522583e-01 -2.8114684583e+00
159 181 161
2 1 380 138.1700 92.2500 9 405 122.2100 114.4700
1.9227645916e-01 -1.0311512557e+00 -2.4610884234e+00
69 87 105
2 1 416 26.6600 -214.3300 2 538 -59.4300 -178.5500
-2.9849396404e-01 -9.1031394210e-01 -2.5552596085e+00
59 88 79
2 1 438 -91.9400 -175.1600 2 576 -121.2400 -129.3000
8.4501483208e-01 -1.0530055464e-01 -3.0651334501e+00
120 121 107
2 1 490 191.7600 -10.3500 9 363 207.1000 21.5200
8.4478137420e-01 -1.0609226974e-01 -3.0624817618e+00
120 121 107
2 1 491 191.7600 -10.3500 2 615 181.9900 -48.1800
8.7304012638e-01 -4.7695672534e-02 -3.0343019936e+00
203 207 200
2 1 501 198.2100 3.3600 9 369 210.0800 38.2600
6.5053246341e-01 4.0379543618e-01 -2.7357030218e+00
163 171 161
2 1 534 150.5700 119.4800 2 893 151.5600 83.3400
-4.4250495836e-02 -5.9957155186e-01 -2.6490445297e+00
25 23 23
2 1 626 -20.0000 -101.9600 2 799 -47.1700 -84.6000
7.4432388306e-02 -4.7339440263e-01 -2.6462935182e+00
212 214 209
2 1 641 10.1900 -71.9000 9 621 -9.8100 -30.5800
4.5305280971e-03 -5.7910943560e-01 -2.6592260547e+00
185 146 146
2 1 853 -7.5600 -97.6600 2 1061 -36.4100 -83.2000
-4.2771509778e-03 -4.4209011421e-01 -2.6108574151e+00
218 222 219
2 1 886 -10.1400 -62.6200 2 1104 -33.5500 -52.4700
4.3147786668e-02 -8.9751337496e-01 -2.5629931341e+00
39 80 64
2 1 1053 -6.5000 -176.5300 2 1007 -63.3900 -144.9200
-3.8349584974e-01 -6.7250540497e-01 -2.7079284138e+00
38 59 40
2 1 1115 -96.3200 -118.0400 9 763 -119.7600 -110.2400
-1.1469885884e-01 -5.9224871136e-01 -2.6323710912e+00
150 127 123
2 1 1121 -37.5600 -99.1400 9 775 -61.5000 -66.1800
1.0713727399e-01 -5.6550120369e-01 -2.6931021137e+00
67 6 0
2 1 1122 18.6000 -96.0500 9 787 3.3500 -56.5500
-9.4136036509e-02 -4.7574216176e-01 -2.5976469567e+00
202 208 204
2 1 1132 -32.8700 -69.7200 9 992 -58.1200 -33.4800
-9.4136036509e-02 -4.7574216176e-01 -2.5976469567e+00
202 208 204
2 1 1133 -32.8700 -69.7200 9 993 -58.1200 -33.4800
8.9531897742e-02 -4.5080136080e-01 -2.6449623564e+00
209 211 211
2 1 1136 13.8200 -66.5300 9 1004 -5.7100 -24.4500
-7.1618502183e-02 -4.6208968553e-01 -2.6002736452e+00
8 11 15
2 1 1137 -27.1000 -66.6200 9 998 -51.9300 -29.5900
-2.7405030614e-02 -4.3297055187e-01 -2.6015178767e+00
24 26 33
2 1 1144 -15.9500 -59.8100 9 1007 -40.2200 -20.8300
8.4492858176e-02 -4.1842289333e-01 -2.6326345412e+00
20 15 19
2 1 1147 12.5600 -58.1500 9 1011 -8.1500 -15.8400
-4.8619130628e-02 -4.1532360722e-01 -2.5894824835e+00
210 213 206
2 1 1148 -21.4300 -54.9100 9 1010 -46.6300 -16.4300
-1.1900739797e-01 -3.3709222466e-01 -2.5425214981e+00
26 26 27
2 1 1162 -39.8900 -33.4600 9 1028 -67.8200 3.1400
-1.4530492505e-03 -3.0570964573e-01 -2.5686484293e+00
47 49 53
2 1 1164 -9.6500 -27.5800 9 1042 -35.4800 12.6200
-1.1493529219e-01 -2.5102405724e-01 -2.5161630860e+00
166 106 64
2 1 1184 -38.9900 -11.1900 9 1058 -68.0800 24.8800
3.7015166176e-01 -2.0748424023e-01 -2.5039608291e+00
143 211 115
2 1 1193 81.7700 -0.4400 2 1139 40.3500 -9.6800
8.7492655701e-01 2.0263192905e-02 -2.9850847582e+00
197 196 188
2 1 1212 199.2900 20.4400 2 1133 190.6800 -18.5200
7.6254187342e-01 1.3546074729e-01 -2.9494386617e+00
178 179 174
2 1 1219 174.4800 46.8300 9 1091 172.8900 75.8700
8.1469818711e-01 1.5360612305e-01 -2.9286528801e+00
174 180 170
2 1 1220 186.0400 52.0700 9 1104 183.5000 85.5200
7.0060333692e-01 1.2260773130e-01 -2.7847816908e+00
201 213 209
2 1 1223 162.6300 56.0500 9 1119 149.9700 97.9900
6.8424510540e-01 3.4032471538e-01 -2.7487746280e+00
171 178 167
2 1 1241 158.1500 105.3000 9 888 137.7300 136.3000
-6.2796236605e-01 -3.4914423420e-01 -2.5714020328e+00
202 62 107
2 2 424 -128.1900 -11.8200 9 335 -179.5400 -34.5200
-6.7415608611e-01 -1.7405040133e-01 -2.4913355459e+00
125 178 182
2 2 442 -131.7700 26.1700 9 356 -191.6500 8.0600
8.4521163089e-01 4.0983749911e-01 -2.8607823280e+00
128 105 98
2 2 462 198.5800 68.1800 9 413 177.2200 136.9600
-9.7239320064e-02 -1.1029741580e+00 -2.3696114595e+00
11 11 10
2 2 544 -128.4600 -171.9500 9 287 -109.6900 -158.8400
-5.7415218873e-01 -9.8429507905e-01 -2.4250373982e+00
29 29 31
2 2 781 -184.7700 -123.8700 9 574 -226.5800 -157.3700
8.2722859898e-02 -3.5018961280e-01 -2.6100347272e+00
49 16 12
2 2 1117 -12.2900 -37.4000 9 825 -10.4000 2.0500
