# Bundle file v0.3
11 634
6.9823308765e+02 -1.7863106087e-01 5.2972243281e-01
9.9047053982e-01 -1.2263697023e-01 6.2676018403e-02
9.6106897629e-02 9.4141443520e-01 3.2326819426e-01
-9.8648740382e-02 -3.1416402519e-01 9.4422952257e-01
2.1506319750e-01 1.0474743899e+00 -5.8217631816e-01
7.0270090475e+02 -1.4473807556e-01 3.3139292593e-01
9.8246052892e-01 6.8019373018e-02 -1.7362221636e-01
-1.9642834291e-02 9.6366749751e-01 2.6638151833e-01
1.8543319061e-01 -2.5829889497e-01 9.4810137257e-01
-4.6475831332e-01 8.7951879609e-01 -3.7870599807e-01
7.2302029161e+02 -2.3398751775e-01 1.5658034816e+00
8.2558097952e-01 3.3313602956e-01 -4.5545189874e-01
-1.5376440370e-01 9.0940222552e-01 3.8645064416e-01
5.4292960355e-01 -2.4901401172e-01 8.0200964306e-01
-1.2030259240e+00 1.1785264078e+00 -1.2787772769e+00
7.4185050973e+02 -3.5673883371e-01 2.3244818902e+00
5.6279092927e-01 4.6186596906e-01 -6.8552621872e-01
-2.8674996145e-01 8.8692021664e-01 3.6214222196e-01
7.7526823070e-01 -7.2357408368e-03 6.3159070173e-01
-1.8361224989e+00 1.2309293965e+00 -1.4640734290e+00
0 0 0
0 0 0
0 0 0
0 0 0
0 0 0
7.1395103524e+02 -1.1731253661e-01 1.9266699712e-01
9.0728595888e-01 -2.9278339965e-01 3.0184444620e-01
1.9702681976e-01 9.3010908637e-01 3.0996373940e-01
-3.7150049948e-01 -2.2175429722e-01 9.0156109641e-01
1.1174957853e+00 1.0820863944e+00 -5.0183008229e-01
0 0 0
0 0 0
0 0 0
0 0 0
0 0 0
7.1537253423e+02 -1.3603510094e-01 1.6964500497e-01
9.9937247753e-01 -1.1435107406e-02 -3.3524460900e-02
1.2400277492e-02 9.9951043674e-01 2.8724901656e-02
3.3179576220e-02 -2.9122588752e-02 9.9902501998e-01
-1.0975888856e-01 3.9780043817e-02 -4.7625505923e-01
7.2061342651e+02 -1.2788783681e-01 1.6466050555e-01
9.9200371414e-01 5.7188784326e-02 -1.1250810674e-01
-9.4442775998e-02 9.2771071481e-01 -3.6115563362e-01
8.3720924487e-02 3.6889330785e-01 9.2569354228e-01
-1.8379269658e-01 -1.0784840921e+00 -5.5953103301e-01
6.6992885484e+02 -7.3269738638e-02 -1.6265459106e-01
9.2711191064e-01 3.7770317435e-02 -3.7287653221e-01
2.1973678488e-01 7.5118862075e-01 6.2243987776e-01
3.0361035971e-01 -6.5900611467e-01 6.8813638932e-01
-1.0788623332e+00 1.8901923170e+00 -8.1061399684e-01
6.4521618793e+02 9.9196142215e-02 -6.1729618271e-01
9.7511181208e-01 2.0289830223e-02 -2.2078332531e-01
1.2600639772e-01 7.6863304202e-01 6.2715678617e-01
1.8242626368e-01 -6.3936810172e-01 7.4694651002e-01
-3.0820260832e-01 2.1193910154e+00 -5.3905118416e-01
-4.1308273214e-01 -3.3585994556e-01 -2.6053354201e+00
100 180 114
5 7 43 -98.8700 -87.6000 8 55 -71.5800 -95.7300 0 31 -76.2700 -36.3600 5 22 12.7800 -30.8300 10 22 -39.7600 47.9900
-1.2434563545e-01 -7.7449801541e-01 -2.6557819495e+00
226 232 74
5 7 94 -32.0700 -185.2800 8 77 -11.5400 -177.9100 0 71 5.7500 -134.2100 1 78 -45.5200 -147.0200 5 80 114.0800 -129.5100
-4.2690783360e-01 -4.6051606411e-01 -2.6456481750e+00
31 27 24
4 7 73 -100.9600 -113.6900 8 89 -75.4800 -113.8500 0 76 -75.3800 -68.2100 1 87 -112.3700 -64.2200
-3.8573132855e-01 -5.0897041422e-01 -2.6739484326e+00
102 165 98
6 7 177 -90.2900 -124.3900 8 237 -64.2900 -120.8500 0 150 -65.1200 -79.5600 1 169 -101.5200 -77.2000 2 235 -97.6100 -52.9000 5 118 29.1700 -79.8600
-4.5315661519e-01 -3.8268612107e-01 -2.6004277325e+00
38 39 34
6 7 134 -108.8800 -97.5200 8 126 -82.7600 -103.3400 0 154 -84.6300 -47.5500 1 176 -119.8900 -42.6000 2 240 -106.6300 -21.4300 9 155 -145.8800 -31.3600
-1.4502007931e-01 -3.0676257649e-01 -2.5402661940e+00
208 204 203
5 7 189 -40.1000 -81.0400 8 170 -15.5700 -102.4200 0 160 -11.0000 -18.1900 1 180 -47.6400 -23.1400 2 242 -57.6100 -13.2700
-1.0879628660e-01 -3.0007414856e-01 -2.5547534313e+00
217 218 212
6 7 190 -30.5300 -79.0800 8 239 -4.9600 -100.3300 0 162 -4.1800 -17.1200 1 179 -37.8800 -22.4500 2 241 -50.0000 -14.1200 9 165 -66.3500 13.9900
-8.8303079332e-02 -2.5366371110e-01 -2.5443278670e+00
97 55 30
6 7 136 -26.1300 -67.9600 8 173 1.7200 -91.5700 0 166 -0.7100 -5.9800 1 124 -32.8300 -10.5800 2 173 -44.3100 -5.0500 3 173 -61.7300 26.2800
6.2989597998e-01 3.0699765984e-01 -2.7788682767e+00
220 236 235
4 7 206 133.9500 60.0300 8 195 185.6500 36.5100 0 246 129.4500 102.6200 1 195 153.7000 99.0900
-1.0572078028e-01 -4.0697778519e-01 -2.5928365439e+00
209 211 205
9 7 260 -28.8000 -103.7300 8 336 -5.3600 -117.9600 0 310 -0.3900 -44.5100 1 241 -37.1400 -51.7300 2 308 -53.3800 -38.7700 9 240 -63.9900 -15.2400 5 356 93.9500 -30.5900 10 185 44.5100 47.9100 3 435 -70.8400 -8.0600
-3.8829311312e-01 -2.5334977183e-01 -2.5985663067e+00
56 78 65
5 7 539 -93.4800 -67.5200 8 510 -66.8500 -79.3000 0 319 -73.3400 -16.5300 1 488 -101.6300 -11.8800 5 360 14.6700 -9.5700
-6.5208919616e-01 -2.3273972908e-01 -2.5389531157e+00
109 171 181
8 7 274 -157.8800 -64.0500 8 243 -131.1100 -74.2400 0 321 -136.9200 -13.1300 1 349 -166.8500 -1.9400 2 433 -132.0600 16.9400 9 350 -190.5300 -2.2600 5 235 -49.2300 -14.3900 10 306 -104.5700 71.5000
-6.5705601004e-01 -1.9089163308e-01 -2.5215697996e+00
112 171 178
6 7 277 -160.2300 -54.6800 8 244 -133.5800 -67.4600 0 322 -139.4000 -2.5400 1 352 -168.4900 9.0700 5 237 -52.9600 -1.5900 10 197 -105.6200 82.3000
-4.3871945491e-01 -5.4829245528e-01 -2.6599436027e+00
90 155 95
7 7 485 -103.2700 -134.0900 8 707 -77.5200 -128.6300 0 438 -77.1800 -89.6700 1 456 -116.1500 -85.8800 2 606 -110.2300 -57.4900 9 327 -141.0200 -75.1100 10 276 -45.4800 -7.3400
-1.2310339487e-01 -4.5031598546e-01 -2.6022577209e+00
29 28 26
9 7 354 -32.6400 -113.1900 8 480 -9.2000 -124.5700 0 449 -3.4200 -55.3800 1 336 -41.9400 -62.5900 2 405 -58.4500 -47.1900 9 337 -68.5400 -26.8600 5 349 92.8900 -43.8300 10 287 39.8200 36.2200 3 599 -75.9100 -17.6100
7.7505170234e-03 -4.2227570152e-01 -2.6308943875e+00
28 28 33
9 7 359 -2.0100 -105.3700 8 482 21.6200 -118.5100 0 451 26.1200 -47.5600 1 338 -7.2400 -57.9700 2 403 -30.6400 -49.1900 9 340 -30.4100 -17.9300 5 351 116.2200 -32.1200 10 290 78.4900 42.2600 3 430 -53.2200 -23.5600
-7.7331522228e-02 -4.0589687157e-01 -2.6004658116e+00
24 22 23
9 7 361 -22.1600 -102.8100 8 483 2.0100 -117.0800 0 455 6.0400 -43.8500 1 341 -29.7400 -51.6500 2 406 -47.6200 -40.1000 9 343 -55.8300 -14.4000 5 355 99.3200 -30.8500 10 294 53.0500 48.3500 3 605 -66.4600 -11.0900
-1.0884608451e-01 -3.5850137628e-01 -2.5736544676e+00
208 210 206
9 7 367 -29.9600 -92.2600 8 492 -4.7000 -109.4800 0 463 -2.5200 -31.9600 1 343 -38.2500 -38.1200 2 413 -52.5300 -27.3000 9 351 -65.8000 -1.4200 5 358 91.6500 -18.9700 10 297 41.7400 62.0300 3 438 -69.7600 2.7100
-5.2137205101e-02 -3.5269387376e-01 -2.5888917935e+00
208 210 202
7 7 512 -16.3600 -90.5300 8 744 8.2300 -107.9600 0 464 10.7900 -30.3800 1 473 -23.4400 -37.9500 2 634 -40.5300 -29.6300 9 507 -49.2400 0.7600 3 612 -60.0700 -1.2900
8.3624412680e-01 1.6808077087e-02 -2.9997453445e+00
214 224 216
6 7 391 170.1500 -3.9000 8 364 216.1300 -13.1600 0 492 168.2200 34.4600 1 356 198.9500 18.3600 9 375 205.5500 55.1700 10 312 284.0000 86.3900
1.9916617957e+00 -1.1172058631e+00 -4.7440316382e+00
129 119 124
3 7 480 280.9700 -162.3700 8 509 307.6300 -80.3600 0 581 284.9000 -189.4300
-3.9366963184e-01 -9.3060666022e-01 -2.5465006725e+00
33 38 41
3 7 447 -95.7900 -227.0800 8 432 -73.9800 -213.0800 0 590 -56.9300 -179.5600
1.0753399516e-01 -5.6910121470e-01 -2.7127220218e+00
78 7 0
5 7 658 21.3600 -136.0100 8 1015 42.8800 -139.4800 0 638 51.5400 -83.3600 1 628 18.4200 -99.4100 9 479 3.3400 -59.2300
6.0518359891e-02 -5.6492047449e-01 -2.6944612275e+00
168 130 128
6 7 659 10.5900 -135.9000 8 1017 32.3200 -139.6900 0 641 41.5000 -82.3700 1 630 6.1600 -97.0300 2 798 -25.3100 -85.1900 9 608 -11.5700 -58.2100
-6.6272471971e-01 -4.5896565493e-01 -2.6151515068e+00
131 186 191
8 7 495 -155.3700 -114.6900 8 491 -127.8900 -110.8900 0 644 -133.8300 -71.3500 1 651 -168.8600 -59.8400 2 1125 -141.5200 -29.5300 9 607 -194.5800 -60.3200 5 530 -39.3900 -81.8200 10 566 -107.6500 12.2300
-4.7239751408e-02 -4.8593597848e-01 -2.6363850283e+00
207 211 204
5 7 489 -14.4400 -120.1900 8 706 7.9600 -128.7300 0 646 15.7100 -64.0700 2 809 -44.3700 -60.3200 10 417 63.6200 25.5500
2.4356239625e-02 -4.7546225857e-01 -2.6544167159e+00
207 210 203
7 7 493 2.0500 -116.9900 8 713 24.7700 -126.3600 0 650 31.3400 -60.7900 1 640 -3.0900 -72.6100 2 808 -29.2700 -62.4300 9 484 -24.3500 -32.6100 3 788 -52.8600 -38.1000
-9.8477001366e-02 -4.3756962529e-01 -2.6042289220e+00
30 29 35
9 7 682 -26.8800 -109.8600 8 1056 -3.3200 -121.9900 0 655 2.0000 -52.0200 1 652 -35.4100 -59.5700 2 830 -53.2100 -45.9100 9 632 -61.4800 -23.1500 5 760 97.2400 -39.9700 10 589 46.9100 40.0600 3 817 -71.7600 -16.9700
-9.8477001366e-02 -4.3756962529e-01 -2.6042289220e+00
30 29 35
9 7 683 -26.8800 -109.8600 8 1057 -3.3200 -121.9900 0 656 2.0000 -52.0200 1 653 -35.4100 -59.5700 2 831 -53.2100 -45.9100 9 633 -61.4800 -23.1500 5 761 97.2400 -39.9700 10 590 46.9100 40.0600 3 818 -71.7600 -16.9700
9.7788937479e-02 -4.1264515952e-01 -2.6562334281e+00
49 12 11
7 7 503 18.7100 -102.5900 8 485 42.9800 -115.8800 0 663 45.7900 -44.8700 1 464 16.3700 -57.7300 2 611 -11.1800 -52.9500 9 496 -3.7600 -14.9600 10 422 105.3800 43.3000
4.3622463854e-02 -3.9157507030e-01 -2.6325134827e+00
30 27 28
8 7 504 6.1500 -98.3200 8 731 30.5000 -112.8600 0 667 33.4200 -39.9700 1 660 2.2500 -50.8500 2 622 -21.8500 -44.6000 9 500 -20.4400 -9.1800 10 425 88.4200 50.0000 3 811 -45.1700 -20.2300
4.3580334071e-02 -3.9167527566e-01 -2.6329395298e+00
30 27 28
7 7 505 6.1500 -98.3200 8 732 30.5000 -112.8600 0 668 33.4200 -39.9700 1 661 2.2500 -50.8500 2 623 -21.8500 -44.6000 9 501 -20.4400 -9.1800 3 810 -45.1700 -20.2300
-1.2871561990e-01 -3.8353813261e-01 -2.5770770652e+00
29 28 32
8 7 506 -34.5900 -98.3500 8 726 -10.3400 -114.7600 0 670 -6.4300 -38.3100 1 669 -43.3200 -44.3000 2 851 -57.2900 -31.6400 5 775 88.7500 -25.7200 10 430 36.6600 54.6200 3 834 -73.6000 -0.9500
-4.4140067818e-01 -3.2657015004e-01 -2.5899244797e+00
54 103 70
6 7 524 -106.8100 -85.0300 8 761 -80.1900 -93.1400 0 674 -83.0400 -33.4700 1 484 -116.5900 -28.7300 2 646 -102.1100 -10.5500 9 494 -142.0500 -17.3400
2.8694792436e-02 -3.2089607573e-01 -2.6036400969e+00
240 43 42
8 7 525 2.4200 -82.9100 8 752 27.9800 -102.4800 0 678 28.3200 -22.1800 1 681 -1.6900 -31.3700 2 638 -22.2300 -27.2000 5 790 115.0300 -4.7500 10 621 82.1900 69.0100 3 837 -43.9900 -0.6400
8.7127943867e-02 -2.9893525354e-01 -2.6142545663e+00
56 9 0
5 7 534 15.8700 -77.1700 8 501 41.8100 -98.2400 0 684 40.9200 -16.5300 2 640 -8.6600 -25.8100 9 514 -9.7100 15.9700
2.1617426215e-01 3.7004499404e-01 -2.6470222502e+00
189 216 227
5 7 570 43.7600 76.8300 8 561 87.9800 50.7300 0 713 46.9200 120.8800 1 725 54.8800 125.2800 5 607 94.8400 150.4800
-1.1866969496e-01 -6.0076621244e-01 -2.6566924457e+00
34 24 4
7 7 654 -30.3800 -145.7200 8 1007 -8.4900 -146.3700 0 831 1.2800 -93.9000 1 622 -40.7100 -102.7700 9 474 -64.4900 -70.3800 5 527 100.5200 -84.7100 10 545 44.7000 -6.8500
-1.1849532277e-01 -6.0086161039e-01 -2.6571618202e+00
34 24 4
6 7 655 -30.3800 -145.7200 8 1008 -8.4900 -146.3700 0 832 1.2800 -93.9000 1 623 -40.7100 -102.7700 9 475 -64.4900 -70.3800 5 528 100.5200 -84.7100
-6.4763426567e-01 -4.7158524283e-01 -2.6251055030e+00
149 42 81
4 7 670 -151.2500 -117.7200 8 1077 -124.4000 -112.5400 0 841 -129.5000 -74.7000 1 882 -164.9000 -63.6400
-1.1372289025e-01 -4.3182795861e-01 -2.5981295038e+00
211 211 203
8 7 688 -30.5700 -108.8300 8 1058 -6.7200 -121.1800 0 857 -1.6900 -50.7300 1 892 -39.3800 -57.7900 2 1115 -56.1100 -43.8100 9 638 -66.1500 -21.5800 5 1033 93.8200 -39.1200 10 591 42.3600 41.8600
7.0898433590e-02 -4.1405802376e-01 -2.6486838279e+00
36 34 37
9 7 698 12.6500 -103.1000 8 1071 36.7300 -116.3700 0 867 40.0700 -45.3100 1 655 9.3900 -57.4400 2 818 -16.8700 -51.4900 9 647 -11.7000 -15.3700 5 771 126.7000 -27.9700 10 592 97.1700 43.2200 3 800 -41.4300 -27.9000
7.1023830634e-02 -4.1398702332e-01 -2.6484586602e+00
36 34 37
8 7 699 12.6500 -103.1000 8 1072 36.7300 -116.3700 0 868 40.0700 -45.3100 1 656 9.3900 -57.4400 2 819 -16.8700 -51.4900 9 648 -11.7000 -15.3700 10 594 97.1700 43.2200 3 801 -41.4300 -27.9000
-1.1571278455e-01 -3.9134845701e-01 -2.5828640686e+00
214 217 209
8 7 702 -31.3900 -99.9600 8 1073 -7.1600 -115.6400 0 871 -3.2100 -40.2100 1 902 -39.9200 -46.7200 2 1119 -54.8800 -34.1600 9 822 -67.4000 -10.6600 5 1053 91.5000 -27.4500 10 606 40.8600 52.8800
2.6110691081e-02 -3.7216932787e-01 -2.6195721209e+00
224 227 223
8 7 707 2.0000 -94.3800 8 734 26.6800 -110.9800 0 875 28.9300 -34.7700 1 667 -2.3400 -45.1400 2 839 -24.7800 -38.8100 9 655 -26.1000 -4.2100 10 609 82.6200 55.4300 3 1128 -47.0900 -12.7700
5.8430386324e-02 -3.6729754804e-01 -2.6287767958e+00
225 225 223
8 7 708 9.5000 -92.9700 8 737 34.3000 -109.9200 0 876 36.0900 -33.4800 1 904 6.2400 -44.6100 2 1116 -17.6500 -39.6900 9 656 -16.5700 -2.7800 10 611 92.1300 55.7900 3 1124 -40.8900 -14.8000
8.2186866429e-02 -3.6402342326e-01 -2.6355256349e+00
224 225 217
8 7 711 15.0200 -92.0200 8 741 39.9100 -109.0700 0 878 41.3500 -32.5800 1 905 12.4300 -44.2600 2 837 -12.3900 -40.5800 9 657 -9.5300 -1.7500 10 610 99.0400 56.0700 3 1122 -36.3800 -16.4700
1.1197134433e-02 -3.4652035987e-01 -2.6064026941e+00
227 37 31
7 7 717 -1.5700 -88.5900 8 1089 23.2900 -106.3200 0 881 25.1100 -28.6000 1 676 -6.2300 -37.9200 2 848 -27.0300 -32.1800 9 659 -31.0200 2.8300 3 828 -48.7400 -5.7200
3.6714824429e-02 -3.4375398978e-01 -2.6137596093e+00
234 35 31
7 7 718 4.5000 -87.8400 8 1094 29.4500 -105.6700 0 882 30.7100 -27.9200 1 675 0.3900 -37.8200 2 847 -21.4200 -33.0500 9 660 -23.5100 3.6400 3 827 -43.9400 -7.4200
-4.3016752019e-01 -2.2246196618e-01 -2.5621178455e+00
65 86 77
6 7 733 -105.4300 -60.9300 8 765 -79.1300 -75.7800 0 888 -83.0400 -6.9400 1 690 -113.1000 -2.0400 9 666 -138.4800 8.3100 10 625 -45.1700 77.5600
-2.7009736186e-03 -4.4101177527e-01 -2.6326397939e+00
210 212 211
4 7 938 -4.3500 -109.6800 8 1055 19.3400 -122.2100 0 1130 24.0400 -51.8900 9 812 -33.4800 -23.3200
-3.3392322517e-01 -1.8497881863e-01 -2.5929493663e+00
194 209 199
4 7 1007 -82.2500 -51.9300 8 1142 -55.0100 -66.4100 0 1171 -60.6300 0.6100 1 1197 -87.4400 4.2900
9.5926770429e-01 1.9391403384e-01 -3.0212730100e+00
56 51 49
4 7 558 192.3200 32.7000 8 554 246.5600 22.9700 0 1200 182.7800 66.6900 10 856 303.7600 115.0700
-3.8456301175e-01 -5.0844981538e-01 -2.6714643178e+00
102 165 98
4 7 178 -90.2900 -124.3900 8 238 -64.2900 -120.8500 1 170 -101.5200 -77.2000 2 236 -97.6100 -52.9000
-4.7461946409e-02 -4.0271624101e-01 -2.6070354245e+00
163 163 161
6 7 263 -15.0000 -101.1800 8 337 9.1700 -115.9300 1 240 -22.0500 -51.1500 9 243 -47.2600 -12.6400 5 229 105.6600 -29.9700 10 186 61.2500 48.8700
-4.6117403817e-01 -3.1220735795e-01 -2.5755768969e+00
77 158 112
6 7 268 -112.0900 -81.8200 8 348 -85.9000 -91.4900 1 244 -122.4700 -24.4100 2 315 -105.5200 -6.0900 9 242 -147.6700 -13.2000 10 188 -52.9800 56.9100
-1.4802956982e-01 -4.7202783823e-01 -2.6089223387e+00
202 200 194
5 7 259 -38.1600 -117.3800 8 234 -14.6400 -126.3900 1 335 -48.1900 -67.9800 2 402 -64.2600 -51.1500 5 346 89.0600 -52.1600
9.5257411784e-01 1.9557939564e-01 -3.0191368108e+00
56 51 49
3 7 557 192.3200 32.7000 8 555 246.5600 22.9700 1 512 225.2600 54.7600
1.7335931097e+00 -7.3934473544e-01 -5.0985560255e+00
123 110 115
3 7 944 231.3400 -105.8600 8 794 271.5000 -11.3500 1 780 305.1200 -180.3900
1.6945446157e+00 -6.2182702800e-01 -5.2313131207e+00
138 126 130
3 7 715 221.3000 -89.0100 8 544 265.1200 9.4700 1 801 294.0200 -163.0900
1.6945446157e+00 -6.2182702800e-01 -5.2313131207e+00
138 126 130
3 7 716 221.3000 -89.0100 8 545 265.1200 9.4700 1 803 294.0200 -163.0900
1.7957290026e+00 -5.2688942977e-01 -5.3145430421e+00
137 126 132
3 7 988 231.0100 -76.0500 8 1210 277.6200 23.3700 1 815 305.9000 -150.9000
2.4102416531e-01 3.9424657030e-01 -2.6434992880e+00
220 246 252
3 7 574 49.4200 82.3500 8 562 95.3200 55.5900 1 954 60.6200 130.7600
1.6928365407e+00 -9.2124517929e-01 -4.9133209196e+00
86 77 83
3 7 908 233.5700 -133.3100 8 1157 267.3000 -42.4000 1 1007 306.6600 -208.4500
1.6533110190e+00 -6.4012153188e-01 -5.2123957234e+00
95 80 83
3 7 968 216.8400 -91.6800 8 1192 260.0100 6.9300 1 1062 288.3900 -165.2600
-2.8618340653e-01 -8.3452389440e-01 -2.6001508106e+00
38 84 154
3 7 827 -69.4100 -201.7400 8 938 -48.3800 -192.1200 1 1072 -90.9600 -158.9600
-2.8618340653e-01 -8.3452389440e-01 -2.6001508106e+00
38 84 154
3 7 828 -69.4100 -201.7400 8 939 -48.3800 -192.1200 1 1073 -90.9600 -158.9600
4.6332539911e-02 -7.9145356317e-01 -2.6409617688e+00
211 233 127
3 7 852 7.9100 -189.5000 8 949 24.7500 -187.4700 1 1084 -3.8800 -153.8000
2.4017423947e-01 4.1240356433e-01 -2.6454131492e+00
41 75 77
3 7 1077 48.9600 86.4300 8 821 95.5300 60.0900 1 1271 60.8600 134.4800
-4.2410048699e-01 -2.6810514718e-01 -2.5800288494e+00
62 87 68
4 7 270 -102.9500 -71.3000 8 350 -76.4600 -82.5700 2 426 -96.5800 0.5100 9 349 -137.0800 -2.9500
-6.9589073365e-01 -1.9106636693e-01 -2.5084257180e+00
151 140 158
4 7 541 -170.0300 -54.5000 8 517 -143.5600 -67.7400 2 882 -138.8400 27.9600 9 667 -201.5300 8.2300
-1.9137636302e-03 -4.8010587315e-01 -2.6498453622e+00
213 215 213
3 7 668 -3.8400 -118.3700 8 1042 19.0600 -127.4300 2 1087 -34.7100 -61.8900
-6.3838176122e-01 -5.7980209076e-01 -2.6692194024e+00
127 34 48
3 7 895 -146.5100 -140.2900 8 1041 -119.1800 -128.4900 9 963 -188.4900 -93.8100
-6.7017746420e-01 -1.7037016184e-02 -2.4499577925e+00
183 158 143
2 7 34 -167.3900 -13.5400 8 28 -143.1000 -36.2200
8.8362049175e-01 6.9657719593e-01 -2.9190923064e+00
209 218 216
2 7 61 179.4800 138.4100 8 36 257.2200 130.1400
-1.9567174298e-02 -7.8850741354e-01 -2.6612709865e+00
238 239 76
2 7 93 -7.3900 -187.9600 8 120 11.3500 -182.7100
-1.2768117986e-01 -7.7644767823e-01 -2.6613357174e+00
226 232 74
2 7 95 -32.0700 -185.2800 8 78 -11.5400 -177.9100
-8.5524227269e-02 -2.5281463630e-01 -2.5494050661e+00
97 55 30
2 7 135 -26.1300 -67.9600 8 172 1.7200 -91.5700
6.2463554340e-01 -3.1655980510e-01 -3.3130810297e+00
129 130 132
2 7 137 119.8200 -68.9700 8 134 152.8600 -45.4700
-1.4942851389e-01 -3.0654678608e-01 -2.5371721700e+00
208 204 203
2 7 188 -40.1000 -81.0400 8 169 -15.5700 -102.4200
-5.9173863588e-01 -1.7172569683e-01 -2.5452428366e+00
117 163 176
2 7 194 -143.5800 -49.7900 8 245 -117.4300 -62.2200
5.7928724749e-01 2.1036120150e-02 -2.9707413195e+00
69 116 51
2 7 200 118.0900 -3.6200 8 181 160.1100 -9.0000
-1.5276930064e-01 -8.9054940433e-01 -2.6016135825e+00
92 100 98
2 7 237 -37.8200 -214.6300 8 218 -20.6000 -205.0100
-1.2661837095e-01 2.3115452118e-01 -2.6559867985e+00
63 191 229
2 7 310 -33.7000 43.9100 8 193 0.2600 26.2600
-4.3997813065e-01 -6.0201795733e-01 -2.6752035812e+00
31 59 39
2 7 348 -102.4000 -145.3400 8 473 -76.6800 -136.8500
-7.4415001304e-02 2.4267489774e-01 -2.6733094355e+00
230 107 151
2 7 406 -21.8000 46.3400 8 268 13.7100 29.1100
-1.5049823342e-01 -9.3982926615e-01 -2.5568596075e+00
25 61 49
2 7 443 -38.2900 -228.8900 8 421 -21.6700 -219.7100
-1.8725320812e-01 -8.4139465047e-01 -2.6558164200e+00
22 59 38
2 7 462 -45.1000 -200.2300 8 449 -25.4200 -188.5400
-2.9615473266e-01 -8.2260080546e-01 -2.6053637680e+00
191 211 219
2 7 464 -71.3600 -198.7800 8 654 -50.1000 -188.9500
1.6986885209e+00 -1.0045878577e+00 -4.8544207962e+00
127 123 126
2 7 483 236.3100 -145.2900 8 525 267.4800 -56.1300
5.4676074590e-01 -5.7114024211e-01 -2.8544969437e+00
38 56 13
2 7 486 116.3900 -130.6900 8 703 137.1200 -133.4900
-4.4111662012e-01 -3.2671467866e-01 -2.5911550579e+00
54 103 70
2 7 523 -106.8100 -85.0300 8 760 -80.1900 -93.1400
-1.1930940117e-01 -2.7272935478e-01 -2.5397823847e+00
105 58 34
2 7 536 -33.3700 -72.9100 8 1109 -7.6400 -95.9000
-1.4839036145e-01 -1.5866370536e-01 -2.6704156058e+00
203 206 190
2 7 543 -37.8200 -44.8600 8 524 -9.2700 -57.3700
1.7985752405e-02 -3.0531693765e-02 -2.7368265818e+00
41 25 19
2 7 546 0.4900 -15.4100 8 251 32.1500 -27.8400
1.8807334831e+00 -2.4500647282e-02 -5.7873508418e+00
96 92 97
2 7 547 224.3100 -14.5400 8 387 285.8600 99.5600
5.9577988877e-01 2.9570955517e-01 -2.8048448745e+00
120 133 108
2 7 563 125.3600 57.1100 8 370 176.7200 36.3900
-1.3095241913e-01 3.4369203487e-01 -2.7429781027e+00
222 244 206
2 7 566 -34.0500 66.9700 8 373 3.8000 58.7200
4.3310949938e-01 4.5056565438e-01 -2.6970957390e+00
36 52 59
2 7 577 91.7000 93.9300 8 277 144.4000 68.4400
-1.7070056303e-01 -9.0761262086e-01 -2.5808751512e+00
47 49 52
2 7 614 -42.6900 -219.8500 8 631 -24.8600 -210.3300
1.7490183398e+00 -1.3852735966e+00 -4.4706900215e+00
96 79 78
2 7 620 260.4100 -209.6000 8 708 276.1200 -127.7900
-1.5619991662e-01 -8.4159727480e-01 -2.6477201255e+00
36 59 36
2 7 625 -38.2600 -200.7400 8 651 -19.0400 -190.3900
1.7764301154e+00 -1.3152457307e+00 -4.5384769531e+00
146 130 133
2 7 630 261.1200 -197.0400 8 725 279.5900 -114.8700
1.8236142624e+00 -1.2829177437e+00 -4.5770597618e+00
146 144 149
2 7 633 265.9300 -191.0300 8 739 285.7300 -108.9300
1.9397193928e+00 -1.2735534592e+00 -4.5791486965e+00
78 61 72
2 7 634 282.1300 -189.3700 8 738 302.0300 -109.2400
1.7761317447e+00 -1.2445156822e+00 -4.6134031743e+00
140 134 140
2 7 637 257.5000 -184.5600 8 754 279.0700 -101.1900
1.5914986305e+00 -1.2281329007e+00 -4.6269185003e+00
145 135 139
2 7 639 231.1200 -182.2900 8 758 253.7400 -95.8400
1.8796623412e+00 -1.1952747244e+00 -4.6576888199e+00
123 117 119
2 7 641 269.7800 -176.0700 8 759 293.1700 -93.6900
1.7220923073e+00 -1.0520658570e+00 -4.8081844846e+00
98 89 87
2 7 648 241.4500 -152.7200 8 773 270.7100 -64.8800
1.9446091788e+00 -7.3023221029e-01 -5.1261565812e+00
86 68 66
2 7 694 256.9700 -103.7500 8 539 298.2900 -11.5400
1.9068827066e+00 -6.3336591046e-01 -5.2161316220e+00
86 76 78
2 7 712 248.3900 -90.3700 8 542 292.9300 4.8800
1.9068827066e+00 -6.3336591046e-01 -5.2161316220e+00
86 76 78
2 7 713 248.3900 -90.3700 8 543 292.9300 4.8800
1.8064542417e+00 -5.5347367650e-01 -5.2972502529e+00
86 72 72
2 7 725 232.7300 -79.7100 8 802 279.4400 19.3400
1.8064542417e+00 -5.5347367650e-01 -5.2972502529e+00
86 72 72
2 7 726 232.7300 -79.7100 8 803 279.4400 19.3400
1.8271157493e+00 -2.3837383107e-01 -5.5654214257e+00
103 103 106
2 7 740 225.4800 -39.7400 8 1232 281.3100 67.4800
7.9825345743e-01 -7.9389450866e-02 -3.0697852188e+00
109 111 98
2 7 745 160.0000 -23.8400 8 787 201.5200 -25.2400
6.4652587045e-01 2.1934941722e-01 -2.7986680265e+00
201 218 218
2 7 760 136.8300 40.7600 8 798 186.3900 17.6800
1.6335113190e+00 -1.4315962061e+00 -4.4216105548e+00
99 83 87
2 7 809 246.1000 -218.4800 8 1027 260.1200 -135.3700
-3.8211347768e-01 -9.0023113163e-01 -2.5829698397e+00
34 70 50
2 7 811 -91.5300 -217.8300 8 922 -69.7100 -203.2700
1.5326254514e+00 -1.3715928706e+00 -4.4765741380e+00
106 90 94
2 7 818 229.0500 -207.9200 8 1052 246.0600 -122.7300
1.6160205290e+00 -1.3402328104e+00 -4.5019355104e+00
90 80 80
2 7 823 239.9100 -202.2900 8 1067 257.7900 -118.2800
-2.6780161036e-01 -8.3568316889e-01 -2.5947168214e+00
26 78 160
2 7 826 -65.1400 -202.4100 8 937 -44.4900 -193.3800
1.8635122561e+00 -1.2853434706e+00 -4.5722980693e+00
102 87 91
2 7 842 271.6600 -191.4500 8 1081 291.4700 -110.1100
6.8880388185e-02 -7.9240595794e-01 -2.6386107245e+00
217 242 116
2 7 848 13.0300 -189.9800 8 945 29.5400 -188.4400
4.6566574027e-02 -7.9028121433e-01 -2.6389593045e+00
211 233 127
2 7 851 7.9100 -189.5000 8 948 24.7500 -187.4700
1.9906038797e+00 -1.2696089877e+00 -4.5935800207e+00
87 77 83
2 7 855 288.5400 -188.2200 8 743 308.6400 -108.4600
1.5744676322e+00 -8.6603102991e-01 -4.9817270688e+00
123 110 113
2 7 914 215.0500 -124.5500 8 1168 250.7500 -30.7200
1.9666077926e+00 -8.6962333537e-01 -4.9812659101e+00
83 72 76
2 7 919 266.1000 -124.1400 8 785 302.6000 -36.1300
1.6868548854e+00 -8.0027084774e-01 -5.0415086734e+00
122 113 121
2 7 928 227.4400 -114.6600 8 1175 265.4500 -21.0500
1.8093628254e+00 -7.5413112137e-01 -5.0935755497e+00
90 68 67
2 7 940 241.0800 -107.6000 8 791 281.1200 -14.3700
-6.3210463874e-02 -4.2381238962e-01 -2.6109184255e+00
210 211 210
3 7 942 -18.7500 -106.8200 8 1063 5.2600 -119.4700 10 596 57.4200 43.0100
1.7262804646e+00 -7.1726213754e-01 -5.1367659973e+00
126 112 116
2 7 954 228.9500 -102.4100 8 795 269.7700 -6.7600
1.9477834574e+00 -2.6484532507e-01 -5.5746207704e+00
106 98 106
2 7 1013 239.3900 -42.6300 8 824 295.4500 63.2300
-2.5181546196e-01 -7.3606080136e-02 -2.6728967109e+00
157 86 117
2 7 1021 -61.2900 -25.7700 8 1163 -32.1500 -36.8300
1.8705888170e+00 5.0981588859e-02 -5.8626068481e+00
78 74 75
2 7 1032 220.4400 -6.1400 8 840 284.2400 110.7400
2.1161513253e+00 2.3524557448e-01 -6.0379577182e+00
53 46 47
2 7 1039 241.4600 13.9900 8 843 312.6600 134.3600
2.4107636144e-01 4.1214919581e-01 -2.6481357074e+00
41 75 77
2 7 1076 48.9600 86.4300 8 820 95.5300 60.0900
-5.6685897332e-02 -7.0711887865e-01 -2.6715179277e+00
221 198 54
2 7 8 -16.1000 -169.3900 1 7 -26.2800 -130.6000
-2.5349417877e-01 -6.6200567109e-01 -2.6236358113e+00
32 30 23
2 7 13 -61.8900 -161.3400 1 11 -77.0000 -115.1600
-4.8689318715e-01 2.3286806298e-01 -2.5115778031e+00
219 224 225
3 7 21 -120.1400 45.7700 0 21 -106.7900 95.1800 1 30 -118.3300 106.6800
-6.0108380693e-01 -5.3961306611e-01 -2.6478790829e+00
181 180 146
3 7 25 -139.8000 -132.8100 1 42 -154.2000 -81.7000 2 57 -133.7500 -47.7300
9.9200115780e-01 4.5279203295e-01 -2.9658705390e+00
22 21 23
2 7 37 201.7200 86.7100 1 51 234.2600 112.3600
-6.8312786259e-02 -5.4680444837e-01 -2.6499780296e+00
17 17 15
7 7 40 -19.5200 -133.7400 0 44 10.7300 -79.2900 1 41 -27.0000 -89.3800 2 53 -49.3100 -72.5900 9 35 -51.5200 -54.3200 5 21 109.8100 -66.5700 10 20 57.3000 7.7900
6.5863571310e-01 1.6333765425e-01 -2.7865255649e+00
205 223 222
2 7 49 140.5100 28.8100 1 49 160.5200 66.7700
-5.8196731879e-01 -6.8001161270e-01 -2.7312239037e+00
67 146 165
2 7 68 -130.4100 -160.4600 0 41 -107.9500 -127.2000
-4.3230939268e-01 -6.3874955863e-01 -2.6934366098e+00
93 163 103
4 7 69 -100.0000 -152.8600 0 74 -73.2100 -112.3500 1 82 -113.7800 -109.2700 5 53 26.9600 -116.7700
-4.3119227106e-01 -6.3787243957e-01 -2.6965250714e+00
93 163 103
6 7 70 -100.0000 -152.8600 0 75 -73.2100 -112.3500 1 83 -113.7800 -109.2700 2 163 -110.5700 -77.2800 9 75 -138.7100 -100.8500 5 54 26.9600 -116.7700
2.7268547638e-01 -6.0955497771e-01 -2.8216416694e+00
115 180 91
2 7 71 57.6400 -140.7500 1 60 61.7200 -114.3100
5.9618415566e-01 -6.0525255637e-01 -2.8414158350e+00
113 182 93
2 7 72 128.0300 -137.9900 1 81 141.6500 -117.5800
-3.2604711306e-01 -2.6473905441e-01 -2.6071709070e+00
16 16 14
2 7 76 -80.0100 -70.3600 1 96 -86.2600 -15.6300
1.0145384678e-01 6.0777216735e-01 -2.6713236293e+00
125 131 130
2 7 83 17.8000 128.4600 0 134 14.2400 160.8500
2.5267555711e-01 -8.1962198791e-01 -2.6593697848e+00
244 254 98
2 7 90 54.8200 -194.9200 1 111 50.2800 -164.5400
2.7888825097e-01 -7.6811024336e-01 -2.6484327808e+00
23 24 16
2 7 96 61.1800 -183.5800 1 77 57.2800 -151.1700
-4.0156399062e-01 -3.7625553816e-01 -2.6227406765e+00
88 174 118
4 7 103 -96.3900 -95.5000 0 78 -72.0400 -46.3000 1 89 -105.7800 -42.5300 2 117 -95.8300 -24.3300
5.5580436726e-01 4.1164910490e-01 -2.7705998010e+00
205 225 220
2 7 118 117.3700 83.2100 1 139 136.6800 122.0900
-7.4931311692e-02 5.6744847689e-01 -2.6604092903e+00
153 149 141
3 7 120 -22.9500 119.7800 0 132 -20.2300 151.6800 1 144 -8.7600 163.8000
-6.4591091693e-01 -8.1302868476e-01 -2.8191432149e+00
112 121 128
2 7 126 -139.9500 -184.9500 0 105 -118.2900 -163.1900
5.9161379183e-01 -7.0855049228e-01 -2.7542953906e+00
16 19 12
2 7 129 130.0200 -163.9800 1 113 140.2900 -141.8400
6.3693495250e-01 -2.7810903733e-02 -2.9358408068e+00
112 184 93
2 7 143 131.4900 -13.5600 1 128 153.8100 13.3800
-6.6804568013e-01 5.5025796519e-01 -2.5423157942e+00
146 141 139
2 7 156 -161.7600 117.8400 0 259 -150.5600 151.7500
-2.2599540929e-01 -8.0223123947e-01 -2.7056108098e+00
110 111 106
2 7 168 -53.4900 -189.1800 1 315 -67.5400 -152.8000
6.1274362145e-01 -7.9129087448e-01 -2.7826139403e+00
18 18 14
2 7 170 132.4500 -181.4500 1 219 146.4100 -163.5900
-4.0366404707e-01 -6.8129813416e-01 -2.7171539974e+00
30 41 25
6 7 175 -91.8700 -161.0800 0 215 -64.9900 -122.5800 1 229 -106.6600 -120.6600 2 230 -108.2800 -87.6900 9 146 -131.5100 -113.5600 5 150 34.8000 -127.1800
-7.5237545466e-03 -4.6541334579e-01 -2.6388024795e+00
205 207 204
6 7 180 -5.9400 -114.9200 0 153 24.1900 -58.1800 1 171 -11.6600 -69.0100 2 166 -35.7800 -57.9400 9 110 -34.3800 -29.9200 3 166 -58.2900 -32.2100
7.2907854557e-02 -4.5364839168e-01 -2.6608798172e+00
214 213 210
4 7 181 13.4300 -111.8200 0 221 41.2100 -54.9500 2 233 -17.9800 -60.6900 3 230 -43.4800 -37.2000
-3.8251392635e-01 -2.2478739834e-01 -2.5872157556e+00
98 113 105
3 7 192 -93.6900 -61.3800 0 228 -71.2700 -8.9400 1 246 -100.1400 -4.5800
7.6897256286e-01 -5.7436178363e-02 -3.0594965308e+00
66 55 44
2 7 197 154.5000 -19.4800 1 187 182.6100 -1.3100
7.9879915745e-01 -2.4993082103e-02 -3.0389710157e+00
175 182 174
4 7 198 161.0600 -13.1800 1 247 189.1100 7.1700 2 238 182.1200 -30.9700 9 172 200.2200 39.2100
5.3245919953e-01 9.2661912946e-02 -2.9728523980e+00
79 136 67
2 7 201 108.2100 11.1100 1 191 130.1300 37.3000
-2.4298502470e-01 4.0471857553e-01 -2.6251301554e+00
64 51 41
2 7 208 -60.9800 83.4500 0 250 -53.2400 122.3100
-2.3736213181e-01 4.8736825386e-01 -2.6284844723e+00
194 197 191
4 7 210 -59.9200 101.5600 0 352 -53.4100 137.9400 1 266 -47.6100 149.1800 5 283 -8.8100 166.5700
-2.3063772387e-01 5.3047091148e-01 -2.6286210122e+00
150 150 144
3 7 214 -58.8300 112.4100 0 353 -52.1800 145.8700 1 268 -45.8500 158.5700
-1.2366791452e-01 -9.4904077665e-01 -2.5482682446e+00
181 206 205
2 7 224 -32.2100 -231.5800 1 428 -56.4300 -192.4700
-1.2317504308e-01 -8.6921547548e-01 -2.6170010350e+00
40 49 48
2 7 239 -31.5300 -209.0400 1 218 -49.6200 -171.0200
9.0441979944e-01 -8.3342356453e-01 -2.7349222253e+00
60 33 16
2 7 249 200.8600 -191.3200 1 155 224.0500 -179.5400
-1.8370588668e-01 -8.0641582545e-01 -2.6899805662e+00
40 34 10
2 7 250 -43.6700 -190.5000 1 446 -59.0400 -154.6400
-4.5445012322e-01 -7.0346566519e-01 -2.7066703805e+00
93 155 92
3 7 253 -104.0000 -166.4900 0 213 -76.6100 -128.7900 1 228 -119.8700 -125.1000
-1.4321961413e-01 -5.1948683773e-01 -2.6222741340e+00
208 183 42
6 7 256 -36.6900 -129.0400 0 301 -6.5400 -73.4900 1 326 -47.1800 -81.0400 2 398 -65.1200 -61.5000 9 234 -73.1000 -47.6700 5 342 91.5700 -62.5600
-1.4644743398e-01 -4.7167840154e-01 -2.6035575877e+00
202 200 194
5 7 258 -38.1600 -117.3800 1 334 -48.1900 -67.9800 2 401 -64.2600 -51.1500 9 336 -75.0300 -33.3100 10 285 33.7800 30.8600
-1.5038994614e-01 -3.7181345587e-01 -2.5674482603e+00
205 207 200
6 7 265 -39.9400 -95.7200 0 313 -11.8600 -35.7600 1 242 -49.1500 -40.7100 9 246 -77.4800 -5.5800 5 231 83.7700 -23.6900 3 439 -76.7500 3.0300
-1.2724222654e-01 -3.3778843211e-01 -2.5605078838e+00
189 189 194
6 7 267 -34.7500 -87.8700 0 316 -7.2500 -26.7400 1 345 -43.2400 -32.4400 2 310 -55.2100 -21.4500 9 249 -71.4300 4.0400 5 236 87.0600 -13.1600
4.4671205389e-02 -3.0285933088e-01 -2.6029651416e+00
80 5 0
6 7 269 6.0500 -78.8900 1 243 2.8800 -27.1700 2 309 -18.0700 -24.4000 9 251 -21.9400 14.2800 5 238 116.7600 0.7100 10 194 86.2400 74.3200
-5.0718276134e-01 -2.5306683561e-01 -2.5420999663e+00
99 121 98
5 7 271 -124.0100 -69.0800 0 227 -101.4700 -14.5600 1 245 -133.9200 -7.7200 9 353 -159.7300 0.9600 10 193 -67.3900 73.2300
-3.9365477693e-01 -2.5627949349e-01 -2.5884218242e+00
55 75 63
4 7 272 -96.2600 -68.7900 0 320 -73.3400 -16.5300 1 346 -103.2900 -12.1900 5 361 14.6700 -9.5700
-6.0771050190e-01 1.5438847564e-02 -2.4772093403e+00
190 207 155
3 7 289 -151.8100 -5.4600 0 333 -131.4800 48.9600 1 370 -154.8800 60.4500
-4.6220604734e-01 7.5513054063e-02 -2.5809083179e+00
222 80 135
3 7 294 -118.8500 3.9500 1 372 -105.5500 67.4800 2 460 -75.3000 65.4300
-8.0541268562e-01 2.0613781684e-01 -2.5552336407e+00
110 88 90
2 7 307 -192.0300 37.8300 1 384 -185.2500 95.5000
5.2845645081e-01 5.0244193705e-01 -2.7066834397e+00
91 102 84
2 7 319 112.8500 105.4400 1 545 130.4100 147.7700
9.3058006228e-01 6.5759186077e-01 -2.9086879049e+00
203 205 210
2 7 322 191.3600 131.2100 1 267 220.2800 158.9200
-1.2637034631e-01 -4.8823218210e-01 -2.6119951269e+00
42 16 15
5 7 352 -33.3100 -121.5300 1 460 -43.0500 -72.3500 2 608 -60.9900 -55.7000 9 483 -69.0600 -37.4400 10 418 39.8000 26.5000
-4.3159236380e-02 -4.3227462625e-01 -2.6185564175e+00
28 28 33
6 7 357 -13.7700 -108.5100 0 450 14.5900 -50.2200 1 463 -20.9700 -59.3300 2 404 -41.6300 -48.2200 9 338 -45.3700 -21.1600 5 350 107.2400 -36.2900
-7.7349359506e-02 -4.0580387219e-01 -2.6006159945e+00
24 22 23
8 7 360 -22.1600 -102.8100 0 454 6.0400 -43.8500 1 340 -29.7400 -51.6500 2 407 -47.6200 -40.1000 9 342 -55.8300 -14.4000 5 354 99.3200 -30.8500 10 293 53.0500 48.3500 3 606 -66.4600 -11.0900
2.3643878468e-02 -4.0469187960e-01 -2.6276971515e+00
212 214 208
5 7 362 1.4200 -101.1700 0 664 29.3600 -43.7400 1 466 -3.1100 -53.6200 9 344 -26.3000 -12.4500 10 292 82.6200 47.3800
-6.7601918124e-02 -3.7916511943e-01 -2.5933610529e+00
25 25 24
5 7 363 -19.9600 -96.9500 0 458 7.6500 -36.8500 1 342 -27.1400 -44.7600 2 411 -44.4900 -34.3800 9 346 -53.6200 -6.9000
-2.9687700616e-02 -3.7381580911e-01 -2.6026236690e+00
30 28 29
5 7 364 -11.0900 -95.4300 0 461 16.2500 -35.3500 1 470 -17.0600 -44.0600 2 408 -36.5900 -35.6700 9 347 -42.5800 -5.0000
-2.9915091395e-02 -3.7312310886e-01 -2.6032072294e+00
30 28 29
6 7 365 -11.0900 -95.4300 0 462 16.2500 -35.3500 1 471 -17.0600 -44.0600 2 409 -36.5900 -35.6700 9 348 -42.5800 -5.0000 3 610 -56.7600 -7.5200
-1.9633565111e-02 -3.2815329734e-01 -2.5919346345e+00
216 213 211
8 7 369 -8.9500 -84.8700 0 467 17.4400 -24.0900 1 478 -14.4700 -32.2200 2 416 -32.7900 -26.0500 9 354 -40.0900 7.3500 5 554 106.5100 -7.9900 10 302 68.3000 68.0600 3 616 -52.8500 1.8000
4.1780288322e-03 -3.2127679822e-01 -2.5976257388e+00
42 18 15
5 7 370 -3.3800 -83.0000 0 469 22.9000 -22.5300 1 482 -8.1000 -30.9800 2 414 -27.2300 -25.9300 9 357 -33.3200 9.1300
4.1521661813e-03 -3.2117358392e-01 -2.5984645135e+00
42 18 15
5 7 371 -3.3800 -83.0000 1 483 -8.1000 -30.9800 2 415 -27.2300 -25.9300 9 358 -33.3200 9.1300 10 305 75.0600 68.9900
-3.5195500897e-01 -1.9731825790e-01 -2.5913604742e+00
59 73 64
2 7 379 -86.4500 -54.8500 1 500 -92.0600 1.4500
8.3572277348e-01 1.7926707880e-02 -3.0012346548e+00
214 224 216
6 7 392 170.1500 -3.9000 0 493 168.2200 34.4600 1 357 198.9500 18.3600 2 311 190.3700 -20.4600 9 376 205.5500 55.1700 10 313 284.0000 86.3900
-8.2498518919e-03 4.0093815831e-02 -2.7520999693e+00
109 201 215
2 7 393 -5.6800 0.1000 0 500 6.3100 42.6100
7.9563535428e-01 4.2451148574e-02 -2.9868790432e+00
202 207 202
2 7 394 162.4400 1.2800 0 495 160.5800 39.3100
8.2332243847e-01 4.6582720895e-02 -2.9816196318e+00
75 67 52
2 7 395 167.7300 2.5300 0 497 166.6200 40.7400
6.5138218566e-01 2.4127958733e-01 -2.8042107571e+00
111 116 99
3 7 405 137.9600 45.4400 0 706 134.5300 88.7000 5 852 168.4500 120.2200
-7.2377780704e-01 2.7917262635e-01 -2.5080747375e+00
146 135 141
3 7 408 -177.0500 56.0400 0 525 -161.4700 100.0400 5 270 -104.9600 117.1900
2.4063822222e-01 -7.6429292265e-01 -2.6496648647e+00
124 127 116
2 7 473 52.3500 -182.7400 1 447 47.3500 -149.6000
5.9991026193e-01 -7.6295868341e-01 -2.7738863635e+00
124 137 129
2 7 476 130.7900 -175.2700 1 444 142.4800 -156.2500
-6.3898064290e-01 -6.9244853813e-01 -2.7044953674e+00
172 73 97
4 7 479 -144.4300 -163.9400 0 627 -121.7000 -130.9300 1 616 -161.7100 -119.7000 2 1071 -144.6200 -78.7900
-4.5374505057e-01 -5.7542948094e-01 -2.6640274216e+00
97 158 106
6 7 484 -105.6100 -139.3200 0 635 -79.9400 -96.4900 1 635 -119.8900 -92.4100 2 603 -114.0100 -62.2500 9 467 -146.2500 -83.1500 5 525 19.2000 -100.9100
-7.7441739671e-02 -4.7962122948e-01 -2.6242597129e+00
210 215 208
4 7 490 -21.6900 -119.2500 0 649 7.7400 -62.0000 1 462 -29.9400 -71.6700 2 607 -50.4000 -56.6500
9.9482108661e-02 -4.8255575739e-01 -2.6797325470e+00
50 6 7
4 7 492 19.5200 -117.0300 1 331 16.1100 -76.8400 9 334 -1.7700 -34.8100 10 415 108.5800 24.0300
7.7649156754e-02 -4.6835663347e-01 -2.6674180900e+00
209 214 207
7 7 494 13.9800 -114.8000 0 651 43.1000 -58.5400 1 461 10.8400 -71.9000 2 600 -17.5000 -64.3600 9 486 -9.1000 -30.4100 5 537 130.4900 -41.3900 10 284 101.4900 28.1500
1.0079079776e-01 -4.5382418436e-01 -2.6692690515e+00
56 9 5
6 7 496 19.3900 -111.6500 0 652 47.3300 -55.0700 2 602 -12.2500 -62.6700 9 488 -1.8700 -25.9200 10 419 107.6600 32.2300 3 585 -38.2200 -40.3300
9.9311363056e-02 -4.3669996607e-01 -2.6657029517e+00
55 6 1
5 7 497 19.1500 -107.9900 0 658 46.7700 -50.5600 1 646 16.7200 -64.0400 2 605 -11.7400 -58.3800 9 491 -2.5000 -21.7400
5.3498199270e-02 -4.2455467291e-01 -2.6484729253e+00
26 25 28
6 7 498 8.8400 -105.9400 0 661 36.5300 -48.0100 2 612 -20.8300 -52.9200 9 492 -16.5300 -18.6300 5 544 123.5400 -30.9200 3 594 -44.7200 -28.7500
5.4419896632e-02 -4.2531049558e-01 -2.6472048695e+00
26 25 28
6 7 499 8.8400 -105.9400 0 662 36.5300 -48.0100 1 650 5.0300 -60.1000 2 613 -20.8300 -52.9200 9 493 -16.5300 -18.6300 3 596 -44.7200 -28.7500
9.5656505624e-01 -4.8356779376e-01 -3.1529617456e+00
25 23 21
2 7 502 189.0100 -103.2500 1 455 224.0200 -100.6600
-4.7501913010e-02 -3.8539679523e-01 -2.6023788705e+00
201 204 193
7 7 507 -15.0400 -98.0500 0 669 12.5600 -38.4900 1 467 -21.8300 -47.1400 2 628 -40.7600 -37.2800 9 502 -47.4000 -8.5600 5 548 104.1800 -23.4500 10 429 60.9000 53.1200
-1.0254376080e-01 -3.7874541795e-01 -2.5848038823e+00
27 30 34
8 7 509 -28.3800 -97.0700 0 671 -0.3000 -37.1300 1 668 -36.3500 -43.9200 2 632 -51.7200 -32.4600 9 504 -63.7400 -7.2200 5 549 93.1900 -23.9500 10 612 44.8300 55.7000 3 831 -69.0000 -2.7000
-9.2930995158e-03 -3.7912744432e-01 -2.6114148255e+00
215 218 212
5 7 510 -6.1900 -96.6000 0 672 21.0200 -36.6500 1 468 -11.5300 -46.6900 2 626 -32.6000 -38.2500 5 780 110.6600 -20.3700
-9.4777956791e-03 -3.7903841411e-01 -2.6126876549e+00
215 218 212
8 7 511 -6.1900 -96.6000 0 673 21.0200 -36.6500 1 469 -11.5300 -46.6900 2 627 -32.6000 -38.2500 9 506 -36.1500 -6.9200 5 781 110.6600 -20.3700 10 428 72.5500 53.6900 3 824 -53.7900 -10.6800
9.5686716435e-02 -3.5283217460e-01 -2.6369976355e+00
57 6 1
4 7 513 18.1200 -89.4900 1 671 16.0000 -41.6100 2 625 -9.0800 -38.9000 9 508 -5.6600 1.1900
-7.9121560150e-02 -3.3586780924e-01 -2.5748375558e+00
207 212 208
2 7 516 -23.1300 -87.0300 1 677 -30.2600 -32.8500
-7.9487026123e-02 -3.3676410486e-01 -2.5758322082e+00
207 212 208
7 7 517 -23.1300 -87.0300 0 675 3.9100 -26.1800 1 678 -30.2600 -32.8500 2 855 -45.3400 -24.1900 9 662 -57.5900 4.5800 5 785 96.1100 -12.6000 10 619 50.3000 67.2200
-5.0474839984e-01 -3.2881106579e-01 -2.5626661930e+00
39 53 39
2 7 518 -122.5400 -86.1500 1 684 -133.5900 -27.3400
7.2427794415e-02 -3.3462839832e-01 -2.6215798796e+00
243 42 29
7 7 519 12.5800 -85.0200 0 677 38.5400 -25.7200 1 475 9.8600 -35.9000 2 631 -13.4800 -33.3900 9 509 -13.2700 7.0700 5 789 123.6700 -7.7100 3 607 -36.9300 -9.0100
7.2523081063e-02 -3.3292285832e-01 -2.6206087226e+00
243 42 29
3 7 520 12.5800 -85.0200 1 476 9.8600 -35.9000 9 510 -13.2700 7.0700
-2.8574090802e-02 -3.2930263970e-01 -2.5867139992e+00
208 216 209
4 7 522 -10.7000 -85.0700 1 680 -16.8800 -32.1500 2 854 -34.7600 -25.4400 9 665 -43.4600 7.1700
2.8280783493e-02 -3.2054629531e-01 -2.6036645025e+00
240 43 42
6 7 526 2.4200 -82.9100 0 679 28.3200 -22.1800 1 682 -1.6900 -31.3700 2 637 -22.2300 -27.2000 5 791 115.0300 -4.7500 3 836 -43.9900 -0.6400
7.0348012419e-02 -3.1321866861e-01 -2.6147422213e+00
242 42 33
4 7 529 12.1100 -80.6300 0 680 37.4200 -20.0800 1 481 9.4500 -30.8500 2 635 -12.9600 -28.1700
7.0301920314e-02 -3.1279708742e-01 -2.6143153401e+00
242 42 33
3 7 530 12.1100 -80.6300 0 681 37.4200 -20.0800 2 636 -12.9600 -28.1700
8.6907775345e-02 -2.9816361904e-01 -2.6155945539e+00
56 9 0
4 7 533 15.8700 -77.1700 0 683 40.9200 -16.5300 2 639 -8.6600 -25.8100 9 513 -9.7100 15.9700
-7.0262343495e-01 -1.3723323034e-01 -2.4860103785e+00
189 118 137
6 7 544 -173.1100 -42.1700 0 691 -152.2300 11.8800 1 698 -180.4200 24.5400 2 1179 -138.5800 39.9100 9 673 -203.0800 21.1300 5 560 -66.9800 12.9900
9.6030259194e-01 2.2831234719e-01 -3.0169896289e+00
53 52 49
3 7 560 193.2300 40.1000 0 922 181.6000 71.8200 10 649 299.8000 121.1100
5.9354476580e-01 3.9573064488e-01 -2.7645951091e+00
211 225 223
2 7 573 125.9200 79.9800 0 712 119.1100 119.6300
-6.9608648769e-01 4.5679167622e-01 -2.5316319946e+00
42 24 21
2 7 579 -169.1500 96.7100 0 720 -155.9800 134.0800
-7.1260908128e-01 4.8879115187e-01 -2.5508063468e+00
99 80 78
2 7 584 -171.7800 103.2700 0 722 -159.3000 137.8500
-9.4314334270e-02 5.9395840183e-01 -2.6320419389e+00
141 140 135
7 7 588 -27.6000 127.4500 0 725 -24.8700 159.4200 1 734 -13.9600 172.7600 2 906 22.2400 143.5800 9 707 -35.8200 148.0600 5 618 15.4500 190.3900 10 682 43.8500 203.4200
-9.3265047267e-02 5.9566974066e-01 -2.6345778048e+00
141 140 135
5 7 589 -27.6000 127.4500 0 726 -24.8700 159.4200 1 733 -13.9600 172.7600 5 619 15.4500 190.3900 10 683 43.8500 203.4200
-1.0128153193e-01 -8.2814656484e-01 -2.6684845383e+00
61 38 1
3 7 631 -25.5100 -196.1000 0 809 12.4700 -148.2000 1 808 -40.8000 -161.4200
1.9193061034e+00 -1.2040127732e+00 -4.6357255675e+00
83 79 81
2 7 640 276.6500 -178.0600 0 753 285.3100 -202.6100
-4.4523912372e-01 -7.3049339721e-01 -2.7171941342e+00
41 73 48
6 7 642 -101.3700 -172.0700 0 818 -73.9400 -135.4500 1 832 -117.6000 -132.2600 2 1053 -117.8800 -95.3800 9 589 -143.8300 -127.3800 5 719 28.9900 -142.7100
-6.2152392022e-01 -7.0998163046e-01 -2.7144908999e+00
154 30 59
2 7 644 -140.0300 -167.5200 1 836 -157.5100 -124.4400
1.4180846664e-01 -7.0926473836e-01 -2.7747925887e+00
209 54 37
2 7 645 29.3500 -164.6500 1 831 26.9700 -136.3000
-6.2751913789e-01 -6.4514955003e-01 -2.6916980780e+00
155 30 60
3 7 647 -142.9400 -153.9500 0 630 -120.1000 -118.6700 5 507 -20.8600 -132.8000
1.4822943803e+00 -1.0219228577e+00 -4.8060463003e+00
99 85 91
2 7 652 209.3100 -149.2600 1 755 276.4900 -222.6800
1.4822943803e+00 -1.0219228577e+00 -4.8060463003e+00
99 85 91
2 7 653 209.3100 -149.2600 1 756 276.4900 -222.6800
-4.6365590684e-01 -5.9530709731e-01 -2.6666180796e+00
107 164 113
4 7 656 -107.6800 -143.7600 1 854 -122.5900 -97.4400 2 1079 -116.6600 -65.8900 9 602 -149.1400 -88.6000
7.6184828931e-02 -5.6171179265e-01 -2.6996144502e+00
154 122 119
6 7 661 14.3400 -134.9900 0 837 44.4500 -81.5900 1 857 10.5000 -96.5900 2 797 -21.6400 -85.5700 9 609 -6.6400 -57.2900 10 557 103.7700 1.2100
-6.4694368289e-01 -4.7216274739e-01 -2.6234717799e+00
149 42 81
4 7 669 -151.2500 -117.7200 0 840 -129.5000 -74.7000 1 883 -164.9000 -63.6400 5 529 -34.8400 -84.2500
-3.8183886546e-02 -4.7186901053e-01 -2.6328132114e+00
21 20 16
8 7 671 -12.5400 -116.6900 0 843 16.6900 -60.0600 1 873 -19.5400 -70.2300 2 1094 -42.1900 -57.7500 9 618 -43.3200 -31.9200 5 1023 109.8700 -47.1000 10 571 66.0800 29.9100 3 1105 -63.4300 -30.7600
-3.7953055681e-02 -4.7154613605e-01 -2.6324441962e+00
21 20 16
7 7 672 -12.5400 -116.6900 0 844 16.6900 -60.0600 1 643 -19.5600 -70.0300 2 1095 -42.1900 -57.7500 9 619 -43.3200 -31.9200 10 572 66.0800 29.9100 3 1106 -63.4300 -30.7600
-8.0336981954e-02 -4.5341962707e-01 -2.6153712262e+00
208 209 200
5 7 674 -22.4900 -113.2800 0 850 6.4100 -55.8400 1 878 -30.4600 -64.4300 2 822 -50.1300 -50.6500 9 622 -55.9900 -27.5000
3.5780193727e-02 -4.5463609709e-01 -2.6522869213e+00
19 15 16
4 7 675 4.6100 -112.2000 1 644 0.0600 -67.4300 2 811 -25.9400 -58.5800 10 575 88.1400 32.2900
3.5780193727e-02 -4.5463609709e-01 -2.6522869213e+00
19 15 16
4 7 676 4.6100 -112.2000 1 645 0.0600 -67.4300 2 810 -25.9400 -58.5800 10 576 88.1400 32.2900
-5.4558672102e-02 -4.4810056018e-01 -2.6220151519e+00
212 217 212
6 7 677 -16.4300 -112.1400 0 851 12.4000 -54.3400 1 880 -23.7900 -63.6500 9 624 -48.4600 -26.0000 5 1031 105.5800 -40.6100 10 578 60.6700 35.8900
-5.4486322765e-02 -4.4866802421e-01 -2.6213317583e+00
212 217 212
6 7 678 -16.4300 -112.1400 0 852 12.4000 -54.3400 1 881 -23.7900 -63.6500 2 1108 -44.6200 -51.0700 9 625 -48.4600 -26.0000 10 579 60.6700 35.8900
-7.0955609258e-02 -4.4098512761e-01 -2.6140574091e+00
18 17 23
6 7 680 -20.3500 -110.6300 0 653 8.3100 -52.7000 1 648 -28.0800 -61.2100 2 827 -47.6600 -48.4400 9 629 -53.3000 -24.0100 3 812 -67.2000 -20.0400
-7.0955609258e-02 -4.4098512761e-01 -2.6140574091e+00
18 17 23
6 7 681 -20.3500 -110.6300 0 654 8.3100 -52.7000 1 649 -28.0800 -61.2100 2 828 -47.6600 -48.4400 9 630 -53.3000 -24.0100 3 813 -67.2000 -20.0400
1.6169981873e+00 -7.6486190121e-01 -5.0997196110e+00
122 118 123
2 7 684 216.3400 -109.3400 1 777 287.1800 -182.9600
2.1338039964e-02 -4.3886821797e-01 -2.6412052781e+00
214 214 207
6 7 685 1.2100 -109.2600 0 855 29.6400 -51.3100 1 647 -3.7600 -62.8200 2 817 -28.2800 -53.7300 9 634 -26.2600 -22.6400 10 582 83.2100 37.0200
-1.1352198494e-01 -4.3178064661e-01 -2.5973435565e+00
211 211 203
3 7 687 -30.5700 -108.8300 0 856 -1.6900 -50.7300 9 637 -66.1500 -21.5800
-1.5570873600e-02 -4.3113888069e-01 -2.6275869685e+00
17 20 23
8 7 690 -7.4400 -107.8900 0 858 20.8900 -49.8500 1 889 -13.4000 -59.9300 2 824 -35.8800 -49.6900 9 639 -37.3200 -20.6500 5 767 111.9400 -35.0200 10 798 72.2900 39.8100 3 1113 -57.4400 -23.1500
-8.6373609519e-02 -4.2724882906e-01 -2.6042977783e+00
209 215 208
6 7 691 -24.1100 -107.4300 0 859 4.5800 -49.3200 1 893 -32.2100 -57.1100 2 833 -50.3300 -44.2700 9 641 -58.2100 -20.0400 5 1037 98.8700 -36.9000
-8.6237287756e-02 -4.2696530595e-01 -2.6038614728e+00
209 215 208
6 7 692 -24.1100 -107.4300 0 860 4.5800 -49.3200 1 894 -32.2100 -57.1100 2 834 -50.3300 -44.2700 9 642 -58.2100 -20.0400 10 597 50.4100 42.7700
-9.1912921348e-03 -4.1715254916e-01 -2.6239449411e+00
221 224 220
8 7 693 -6.1000 -104.3800 0 864 22.1000 -46.3600 1 896 -11.7500 -56.3000 2 1111 -33.9500 -46.9500 9 646 -35.6700 -16.4300 5 1046 112.6800 -31.3700 10 804 73.3400 44.0900 3 1116 -55.7100 -20.8300
5.4210378146e-02 -4.0847842354e-01 -2.6393952186e+00
215 222 219
5 7 700 7.9200 -102.3100 0 665 36.0000 -43.8300 1 658 4.7100 -55.5100 9 498 -16.6500 -13.4100 10 424 92.5100 45.4800
8.3807458891e-02 -4.0267178343e-01 -2.6488836937e+00
216 219 215
7 7 701 15.5200 -100.3400 0 870 42.6700 -42.4300 1 898 12.8300 -54.7300 2 823 -13.5300 -49.7200 9 651 -8.1300 -11.9300 5 1058 128.4200 -24.8600 10 603 100.7200 46.0700
-8.8897373794e-02 -3.8747904797e-01 -2.5911298824e+00
213 220 214
8 7 704 -25.0800 -98.8900 0 873 3.0000 -39.2700 1 901 -32.7700 -46.5800 2 841 -49.2900 -35.2900 9 653 -59.5000 -9.5900 5 1056 96.5400 -25.5600 10 607 48.7800 53.2300 3 1137 -67.3700 -5.8700
2.5761200076e-02 -3.7137287653e-01 -2.6205531705e+00
224 227 223
8 7 706 2.0000 -94.3800 0 874 28.9300 -34.7700 1 666 -2.3400 -45.1400 2 838 -24.7800 -38.8100 9 654 -26.1000 -4.2100 5 1060 116.7800 -17.6300 10 608 82.6200 55.4300 3 1127 -47.0900 -12.7700
-9.1399813534e-02 -3.6381633148e-01 -2.5777812934e+00
208 212 206
4 7 709 -25.6500 -93.1600 0 877 2.3900 -33.0600 5 782 95.6600 -19.2300 10 614 46.3800 60.4300
6.9389241329e-02 -3.5328960251e-01 -2.6294704228e+00
25 19 16
8 7 714 11.9600 -89.8900 0 880 38.3500 -30.2300 1 672 9.2200 -41.3900 2 840 -14.7200 -37.5900 9 658 -13.5700 1.0900 5 786 123.3000 -12.0900 10 613 95.2600 59.3900 3 821 -37.9200 -13.1900
-2.9564830513e-02 -3.2919454941e-01 -2.5874214407e+00
206 214 208
4 7 720 -11.4400 -85.2500 1 679 -16.8800 -32.1500 2 853 -34.7600 -25.4400 9 664 -43.4600 7.1700
8.8180760064e-02 -3.2463016653e-01 -2.6245576950e+00
115 7 5
6 7 722 16.2900 -82.8300 0 1160 41.8000 -23.2700 1 913 14.2100 -34.0000 2 849 -9.5700 -31.8500 9 835 -8.7500 9.1700 5 1072 125.8400 -4.4400
8.8180760064e-02 -3.2463016653e-01 -2.6245576950e+00
115 7 5
6 7 723 16.2900 -82.8300 0 1161 41.8000 -23.2700 1 914 14.2100 -34.0000 2 850 -9.5700 -31.8500 9 836 -8.7500 9.1700 5 1073 125.8400 -4.4400
2.4749510222e+00 -5.7089838620e-01 -5.3296952896e+00
58 57 58
2 7 724 312.1200 -79.7500 0 1071 292.0600 -118.4100
6.7453971860e-01 2.8157251501e-02 -2.8771872621e+00
117 128 100
5 7 750 141.3800 -1.9300 0 909 143.3500 42.9000 1 699 163.3000 29.7500 2 870 150.1100 -2.1800 9 535 158.6300 68.6500
6.4670364576e-01 6.9394472567e-02 -2.8469988429e+00
163 176 162
4 7 753 136.3200 7.3800 0 916 138.4200 52.7300 1 701 157.2300 41.3200 10 647 236.3600 116.3700
6.5445729790e-01 9.4547951465e-02 -2.8243845358e+00
192 204 195
4 7 754 138.5600 13.1400 0 1199 139.9700 59.2200 1 938 159.0700 48.5200 5 844 177.5300 90.7200
6.0733197935e-01 3.4927587854e-01 -2.7765246652e+00
171 183 169
5 7 762 128.9300 69.5000 0 938 123.3100 110.2400 1 716 148.4500 108.5000 9 705 128.0100 134.0800 10 664 213.5600 170.6500
-3.0784889056e-02 3.7928627556e-01 -2.6602698141e+00
153 141 132
3 7 766 -12.5200 77.6800 0 942 -6.4000 117.0800 5 859 42.0100 144.5300
-3.0784889056e-02 3.7928627556e-01 -2.6602698141e+00
153 141 132
3 7 767 -12.5200 77.6800 0 943 -6.4000 117.0800 5 860 42.0100 144.5300
1.9801003299e-01 3.7460318349e-01 -2.6494655500e+00
28 36 45
4 7 768 39.6900 77.9800 0 948 42.7800 121.2600 1 950 50.7800 125.7800 5 865 90.4100 150.7400
-5.9014594311e-02 4.1574957487e-01 -2.6417610845e+00
123 119 115
3 7 772 -19.3700 86.6300 0 952 -13.2100 125.5400 5 609 35.0400 153.3600
-6.8454276503e-01 4.1057821882e-01 -2.5214012847e+00
58 36 32
3 7 775 -167.2500 86.4500 0 715 -153.1100 126.1200 5 418 -104.5000 148.7500
-2.4667953516e-01 4.5163438481e-01 -2.6245100995e+00
89 81 76
2 7 780 -62.3800 94.4000 1 1279 -51.0100 142.9900
-2.4135731640e-01 5.2633516724e-01 -2.6315772957e+00
136 133 125
2 7 783 -60.9800 111.0700 1 961 -48.0100 157.6300
-6.7206063699e-01 5.7479353990e-01 -2.5373855466e+00
136 122 126
2 7 784 -163.4500 123.8500 0 961 -151.3500 156.8000
-2.6275950356e-01 -8.9618191159e-01 -2.5894261048e+00
16 16 15
3 7 814 -63.7900 -216.5600 0 1027 -24.8500 -167.5200 1 1056 -87.8500 -175.6900
-3.0807923889e-01 -8.4219057704e-01 -2.5935540653e+00
153 184 220
2 7 821 -74.2700 -203.8700 1 1069 -97.5200 -160.5500
1.1722948528e-01 -8.1390148678e-01 -2.6317857626e+00
178 200 84
3 7 836 24.0200 -195.1200 0 1060 65.4100 -136.9600 1 1068 13.7500 -160.8100
1.0249984591e-01 -8.1124010066e-01 -2.6315984970e+00
169 189 85
3 7 837 20.6600 -194.5100 0 1061 61.7900 -136.7500 1 1070 9.9100 -159.8700
-3.6874223427e-01 -6.5228816283e-01 -2.7254733167e+00
89 126 90
5 7 884 -84.3700 -154.5200 0 1079 -57.3600 -115.0300 1 843 -97.3200 -114.2500 9 767 -120.7800 -106.0000 10 538 -22.9600 -40.1700
-4.4973090783e-01 -5.8839310715e-01 -2.6714954709e+00
23 70 32
4 7 893 -104.4900 -142.5700 0 1085 -78.4600 -99.6900 1 1124 -118.5700 -95.6800 10 769 -48.8800 -18.8900
-5.0754086423e-02 -5.8098450756e-01 -2.6670823487e+00
156 115 107
7 7 894 -14.6900 -140.5500 0 1098 16.4000 -87.6300 1 847 -23.0300 -98.7700 2 1067 -48.8500 -81.4500 9 776 -44.8900 -63.7200 10 553 65.2600 -1.9900 3 1089 -70.8600 -54.6800
-2.9681775430e-02 -5.7669142008e-01 -2.6719041921e+00
167 128 128
5 7 896 -9.9400 -139.5100 0 1104 21.1600 -86.2600 1 850 -17.4700 -98.2100 2 1064 -44.3600 -81.8300 9 777 -38.7000 -62.3800
-1.0351724099e-02 -5.7357289233e-01 -2.6757928118e+00
168 133 128
4 7 897 -5.5000 -138.6800 0 1105 25.4600 -85.2600 1 849 -12.4800 -97.8000 9 779 -32.9300 -61.1500
-4.3733912235e-01 -5.6896749063e-01 -2.6680072201e+00
28 60 29
6 7 900 -101.9600 -138.0900 0 1087 -76.1100 -94.7100 1 862 -115.6000 -91.2000 2 1089 -110.4500 -61.8900 9 772 -141.4500 -81.5400 10 773 -45.0900 -13.3100
4.1108768802e-02 -5.6605879379e-01 -2.6894761978e+00
165 133 134
4 7 904 6.1900 -136.4200 0 1109 36.9800 -82.8900 1 855 1.0700 -96.8800 9 785 -17.3700 -58.7600
9.4613160944e-02 -5.5843716794e-01 -2.7052781665e+00
178 140 137
8 7 907 18.5500 -134.1100 0 838 48.7000 -80.5900 1 858 15.2700 -96.1700 2 1058 -17.4400 -86.2800 9 610 -0.8700 -56.4400 5 1013 136.7100 -63.6400 10 558 109.2600 1.5700 3 1082 -44.7500 -64.9900
-9.2245668530e-02 -4.6396290680e-01 -2.6154121952e+00
31 27 26
3 7 925 -25.3800 -115.8600 1 875 -33.9000 -66.8900 9 808 -59.1300 -30.4700
-9.3109892318e-02 -4.6424456289e-01 -2.6164917025e+00
31 27 26
4 7 926 -25.3800 -115.8600 0 848 3.6200 -58.9000 1 876 -33.9000 -66.8900 5 1026 99.2100 -46.7700
8.8915851371e-02 -4.6776758728e-01 -2.6726846501e+00
212 218 212
7 7 930 16.9600 -114.5300 0 1124 45.2300 -58.3200 1 872 13.9300 -72.0600 2 1082 -15.0700 -64.9700 9 807 -4.8900 -30.3200 10 791 104.4400 27.4600 3 1096 -41.0800 -42.6700
-6.4995599573e-01 -4.5367917614e-01 -2.6156581983e+00
25 107 130
2 7 931 -152.3900 -113.6300 1 1145 -165.8000 -58.9400
1.5287211915e+00 -7.8400978627e-01 -5.0714310723e+00
94 81 85
2 7 933 206.0100 -112.4600 1 1044 274.4300 -184.8700
-2.5393497979e-02 -4.4394116520e-01 -2.6288349190e+00
212 215 210
6 7 934 -9.6500 -110.7300 0 853 19.0100 -53.0200 1 884 -16.0700 -63.0600 2 1107 -38.4400 -51.8700 9 627 -39.9300 -24.4300 10 580 69.3900 36.5000
-3.1357831361e-03 -4.4013552932e-01 -2.6339851835e+00
210 212 211
4 7 937 -4.3500 -109.6800 0 1129 24.0400 -51.8900 2 1103 -33.5500 -52.4700 9 811 -33.4800 -23.3200
-6.3253028833e-02 -4.2500801617e-01 -2.6098888083e+00
210 211 210
6 7 941 -18.7500 -106.8200 0 1131 9.7200 -48.6500 1 895 -26.1100 -57.0700 2 1114 -45.5700 -45.3600 9 816 -51.5100 -19.3000 10 595 57.4200 43.0100
8.7249469180e-02 -4.2614203700e-01 -2.6582986094e+00
178 183 176
3 7 946 16.3800 -105.6200 0 1133 43.8800 -48.1400 9 817 -6.5200 -18.7200
8.7427286900e-02 -4.2643435394e-01 -2.6581237991e+00
178 183 176
6 7 947 16.3800 -105.6200 0 1134 43.8800 -48.1400 1 1140 13.7500 -61.1900 2 1099 -13.9000 -55.3700 9 818 -6.5200 -18.7200 10 1033 102.7700 39.1800
-2.8296659557e-02 -4.2091124607e-01 -2.6188240740e+00
217 216 214
5 7 948 -10.5300 -105.6100 0 1135 17.7500 -47.4800 1 897 -16.8600 -56.8000 9 819 -41.2800 -17.7500 10 803 67.7100 43.4500
3.8657598582e-02 -4.2186140550e-01 -2.6400350204e+00
25 16 23
6 7 949 5.1700 -105.1500 0 862 32.8000 -47.2500 1 890 0.8500 -58.6600 2 820 -24.2700 -51.0500 9 644 -21.0900 -17.6400 3 802 -47.8100 -26.2900
3.8610775000e-02 -4.2187199456e-01 -2.6401691209e+00
25 16 23
7 7 950 5.1700 -105.1500 0 863 32.8000 -47.2500 1 891 0.8500 -58.6600 2 821 -24.2700 -51.0500 9 645 -21.0900 -17.6400 10 801 87.8900 41.6600 3 803 -47.8100 -26.2900
2.4106143601e-03 -4.0752095618e-01 -2.6253721055e+00
61 61 58
3 7 955 -3.5500 -101.9900 0 1138 24.4700 -43.8200 5 1052 114.6000 -28.5900
2.2145165850e-03 -4.0639201202e-01 -2.6273100147e+00
61 61 58
2 7 956 -3.5500 -101.9900 0 1137 24.4700 -43.8200
2.0746920139e-02 -3.3633005957e-01 -2.6062559374e+00
114 15 10
5 7 972 0.5300 -86.2800 0 1153 26.9700 -26.1000 1 1160 -3.6900 -35.4400 2 1124 -24.5200 -30.2800 9 828 -28.3700 5.5400
-2.0510578154e-03 -3.3629608435e-01 -2.6003383103e+00
52 15 13
5 7 973 -4.7800 -86.2700 1 912 -9.6500 -34.7900 2 1126 -29.3900 -28.8900 9 827 -34.8000 5.1400 5 1067 110.3700 -9.8400
-1.3371303037e-01 -3.2958110280e-01 -2.5578512496e+00
19 18 19
7 7 974 -36.2400 -86.2100 0 1158 -8.9700 -24.7600 1 916 -44.6900 -29.8400 2 1131 -56.1600 -19.1400 9 830 -73.2700 5.9300 5 1066 85.2100 -11.3200 10 822 34.1500 69.5000
-1.3361903765e-01 -3.2953161305e-01 -2.5568925846e+00
19 18 19
6 7 975 -36.2400 -86.2100 0 1157 -8.9700 -24.7600 1 917 -44.6900 -29.8400 2 1132 -56.1600 -19.1400 9 831 -73.2700 5.9300 5 1065 85.2100 -11.3200
4.5769298455e-02 -3.3167828511e-01 -2.6142506213e+00
72 8 5
7 7 976 6.4500 -85.0400 0 1156 32.7000 -24.9400 1 911 3.0000 -34.9100 2 1122 -18.8000 -31.0400 9 833 -21.2600 6.8800 10 1052 87.1000 65.7100 3 1136 -40.9300 -5.8700
-1.1546105097e-02 -3.1479882235e-01 -2.5856720363e+00
216 213 209
2 7 979 -7.3300 -81.8000 1 1163 -12.3400 -28.6700
4.1129528044e-01 -3.0498123124e-01 -2.5153547482e+00
106 179 85
2 7 982 93.4300 -79.8100 1 1175 95.4800 -24.8400
1.7366725304e+00 -5.4992915802e-01 -5.3151146184e+00
126 113 114
2 7 983 223.6100 -79.2500 1 1085 297.0300 -153.6000
4.5041700175e-02 -3.0303079431e-01 -2.6025820232e+00
98 6 0
2 7 985 6.1300 -78.5300 1 918 2.6600 -27.1900
-6.5530544261e-01 -2.9419064051e-01 -2.5562067408e+00
84 170 187
3 7 986 -157.7100 -78.2700 0 1151 -136.2800 -28.8600 5 1044 -46.4000 -32.4700
1.8003250315e+00 -5.2619291751e-01 -5.3270243582e+00
137 126 132
2 7 987 231.0100 -76.0500 1 814 305.9000 -150.9000
1.7433786206e+00 -5.2441327279e-01 -5.3405548555e+00
90 69 71
2 7 989 223.4200 -75.8800 1 1087 297.1200 -150.2000
1.7915007095e+00 -4.3710440102e-01 -5.4215742788e+00
123 111 117
2 7 998 226.4400 -64.4000 1 828 300.9000 -139.1600
-6.6678641706e-01 -2.1224511717e-01 -2.5179662870e+00
78 171 197
2 7 1001 -162.7500 -59.7000 0 1166 -141.5700 -7.4700
-3.3401172432e-01 -1.8493456286e-01 -2.5931110615e+00
194 209 199
3 7 1008 -82.2500 -51.9300 0 1172 -60.6300 0.6100 1 1198 -87.4400 4.2900
7.8044001019e-01 -4.0097969085e-02 -3.0634997355e+00
74 74 59
2 7 1024 156.4100 -16.0200 1 924 185.3200 2.2000
4.4030827838e-01 2.2607076895e-03 -2.9780175489e+00
62 106 15
2 7 1031 89.2500 -7.9400 1 929 108.9100 17.9300
8.9205699766e-01 2.4029658855e-02 -3.0116912494e+00
213 218 213
6 7 1033 181.1300 -2.3600 0 906 177.9400 35.6400 1 930 211.5000 18.7900 2 857 203.3800 -22.2100 9 689 220.0700 57.7700 10 627 296.8400 87.4600
7.6207810559e-01 1.0690568981e-01 -2.9561245229e+00
93 91 80
4 7 1040 155.9500 14.8300 0 915 153.5000 52.7900 9 691 182.0400 74.0000 10 644 261.7600 106.5000
9.2787897881e-01 1.9351404814e-01 -2.9969768389e+00
178 173 176
2 7 1047 188.6600 32.7200 1 939 219.5800 55.8400
5.7379904354e-01 3.0286813390e-01 -2.8108035505e+00
138 155 138
2 7 1058 120.6400 58.5000 1 1236 140.4900 95.1300
5.9342306361e-01 3.3814734426e-01 -2.7810308972e+00
210 224 216
3 7 1061 125.9200 66.8000 1 1242 145.2300 105.6900 10 1102 210.6200 167.7500
5.8180908255e-01 3.4804359340e-01 -2.7810550720e+00
162 179 161
5 7 1064 123.2600 69.0800 0 937 118.0200 109.3000 1 945 142.5800 107.5000 2 1192 144.1300 72.6400 10 866 207.4900 168.5500
-7.5058451326e-01 3.7136998543e-01 -2.5691063294e+00
84 71 71
2 7 1069 -179.0800 75.4700 0 1213 -166.3400 111.9000
-6.6768074241e-01 4.1527578299e-01 -2.5118447856e+00
140 120 117
3 7 1078 -164.0500 88.1600 0 1227 -149.6500 128.4300 5 866 -99.8500 151.6000
5.6521238687e-01 4.8433106649e-01 -2.6864449005e+00
129 146 128
6 7 1089 121.7500 102.3800 0 1234 113.6500 143.3200 1 959 138.9700 146.4800 9 896 110.2200 167.3100 5 872 148.0300 176.6200 10 880 197.3700 204.6500
5.7523735114e-01 4.8928229287e-01 -2.6729546532e+00
192 209 199
2 7 1090 124.5200 103.9900 1 1283 141.4900 148.7600
1.0672897546e-01 -5.7002234298e-01 -2.7174310231e+00
91 25 8
4 8 1016 42.8800 -139.4800 0 639 51.5400 -83.3600 1 629 18.4200 -99.4100 5 753 138.7500 -66.8200
-1.4602577100e-03 -4.8021805712e-01 -2.6488983340e+00
214 215 216
5 8 1043 19.0600 -127.4300 0 1123 25.3700 -62.3300 1 871 -9.8100 -73.3300 2 1088 -34.7100 -61.8900 10 568 77.6300 26.1800
-1.5724339790e-01 -4.4490314792e-01 -2.6163905983e+00
185 150 131
4 0 18 -12.7800 -56.1200 1 21 -47.8300 -61.4400 2 37 -59.7100 -47.3300 9 22 -78.1400 -29.4800
-3.2400002104e-01 3.0523167825e-01 -2.6354995456e+00
233 238 241
3 0 22 -68.5800 99.8100 1 31 -70.2400 111.0200 2 45 -33.5400 96.4500
-3.2504119188e-01 3.0954740687e-01 -2.6449416523e+00
233 238 241
2 0 23 -68.5800 99.8100 1 32 -70.2400 111.0200
5.1047982872e-02 -8.4126956057e-01 -2.6490760282e+00
100 76 20
2 0 28 49.7400 -146.2000 1 18 -3.1100 -167.0900
3.8882146394e-01 2.3291686534e-01 -2.6650229100e+00
101 4 0
2 0 63 87.3500 96.3700 1 50 95.7500 92.8100
-1.0893214549e-01 3.7408529721e-01 -2.6844334236e+00
107 95 79
2 0 64 -22.9900 112.1100 1 75 -18.5200 121.6000
-4.2340564801e-01 -4.6428713330e-01 -2.6333239029e+00
43 41 40
2 0 77 -75.3800 -68.2100 1 88 -112.3700 -64.2200
-5.5751961003e-01 -2.1933334549e-01 -2.5436362928e+00
18 20 17
2 0 82 -113.9300 -9.2600 1 126 -144.4200 1.1700
-1.0460194112e-01 4.7639643412e-01 -2.6692870453e+00
180 185 180
2 0 93 -24.4900 133.5000 1 104 -16.3900 144.0300
-4.2648991365e-01 -9.4665711993e-01 -2.5329407989e+00
31 38 40
2 0 101 -65.4300 -184.7400 1 109 -135.0600 -185.3300
-1.8925416963e-01 4.3803335191e-01 -2.6380219084e+00
188 191 182
4 0 128 -41.4000 127.2700 1 142 -36.6300 138.1000 5 103 4.7500 156.1600 10 135 21.7300 178.8700
-4.0344157207e-01 -5.7431629512e-01 -2.6833882559e+00
41 35 32
4 0 149 -67.2000 -95.8300 1 166 -105.8300 -93.1400 9 150 -131.7800 -83.6500 10 119 -35.5600 -15.9700
-4.6349697534e-01 -2.7911483385e-01 -2.5550499181e+00
78 91 73
3 0 159 -89.6800 -20.7800 1 181 -123.3300 -14.8100 5 125 2.0000 -17.2700
-1.4676102824e-01 -2.6175841699e-01 -2.5361455406e+00
190 117 74
2 0 164 -13.8300 -8.0600 1 182 -47.7400 -11.5500
-1.4676102824e-01 -2.6175841699e-01 -2.5361455406e+00
190 117 74
2 0 165 -13.8300 -8.0600 1 183 -47.7400 -11.5500
-1.4555829837e-01 3.1642686675e-01 -2.7397635874e+00
230 240 240
2 0 182 -29.8900 95.4400 1 136 -25.0800 103.7400
-1.0244765592e-02 -7.9303167925e-01 -2.6210125921e+00
232 234 77
2 0 210 34.0600 -135.2300 1 161 -19.3300 -152.9900
-3.5823999543e-01 -5.2544616855e-01 -2.6859314033e+00
27 20 17
3 0 219 -57.4300 -83.7100 1 325 -95.0200 -82.2500 5 339 35.8100 -82.2000
-5.8525779500e-01 -1.7436053979e-01 -2.5404389089e+00
101 173 193
2 0 229 -121.6900 1.3800 1 248 -149.6000 11.3700
2.4549395501e-01 1.0518726370e-01 -2.7022799877e+00
32 58 20
2 0 240 60.3500 64.2000 1 254 60.5700 61.9500
-1.1355729563e-02 -9.2276854842e-01 -2.5586474532e+00
176 137 71
2 0 283 39.9900 -165.9000 1 212 -25.5900 -187.5200
-1.1355729563e-02 -9.2276854842e-01 -2.5586474532e+00
176 137 71
2 0 284 39.9900 -165.9000 1 213 -25.5900 -187.5200
9.4342609399e-01 -5.1613671619e-01 -3.2041611095e+00
112 104 97
2 0 299 197.1900 -74.5500 1 232 219.4700 -109.5300
-3.9445523149e-01 -1.9774021361e-01 -2.5689181510e+00
89 100 87
3 0 323 -74.8900 -1.6400 1 350 -103.6700 3.2100 2 431 -87.3700 13.4700
-3.8143155839e-01 -1.1561882401e-01 -2.6251668224e+00
175 188 202
2 0 327 -73.0600 12.5000 1 358 -94.3500 18.3300
-6.0670042912e-01 1.3689253026e-02 -2.4736707067e+00
200 207 174
2 0 332 -131.4800 48.9600 1 369 -154.8800 60.4500
-4.4987854025e-01 3.1587317554e-01 -2.8815498694e+00
94 183 215
2 0 339 -93.2500 77.2400 1 377 -82.1300 90.1800
2.6676537322e-01 1.7625086304e-01 -2.7055489096e+00
89 0 0
3 0 340 62.1900 78.5300 1 256 66.6900 77.1400 2 255 66.2800 54.5000
-5.6138726733e-01 1.6907857573e-01 -2.5135615001e+00
228 233 239
4 0 342 -122.1300 81.0800 1 528 -136.2700 91.5200 2 1200 -91.9900 86.6700 5 134 -54.9100 96.4500
-1.6516368522e-01 2.9916241390e-01 -2.7975234243e+00
230 130 162
2 0 345 -33.9700 86.6900 1 383 -26.9300 94.6200
4.6479168625e-01 -1.0173674655e+00 -2.5530242484e+00
144 147 135
3 0 401 162.0200 -174.8200 1 285 103.6700 -223.7500 2 353 1.1100 -204.5400
1.8578022757e-01 -9.6563536403e-01 -2.5386880516e+00
40 48 46
2 0 404 91.9200 -170.4400 1 421 25.8000 -203.1400
5.1276832014e-01 -9.9329170023e-01 -2.5803926134e+00
148 151 140
3 0 408 170.3200 -166.8500 1 208 117.6400 -217.4800 2 201 16.1600 -204.2600
-5.9909076802e-02 -9.1970851641e-01 -2.5630682804e+00
58 65 66
2 0 409 27.5900 -166.8800 1 300 -38.0800 -185.6100
1.0499397098e-01 -8.9746636134e-01 -2.5867436023e+00
44 57 57
2 0 417 67.1300 -156.7800 1 302 7.1400 -182.6600
-2.5716071328e-02 -8.5906305166e-01 -2.6320853984e+00
100 111 99
2 0 421 32.4200 -152.8900 1 439 -24.1000 -169.8000
-4.4634163278e-01 -5.2687589254e-01 -2.6529859628e+00
44 39 37
3 0 439 -79.4000 -84.3000 1 327 -117.6600 -79.6800 5 338 18.1300 -87.3700
-5.8676422790e-01 -3.4625475363e-01 -2.6059962982e+00
180 174 131
4 0 456 -117.3500 -42.7700 1 479 -149.0200 -33.2300 2 869 -123.2600 -10.2400 9 485 -173.1900 -31.9100
-6.0327839851e-01 -2.2015815210e-01 -2.5563132149e+00
204 110 127
4 0 472 -124.7000 -10.5100 1 498 -153.6200 -0.6700 2 655 -122.0000 16.3800 5 362 -38.7900 -9.3300
-4.6619280085e-01 -1.2072128028e-01 -2.5833063975e+00
180 82 112
3 0 482 -93.2900 12.8700 1 504 -117.1900 20.4700 2 660 -91.0100 28.5000
-3.3008209591e-01 -1.0359618024e-01 -2.6423455256e+00
189 183 196
2 0 484 -61.2800 14.7800 1 359 -81.0700 19.8200
-3.5794562372e-01 -9.0995437135e-02 -2.6256327922e+00
200 100 129
2 0 485 -68.0900 18.2400 1 361 -88.3300 23.9900
-3.9270171559e-01 3.3365640952e-01 -2.9109180791e+00
225 123 157
2 0 517 -81.5100 79.1900 1 378 -68.3300 91.1900
-6.1458641272e-01 2.5798637190e-01 -2.4956990274e+00
158 167 159
2 0 524 -136.0900 99.3900 1 719 -147.0800 113.1100
-1.5354471016e-01 4.6597608088e-01 -2.6785905700e+00
190 200 196
3 0 531 -34.4600 129.7900 1 542 -27.4600 141.1800 2 488 9.1500 116.5600
2.1185252233e-01 5.3907766272e-01 -2.6715662827e+00
170 180 173
2 0 536 40.4800 148.5400 1 200 56.3300 159.2800
1.7838102193e-01 5.3365952334e-01 -2.6023962747e+00
146 152 142
2 0 538 35.0300 155.9900 1 390 46.9600 164.6500
-4.4766111610e-01 -1.0322765294e+00 -2.4659390606e+00
107 127 125
2 0 566 -69.4000 -207.6200 1 575 -149.6300 -208.5800
5.9010756374e-01 -7.9997567377e-01 -2.7712134280e+00
145 145 136
3 0 628 166.7000 -125.5500 1 601 139.6400 -165.7700 5 743 243.2000 -93.1500
-4.3863134373e-01 -6.0659626967e-01 -2.6801176819e+00
50 69 45
5 0 633 -75.3400 -104.1400 1 627 -115.7200 -100.8300 2 803 -111.9600 -69.8100 5 523 23.7900 -108.4300 10 402 -45.1900 -24.0100
-1.4864496136e-01 -1.5762319007e-01 -2.6764372546e+00
198 199 183
2 0 688 -18.5000 4.5800 1 692 -37.9300 4.1700
3.9267175937e-01 2.0745995742e-01 -2.7364111554e+00
119 17 13
2 0 705 86.5500 83.9000 1 519 97.1300 81.4000
2.5921502600e-01 -1.0634952029e+00 -2.4497040978e+00
154 170 169
2 0 763 119.4400 -191.7800 1 746 41.7300 -234.4900
-1.0047333645e-01 -8.2948925367e-01 -2.6598164339e+00
41 33 3
2 0 810 12.4700 -148.2000 1 809 -40.8000 -161.4200
2.1059428567e-02 -7.9023616108e-01 -2.6402401914e+00
62 65 22
3 0 819 40.9400 -134.1000 1 610 -10.2200 -153.0200 2 774 -55.6100 -127.2400
2.4882560221e-02 -5.6977922282e-01 -2.6847545435e+00
166 120 115
3 0 834 33.3600 -83.9800 1 851 -3.3100 -97.4400 9 783 -22.3300 -59.7600
2.9911906301e-02 -5.6803657644e-01 -2.6889729761e+00
166 120 115
4 0 835 33.3600 -83.9800 1 852 -3.3100 -97.4400 5 751 127.9300 -68.0500 3 1084 -54.8400 -60.7800
-1.1543879001e-01 -3.9069486989e-01 -2.5827933267e+00
218 220 217
3 0 872 -3.2100 -40.2100 1 903 -39.9200 -46.7200 2 1120 -54.8800 -34.1600
-4.2385198068e-01 -2.2597363517e-01 -2.2908317000e+00
139 197 199
2 0 899 -84.5500 13.1600 1 696 -135.8200 17.2500
-5.8061229348e-01 2.8208079154e-01 -2.4774635674e+00
230 229 234
2 0 936 -128.8800 106.8700 1 1254 -140.3700 120.5600
-6.0600005415e-01 -7.2781992768e-01 -2.7243928785e+00
201 77 116
2 0 1058 -112.6000 -139.1100 1 834 -153.4900 -129.1800
6.9327776323e-02 -7.9315984473e-01 -2.6360716073e+00
217 235 127
2 0 1064 52.8600 -133.4300 1 811 1.8800 -154.5600
-3.8784069066e-01 -6.6175121216e-01 -2.7175418963e+00
86 125 78
5 0 1074 -61.9300 -117.5700 1 841 -102.5100 -115.8700 9 597 -126.7300 -107.9200 10 537 -29.1200 -41.6700 3 1094 -105.4600 -48.7300
9.0018415315e-01 -6.9607291842e-01 -2.6367440294e+00
105 136 60
2 0 1094 240.1100 -87.3200 1 1098 227.1300 -139.9700
5.9208890272e-03 -5.4315212244e-01 -2.7740220449e+00
23 19 15
3 0 1110 27.3600 -82.2300 1 860 -5.6800 -94.6900 2 1063 -23.3300 -82.5700
-9.8322616090e-04 -4.8100069162e-01 -2.6470819929e+00
215 218 215
3 0 1122 25.3700 -62.3300 1 870 -9.8100 -73.3300 9 616 -32.0200 -34.2900
1.4044135355e-02 -3.8186171466e-01 -2.6198153939e+00
54 54 56
4 0 1141 26.2700 -37.0200 1 1152 -5.4500 -47.8500 9 1018 -29.4800 -6.9200 10 1042 79.4700 53.0800
1.4164436734e-02 -3.8163332579e-01 -2.6202332389e+00
54 54 56
3 0 1142 26.2700 -37.0200 1 1153 -5.4500 -47.8500 10 1043 79.4700 53.0800
-1.2716638974e-01 -3.6886220346e-01 -2.5716390105e+00
211 214 213
5 0 1144 -6.4700 -34.6800 1 1156 -43.4400 -40.5800 2 1127 -55.5200 -28.4100 9 1020 -71.5000 -4.6300 5 1059 88.7900 -21.9300
-3.2812889353e-02 -3.5501279548e-01 -2.5956490048e+00
218 204 203
5 0 1147 15.0200 -30.8600 1 907 -17.9300 -39.1400 2 1123 -36.5800 -31.2200 9 1026 -43.5100 0.2100 3 1139 -56.7100 -3.4300
2.0882525307e-02 -3.3622703619e-01 -2.6070261180e+00
126 18 9
2 0 1154 26.9700 -26.1000 1 1161 -3.6900 -35.4400
8.7010573731e-01 4.2802488436e-02 -2.9942906050e+00
213 211 202
2 0 1187 174.2500 40.0000 1 932 206.9600 24.1300
8.3539261389e-01 4.7321910010e-02 -2.9560189596e+00
209 212 207
2 0 1189 169.7300 43.1100 1 1215 199.7600 27.8500
-4.0354373047e-01 -3.7704749391e-01 -2.6263347203e+00
88 174 118
2 7 104 -96.3900 -95.5000 2 118 -95.8300 -24.3300
-8.1754061103e-02 -4.7769663104e-01 -2.6270568812e+00
210 214 208
2 7 130 -22.6800 -118.7900 2 167 -50.6300 -56.1700
-2.4472215064e+00 2.8997668955e+00 -8.1488877307e+00
69 45 43
2 7 159 -185.6000 214.0600 0 337 -236.2700 69.7300
-4.8440493823e-01 7.2285885297e-02 -2.5966507641e+00
222 80 135
2 7 295 -118.8500 3.9500 2 459 -75.3000 65.4300
3.1377662098e-01 -5.4229767604e-02 -2.9502421790e+00
99 147 71
3 7 386 62.9400 -19.9200 9 361 76.6000 20.0000 10 298 158.8400 65.5600
-4.3813424793e-01 -6.0538890708e-01 -2.6792568291e+00
28 59 35
2 7 482 -101.6000 -145.9500 9 465 -141.9700 -91.6500
-4.7666765154e-02 -3.8508262882e-01 -2.6019333391e+00
201 204 193
4 7 508 -15.0400 -98.0500 2 629 -40.7600 -37.2800 9 503 -47.4000 -8.5600 3 826 -60.5800 -8.6000
4.3947583387e-02 -4.3727320819e-01 -2.6462847953e+00
204 210 203
2 7 686 6.3900 -108.5800 2 815 -23.6500 -54.8800
8.0296810921e-01 -1.0786502930e-02 -3.0228453825e+00
192 193 187
2 7 747 162.5500 -10.0200 2 852 183.0600 -26.8200
7.6992513443e-03 -5.7182186230e-01 -2.6816072604e+00
186 146 143
2 7 898 -1.2700 -138.0600 2 1060 -36.4100 -83.2000
-1.3229417401e-01 -3.5793032443e-01 -2.5667039486e+00
37 35 33
3 7 965 -35.7500 -92.4700 9 1022 -72.4800 -1.8700 10 814 35.1000 62.8500
-1.3280833251e-01 -3.5807339340e-01 -2.5683173541e+00
37 35 33
2 7 966 -35.7500 -92.4700 9 1023 -72.4800 -1.8700
8.3814390898e-02 -2.8585020986e-01 -2.6109034661e+00
249 41 38
2 7 990 15.1600 -74.3000 9 1051 -10.8300 19.2000
-5.9501364754e-01 -2.8742279641e-01 -2.5816281581e+00
180 88 109
2 8 351 -115.4800 -82.3500 9 495 -175.3200 -16.3700
7.0538143686e-02 -3.2783633352e-01 -2.6255035313e+00
241 44 32
2 8 498 37.7800 -102.0500 9 511 -13.2700 7.0700
-6.0797575479e-01 -8.7740484050e-02 -2.5135774739e+00
155 155 162
2 8 1153 -123.0500 -47.0500 9 1064 -176.8700 31.4900
-1.2795735004e-01 -6.3064289993e-01 -2.6418194857e+00
212 186 39
2 0 147 -0.5500 -100.9700 9 152 -69.6900 -75.3700
-1.0917055134e-01 -2.9893380482e-01 -2.5566359703e+00
216 220 216
3 0 161 -4.1800 -17.1200 9 164 -66.3500 13.9900 10 123 41.0300 77.3100
-4.2100416181e-01 2.6076423841e-01 -2.6788447816e+00
235 237 241
2 0 245 -88.5100 84.7800 2 260 -47.1300 86.6400
-1.4994304114e-01 -3.7245768699e-01 -2.5677433532e+00
210 210 206
3 0 314 -11.8600 -35.7600 9 245 -77.4800 -5.5800 10 189 30.3800 58.2600
-5.0054175122e-01 -3.0448505895e-01 -2.5653691904e+00
102 126 101
2 0 315 -98.2500 -28.2500 9 499 -157.8200 -12.0600
-5.7448426174e-01 -4.5821982761e-01 -2.6447641524e+00
119 170 165
2 0 445 -111.7800 -70.8500 2 630 -124.9500 -34.4200
-6.8144516985e-02 -3.7709095481e-01 -2.5950891577e+00
32 30 30
3 0 457 7.6500 -36.8500 2 410 -44.4900 -34.3800 5 357 99.6300 -22.3200
-2.2707663233e-01 2.3980079427e-01 -2.6750652209e+00
94 198 223
2 0 521 -45.5600 85.1400 2 467 -18.4400 79.4900
1.1471036489e-01 -1.1687578242e+00 -2.4169330812e+00
52 21 8
2 0 550 87.2400 -227.1000 9 428 -45.4600 -185.3200
-7.9816714504e-02 -3.3592090505e-01 -2.5763243163e+00
213 214 213
4 0 676 3.9100 -26.1800 2 856 -45.3400 -24.1900 9 663 -57.5900 4.5800 3 845 -63.4000 5.4600
-3.5695151271e-01 -6.8065494492e-01 -2.7379082909e+00
113 137 121
2 0 822 -53.9300 -121.9900 9 595 -117.3500 -114.2600
-6.3028218797e-01 -6.2304000076e-01 -2.6800041031e+00
159 34 65
3 0 824 -121.3800 -112.7700 2 1084 -141.0600 -65.0300 5 513 -22.6400 -126.4800
-9.4035748734e-02 -4.6501590496e-01 -2.6144896336e+00
13 14 10
4 0 847 3.6200 -58.9000 2 1105 -53.4500 -52.4000 5 1025 99.2100 -46.7700 3 1111 -72.2600 -23.6500
7.1499377293e-02 -4.3022243596e-01 -2.6535406447e+00
221 223 221
3 0 861 40.7300 -49.0600 2 814 -17.2500 -55.1800 9 640 -11.5500 -19.8800
-3.9756641028e-01 -2.5419005978e-02 -2.5877328574e+00
186 189 198
2 0 905 -78.8000 35.0200 9 852 -119.9900 42.6600
3.6936791201e-01 9.0844764908e-01 -2.6799750152e+00
61 30 20
2 0 963 60.5400 214.6600 2 340 129.8800 189.9300
-5.0979510313e-02 -5.8114412599e-01 -2.6675083123e+00
159 118 119
2 0 1097 16.4000 -87.6300 2 1066 -48.8500 -81.4500
4.6056857697e-02 -3.3177084055e-01 -2.6142308662e+00
87 16 8
3 0 1155 32.7000 -24.9400 9 832 -21.2600 6.8800 3 1135 -40.9300 -5.8700
-4.9323794084e-01 -4.4985303738e-01 -2.6344182288e+00
32 35 28
3 1 22 -128.6800 -60.1800 2 58 -111.4800 -36.6200 9 21 -154.8500 -51.8700
3.8312164106e-01 3.8119820001e-01 -2.6931979183e+00
134 210 113
2 1 33 95.6200 123.7700 2 21 100.7400 91.2200
1.9092109624e-01 -9.0989874939e-01 -2.5854843960e+00
18 61 38
2 1 154 29.8100 -188.2400 2 210 -40.3200 -160.1800
7.3283672721e-02 -3.8088183919e-01 -2.6388266359e+00
145 149 149
2 1 175 10.0500 -48.6600 9 158 -11.8000 -6.3700
-4.7595382239e-01 -3.1608896174e-01 -2.5787776811e+00
78 151 107
2 1 178 -124.8000 -25.2500 9 157 -151.2200 -15.2000
5.8901154863e-01 4.3116152978e-01 -2.7449755577e+00
123 127 108
3 1 197 144.6600 129.6600 2 331 148.7300 90.9200 9 192 119.9200 150.6900
2.1794927277e-01 5.8766489871e-01 -2.5608747203e+00
216 226 225
2 1 204 55.8400 181.2500 2 193 72.3600 147.2100
4.7596366239e-01 -9.8994059573e-01 -2.5624505494e+00
43 26 18
2 1 209 107.0700 -216.1100 2 204 7.0400 -198.5900
-4.0864423958e-01 -7.1968762177e-01 -2.7223589561e+00
70 148 99
2 1 225 -108.3100 -129.9500 2 298 -110.7000 -95.3700
-3.5805848715e-01 -7.0485419462e-01 -2.7362353008e+00
80 157 107
2 1 226 -95.1200 -127.3000 2 226 -100.2700 -95.7500
-2.1667747971e-01 3.1313029781e-01 -2.6591478865e+00
162 163 147
2 1 260 -45.0800 110.9700 2 262 -13.3600 93.2000
-2.1667747971e-01 3.1313029781e-01 -2.6591478865e+00
162 163 147
2 1 261 -45.0800 110.9700 2 263 -13.3600 93.2000
5.9117865783e-01 4.2809202119e-01 -2.7448181774e+00
119 124 105
2 1 264 145.1800 128.6700 2 332 148.7300 90.9200
-5.5484270283e-01 -1.0240504720e+00 -2.4762495471e+00
69 96 81
2 1 289 -175.5000 -204.6600 2 382 -189.3100 -134.8100
9.8918275523e-02 -4.8533995578e-01 -2.6787340882e+00
24 18 19
2 1 330 16.1100 -76.8400 9 333 -1.7700 -34.8100
-5.7744606017e-01 -4.5963508981e-01 -2.6523161210e+00
110 168 163
3 1 337 -145.9300 -62.5900 9 331 -170.6700 -61.7700 10 280 -81.7300 8.2100
4.6949785658e-01 1.1249750710e-01 -2.9997964266e+00
18 39 15
2 1 367 116.0700 39.5200 2 320 122.3900 10.4700
-4.4877516664e-01 5.6628173314e-02 -2.5353660643e+00
190 214 164
2 1 371 -111.9700 65.0200 9 379 -133.9800 62.5400
-5.0108369373e-01 1.3533928823e-01 -2.4985473771e+00
212 100 139
2 1 376 -124.5100 86.1700 9 387 -146.2400 78.3800
5.6428924739e-01 2.9595459658e-01 -2.8263784542e+00
159 181 161
2 1 380 138.1700 92.2500 9 405 122.2100 114.4700
1.9827743679e-01 -1.0031813029e+00 -2.4861868045e+00
69 87 105
2 1 416 26.6600 -214.3300 2 538 -59.4300 -178.5500
-2.7701849478e-01 -8.9567792054e-01 -2.5818071842e+00
59 88 79
2 1 438 -91.9400 -175.1600 2 576 -121.2400 -129.3000
8.1118406441e-01 -9.4616438468e-02 -3.0731014878e+00
120 121 107
2 1 490 191.7600 -10.3500 9 363 207.1000 21.5200
8.1016105502e-01 -9.5905129900e-02 -3.0705289204e+00
120 121 107
2 1 491 191.7600 -10.3500 2 615 181.9900 -48.1800
8.3698777006e-01 -3.8902523796e-02 -3.0426374451e+00
203 207 200
2 1 501 198.2100 3.3600 9 369 210.0800 38.2600
6.1441823700e-01 3.8993474454e-01 -2.7489976936e+00
163 171 161
2 1 534 150.5700 119.4800 2 893 151.5600 83.3400
-3.8124238087e-02 -5.9286742976e-01 -2.6704783628e+00
25 23 23
3 1 626 -20.0000 -101.9600 2 799 -47.1700 -84.6000 3 775 -69.9100 -58.3700
7.3680150313e-02 -4.6852705170e-01 -2.6678746237e+00
212 214 209
3 1 641 10.1900 -71.9000 9 621 -9.8100 -30.5800 10 569 99.8300 27.6500
8.5977965564e-03 -5.7217964646e-01 -2.6802502493e+00
185 146 146
2 1 853 -7.5600 -97.6600 2 1061 -36.4100 -83.2000
-3.0530484485e-03 -4.4014443260e-01 -2.6349827139e+00
218 222 219
3 1 886 -10.1400 -62.6200 2 1104 -33.5500 -52.4700 10 583 76.0000 37.0900
5.2193076774e-02 -8.7818930761e-01 -2.5863627950e+00
39 80 64
2 1 1053 -6.5000 -176.5300 2 1007 -63.3900 -144.9200
-3.6461936658e-01 -6.6735449809e-01 -2.7298316670e+00
38 59 40
2 1 1115 -96.3200 -118.0400 9 763 -119.7600 -110.2400
-1.0650518541e-01 -5.8680679782e-01 -2.6549797928e+00
150 127 123
3 1 1121 -37.5600 -99.1400 9 775 -61.5000 -66.1800 10 777 48.3200 -3.2200
1.0776821989e-01 -5.5692052447e-01 -2.7115182701e+00
67 6 0
3 1 1122 18.6000 -96.0500 9 787 3.3500 -56.5500 10 785 113.4800 1.3500
-8.8604662383e-02 -4.7456729809e-01 -2.6198169947e+00
202 208 204
3 1 1132 -32.8700 -69.7200 9 992 -58.1200 -33.4800 10 1030 50.9100 29.3500
-8.8533740718e-02 -4.7460935655e-01 -2.6197023556e+00
202 208 204
2 1 1133 -32.8700 -69.7200 9 993 -58.1200 -33.4800
8.8736126802e-02 -4.4706448154e-01 -2.6647791135e+00
209 211 211
2 1 1136 13.8200 -66.5300 9 1004 -5.7100 -24.4500
-6.6194702075e-02 -4.6152599479e-01 -2.6201240566e+00
8 11 15
3 1 1137 -27.1000 -66.6200 9 998 -51.9300 -29.5900 10 1031 57.3700 33.2500
-2.4798603954e-02 -4.3218386801e-01 -2.6230230533e+00
24 26 33
2 1 1144 -15.9500 -59.8100 9 1007 -40.2200 -20.8300
8.3256016002e-02 -4.1596819569e-01 -2.6527529588e+00
20 15 19
2 1 1147 12.5600 -58.1500 9 1011 -8.1500 -15.8400
-4.5709213381e-02 -4.1555823191e-01 -2.6117110042e+00
210 213 206
3 1 1148 -21.4300 -54.9100 9 1010 -46.6300 -16.4300 10 1037 62.3700 45.1600
-1.1538750658e-01 -3.4137841906e-01 -2.5661145067e+00
26 26 27
2 1 1162 -39.8900 -33.4600 9 1028 -67.8200 3.1400
-2.3230876934e-03 -3.0871531765e-01 -2.5921934334e+00
47 49 53
3 1 1164 -9.6500 -27.5800 9 1042 -35.4800 12.6200 10 1056 72.6500 72.4100
-1.1315340980e-01 -2.5816166625e-01 -2.5404056434e+00
166 106 64
2 1 1184 -38.9900 -11.1900 9 1058 -68.0800 24.8800
3.5625186673e-01 -2.0918057526e-01 -2.5231356091e+00
143 211 115
2 1 1193 81.7700 -0.4400 2 1139 40.3500 -9.6800
8.3671869771e-01 2.5648552295e-02 -2.9936910002e+00
197 196 188
2 1 1212 199.2900 20.4400 2 1133 190.6800 -18.5200
7.2792316338e-01 1.3594840546e-01 -2.9607046706e+00
178 179 174
2 1 1219 174.4800 46.8300 9 1091 172.8900 75.8700
7.7743215526e-01 1.5368071391e-01 -2.9397089437e+00
174 180 170
2 1 1220 186.0400 52.0700 9 1104 183.5000 85.5200
6.6784659437e-01 1.1993098899e-01 -2.7993390762e+00
201 213 209
2 1 1223 162.6300 56.0500 9 1119 149.9700 97.9900
6.4808729132e-01 3.3008047956e-01 -2.7644276561e+00
171 178 167
2 1 1241 158.1500 105.3000 9 888 137.7300 136.3000
-6.0872814702e-01 -3.6003835134e-01 -2.5992138632e+00
202 62 107
2 2 424 -128.1900 -11.8200 9 335 -179.5400 -34.5200
-6.5809467829e-01 -1.9120124431e-01 -2.5223275832e+00
125 178 182
2 2 442 -131.7700 26.1700 9 356 -191.6500 8.0600
8.0189849369e-01 3.9839756664e-01 -2.8697275860e+00
128 105 98
2 2 462 198.5800 68.1800 9 413 177.2200 136.9600
-7.0750003023e-02 -1.0752833806e+00 -2.3927619061e+00
11 11 10
2 2 544 -128.4600 -171.9500 9 287 -109.6900 -158.8400
-5.3647114616e-01 -9.6915529547e-01 -2.4559377202e+00
29 29 31
2 2 781 -184.7700 -123.8700 9 574 -226.5800 -157.3700
8.0042226572e-02 -3.4995421017e-01 -2.6309589764e+00
49 16 12
2 2 1117 -12.2900 -37.4000 9 825 -10.4000 2.0500
3.8294401918e+00 4.0833983626e+00 -1.5777012588e+01
14 14 14
2 7 84 184.2700 161.3100 10 892 304.4700 -182.0600
-5.8985438430e-01 2.9594428178e+00 -8.1119672282e+00
90 57 58
2 7 221 -37.3900 224.1300 5 136 -233.7000 103.0700
-6.6142524592e-01 1.2974536425e-03 -2.4593282999e+00
176 203 153
3 7 287 -165.8000 -7.9800 5 255 -64.6300 54.8100 3 652 -108.7900 109.4200
6.1691617948e-01 -7.6789503638e-01 -2.7146106543e+00
82 118 41
2 7 345 138.9500 -179.6700 10 178 284.9800 -31.4900
-8.7038951321e-02 -2.7479174202e-02 -2.7363117146e+00
75 201 237
2 7 388 -23.6000 -14.4400 5 570 54.0700 46.1000
1.0057710891e-01 -4.7934202194e-01 -2.6808019854e+00
50 6 7
2 7 491 19.5200 -117.0300 10 414 108.5800 24.0300
-3.0121710982e-02 -3.2963075718e-01 -2.5861160057e+00
206 214 208
2 7 721 -11.4400 -85.2500 10 620 64.5900 68.5600
3.9701795483e-01 5.9571540982e-01 -2.6442463716e+00
144 146 135
2 7 785 83.8000 128.8700 5 877 113.0500 199.4200
2.4272704434e-01 -7.4926589684e-01 -2.7052595638e+00
19 19 15
2 0 73 89.6300 -119.9400 5 55 182.9400 -100.8600
-4.8130659985e-01 -3.1858891121e-01 -2.5714589366e+00
88 140 103
3 0 115 -92.9100 -31.6000 5 124 -0.1700 -28.6200 10 85 -60.4200 54.6300
2.5895196890e-01 -8.1692070268e-01 -2.6602703420e+00
242 253 117
2 0 143 97.9000 -134.7900 5 83 197.9700 -113.1100
-3.8247740781e-01 3.9533294074e-01 -2.6158067956e+00
182 180 172
2 0 184 -83.1000 119.9200 5 139 -34.1300 141.7100
3.1619525150e-01 -8.9930174911e-01 -2.6014296142e+00
8 13 9
2 0 205 117.8200 -151.3400 5 116 225.0400 -126.8900
-4.5275079901e-01 -3.7823372561e-01 -2.6036701278e+00
59 58 53
2 0 222 -84.7600 -47.3400 5 156 8.6700 -45.1900
-2.7144446371e-01 5.0049050108e-01 -2.6074079665e+00
188 193 187
2 0 256 -60.8100 142.0300 5 183 -15.4500 169.8200
3.0050384407e-01 -1.1853620975e+00 -2.4893563095e+00
17 16 13
2 0 372 133.3800 -224.1300 5 455 266.7200 -198.4100
7.8402732034e-03 -4.2304950476e-01 -2.6306523014e+00
35 31 28
2 0 452 26.1200 -47.5600 5 352 116.2200 -32.1200
-7.8350909804e-02 1.4897971162e-01 -2.6778877981e+00
211 229 194
2 0 515 -10.7600 69.7100 5 590 47.4400 91.4100
-5.5250793896e-01 1.6270608057e-01 -2.5662058678e+00
103 178 205
2 0 516 -118.5300 74.1000 5 841 -55.4400 88.0600
-7.4928293285e-01 2.0263966848e-01 -2.5355626651e+00
149 145 136
2 0 518 -165.6700 80.5700 5 265 -107.6900 93.9400
7.8612584041e-02 6.5280700219e-01 -2.6541700876e+00
144 144 138
2 0 541 9.7500 170.8300 5 431 45.3400 202.8000
-5.8698407720e-01 1.6350391725e-01 -2.5217936073e+00
59 48 41
2 0 704 -127.5900 78.6100 5 589 -61.5100 91.3700
-6.1052482137e-01 2.7045024754e-01 -2.5237175022e+00
159 167 161
2 0 708 -134.5200 98.7300 5 409 -75.5500 117.6300
-2.2693960713e-01 3.7427955588e-01 -2.6461821529e+00
90 82 74
2 0 710 -48.5600 114.2400 10 457 14.5500 166.5800
-2.4622083863e-01 4.4858039356e-01 -2.6279234112e+00
88 76 64
2 0 717 -54.2200 129.7300 5 610 -7.5200 157.3000
-6.4898226094e-01 -8.9193177784e-01 -2.8815729156e+00
61 62 65
2 0 770 -116.3400 -183.2400 10 473 -93.3300 -131.5900
-3.8147325768e-01 -8.9696609648e-01 -2.5935162400e+00
45 86 68
2 0 791 -54.9600 -171.6400 5 685 71.2000 -178.6900
-3.5704645036e-01 -6.8024409366e-01 -2.7408853560e+00
113 137 121
2 0 821 -53.9300 -121.9900 5 731 43.7400 -124.4100
-9.0222894180e-03 -4.1743387416e-01 -2.6256442186e+00
216 217 212
2 0 865 22.1000 -46.3600 5 1047 112.6800 -31.3700
-6.6974716343e-01 -1.8686842680e-01 -2.5153015036e+00
150 166 189
3 0 891 -142.7500 -1.3200 5 797 -56.1000 -1.1900 10 830 -109.4900 84.0600
8.0680550261e-01 7.6850289523e-02 -2.9578667307e+00
194 202 189
2 0 912 162.9300 47.9600 10 641 274.2100 102.8700
6.8165775393e-01 2.0224290737e-01 -2.7860180264e+00
216 232 231
2 0 926 143.0400 83.5000 5 849 178.5600 115.4600
6.8165775393e-01 2.0224290737e-01 -2.7860180264e+00
216 232 231
2 0 927 143.0400 83.5000 5 850 178.5600 115.4600
5.8142193205e-01 2.6139621590e-01 -2.8391372077e+00
102 121 87
2 0 928 118.2600 87.9200 10 655 211.4200 145.4500
2.2367532908e-01 3.5044600880e-01 -2.6406168716e+00
97 138 81
2 0 945 49.3800 117.8100 5 606 98.0600 147.8800
2.3835285020e-01 3.8960951310e-01 -2.6359196394e+00
221 244 252
2 0 953 51.3700 126.0000 5 868 98.4500 156.7700
-6.7838236590e-01 -8.4387780270e-01 -2.8377859111e+00
74 68 72
2 0 1023 -125.0400 -171.6200 5 659 -29.0500 -193.6400
-6.4691021139e-01 -8.2698393858e-01 -2.8323911466e+00
117 117 120
2 0 1029 -118.1000 -166.9400 5 919 -22.1500 -186.3700
-1.7449184225e-02 -5.9914782615e-01 -2.6864801397e+00
189 167 77
2 0 1090 24.4500 -91.8900 5 1004 119.0000 -79.4800
8.8206979602e-02 -4.4590461807e-01 -2.6691120410e+00
186 188 183
2 0 1126 44.5300 -53.2200 5 1039 130.7100 -35.6400
-7.6122731857e-01 1.8956290245e-01 -2.5415670117e+00
92 73 66
2 0 1201 -168.1000 77.2000 5 843 -110.2300 89.2600
6.2601442441e-01 2.6714143954e-01 -2.7976569539e+00
145 152 137
2 0 1208 128.8900 93.3600 5 1126 162.8400 125.3700
-2.7330997680e-01 4.4097351820e-01 -2.6332327168e+00
143 140 136
2 0 1225 -59.9400 127.4200 5 1133 -13.4600 154.0600
2.3513832652e-01 4.0702469232e-01 -2.6391676742e+00
61 92 88
2 0 1230 50.0500 129.2400 5 1136 96.1800 159.5200
9.1653632719e-01 5.0848800935e-01 -2.8337436329e+00
26 22 32
2 0 1232 173.4900 137.4400 5 1140 189.8600 172.0200
-6.9085281393e-01 4.1149243192e-01 -2.5188737123e+00
62 42 35
2 1 388 -157.2400 143.3200 10 669 -96.0700 177.2300
-5.8132378394e-01 -7.2342912685e-01 -2.7346910831e+00
96 164 176
2 1 614 -146.8500 -128.4200 5 712 -6.4100 -151.8500
9.1068985410e-02 -1.7390158039e-01 -2.6229055042e+00
33 37 20
2 1 691 17.1300 3.2800 5 372 114.3100 30.7500
-9.8823871473e-02 -6.0165948966e-01 -2.6597507214e+00
25 21 12
2 1 845 -35.8500 -103.0900 10 544 51.0700 -7.0700
-3.7954891921e-02 -3.4379515200e-01 -2.5863919027e+00
46 47 49
2 1 910 -19.4900 -35.4100 5 1064 104.7000 -12.5100
1.0765747289e-01 -5.5718776813e-01 -2.7108564750e+00
67 6 0
2 1 1123 18.6000 -96.0500 10 786 113.4800 1.3500
-7.6628946929e-02 -6.9462811535e-01 -2.6939558455e+00
221 194 41
2 9 6 -51.6500 -96.6800 10 6 60.3500 -35.4600
-1.0378980859e-01 4.7629177285e-01 -2.6660971422e+00
180 183 179
2 9 122 -36.4400 126.4700 10 98 42.9000 181.5200
-6.5239586772e-01 2.2903841566e+00 -3.3977235959e+00
76 37 22
2 9 127 -45.3800 185.6700 10 463 -20.4200 230.9200
-1.5897466236e-01 -1.1882424408e+00 -2.4039674883e+00
143 141 137
2 9 134 -143.1500 -203.6800 10 102 17.5400 -129.9000
6.6907910753e-02 -1.1540469122e+00 -2.4452858739e+00
161 162 149
2 9 135 -57.6900 -187.9700 10 103 109.6400 -117.3300
6.2983515226e-01 3.2007752151e-01 -2.7891938014e+00
216 232 228
2 9 187 134.9100 128.7000 10 218 220.2300 165.3200
-7.7199996611e-02 5.5324738055e-01 -2.6416934349e+00
149 143 135
2 9 190 -31.9100 142.4000 10 138 47.4100 197.6600
1.2078952939e-01 4.7068666782e-01 -2.5890651483e+00
200 211 210
2 9 194 3.7800 153.3800 10 140 91.9000 205.1700
3.0345729969e-01 -1.1639725083e+00 -2.5072779149e+00
114 117 114
2 9 201 37.1800 -190.2800 10 153 207.4300 -123.4200
3.0345729969e-01 -1.1639725083e+00 -2.5072779149e+00
114 117 114
2 9 202 37.1800 -190.2800 10 154 207.4300 -123.4200
-4.5507177277e-01 -7.0137871690e-01 -2.7097016661e+00
98 158 99
2 9 221 -146.3000 -119.5300 10 115 -49.3200 -52.1000
4.9036688130e-01 2.5773150565e-01 -2.8054497058e+00
162 218 125
2 9 261 104.1000 108.0700 10 209 189.6400 147.3400
-7.2140989061e-02 -1.2294253140e+00 -2.4031043215e+00
92 89 85
2 9 272 -116.8500 -214.8100 10 235 52.7300 -141.9400
-2.1612775378e-01 -1.2156867966e+00 -2.3950142201e+00
42 28 28
2 9 273 -165.1200 -214.5600 10 236 -6.0500 -140.1000
-2.4296871424e-01 -1.2155507106e+00 -2.3883404033e+00
42 25 26
2 9 274 -175.0400 -214.4000 10 237 -17.2900 -139.8300
-2.2551395041e-01 -1.2003114085e+00 -2.3882026711e+00
156 153 145
2 9 276 -168.5000 -208.2000 10 238 -10.1900 -133.6600
-2.6807979545e-01 -1.0868518364e+00 -2.4538108434e+00
120 118 113
2 9 278 -160.9500 -181.3800 10 245 -18.6400 -108.5800
-1.3086898892e-01 -1.0907239354e+00 -2.4614448409e+00
129 132 127
2 9 280 -117.6200 -178.3000 10 359 32.4300 -105.8200
5.1803011852e-01 -1.0851136358e+00 -2.5603691734e+00
154 146 140
2 9 285 123.2100 -158.3700 10 247 284.7300 -98.0000
4.1863653762e-01 -1.0793547558e+00 -2.5372713654e+00
177 187 173
2 9 286 83.2500 -158.5300 10 248 246.6600 -95.6900
5.3936861001e-01 -1.0627047335e+00 -2.5627632003e+00
179 189 180
2 9 298 130.9300 -149.9200 10 366 290.6600 -89.9300
-6.0211716307e-01 -2.2380645066e-01 -2.5545677676e+00
206 107 127
2 9 352 -177.2500 -0.0100 10 434 -89.9900 72.1200
3.1530750574e-01 -6.0454692299e-02 -2.9438774530e+00
108 155 76
2 9 362 76.6000 20.0000 10 299 158.8400 65.5600
3.4180771477e-01 -5.2675489008e-02 -2.9459286100e+00
25 53 9
2 9 365 83.0400 22.3600 10 301 165.1900 67.7200
8.4759117231e-01 -2.0889034366e-02 -3.0261165912e+00
125 114 96
2 9 370 211.2000 44.8000 10 307 288.5900 76.0300
8.4759117231e-01 -2.0889034366e-02 -3.0261165912e+00
125 114 96
2 9 371 211.2000 44.8000 10 308 288.5900 76.0300
8.4087925717e-01 5.7849259515e-02 -2.9573633343e+00
191 200 194
2 9 381 203.3900 70.0700 10 317 283.4800 100.9500
5.9979260671e-01 2.9276992800e-01 -2.8068456432e+00
138 148 123
2 9 407 129.4200 119.6000 10 330 214.3400 156.8200
-2.1882330495e-01 4.5015267004e-01 -2.6147429306e+00
196 201 195
2 9 408 -65.0000 123.9200 10 339 14.8600 183.5000
-2.2161590690e-01 5.0430587816e-01 -2.6100717248e+00
151 145 142
2 9 410 -64.6900 131.8200 10 340 14.0500 191.7100
-2.1112820967e-01 -1.0420475952e+00 -2.4435438280e+00
11 10 9
2 9 434 -143.0800 -162.6000 10 362 1.6800 -90.1600
3.9739671211e-01 -1.0843356590e+00 -2.5287942869e+00
184 190 178
2 9 436 74.4800 -160.1600 10 483 238.9000 -96.4300
5.6323787311e-01 -1.0634079898e+00 -2.5637019729e+00
185 192 181
2 9 446 140.0900 -148.5100 10 365 299.6200 -89.5500
5.5024617141e-02 -7.9387261327e-01 -2.6457688356e+00
69 67 28
2 9 460 -22.7800 -108.9900 10 398 101.4900 -46.3300
8.7058209521e-01 5.1527084336e-02 -2.9811753879e+00
96 72 54
2 9 533 212.1000 66.6200 10 440 290.4100 96.6200
8.7058209521e-01 5.1527084336e-02 -2.9811753879e+00
96 72 54
2 9 534 212.1000 66.6200 10 441 290.4100 96.6200
2.3006278027e-01 2.9112105705e-01 -2.6317747925e+00
63 84 40
2 9 546 30.8700 126.8600 10 337 122.9500 176.4100
7.7094768672e-02 -8.0980303915e-01 -2.6377310700e+00
24 24 6
2 9 762 -17.6600 -110.5200 10 981 108.9600 -48.6100
6.8138868059e-02 -4.2960956545e-01 -2.6518676421e+00
220 220 219
2 9 814 -12.4100 -19.4800 10 796 97.0400 38.8800
6.8138868059e-02 -4.2960956545e-01 -2.6518676421e+00
220 220 219
2 9 815 -12.4100 -19.4800 10 797 97.0400 38.8800
8.3720682660e-01 4.8157876787e-02 -2.9603844551e+00
203 209 201
2 9 861 202.9900 67.6600 10 846 283.1600 98.7000
8.6985359642e-01 5.5037414747e-02 -2.9623470699e+00
194 200 194
2 9 864 211.0300 70.4600 10 849 290.4200 100.5300
1.4617251742e-01 4.7470370988e-01 -2.6152896791e+00
105 94 73
2 9 892 11.5300 150.8800 10 879 98.4700 201.5400
5.5850678529e-01 4.9932729062e-01 -2.6717753547e+00
147 153 134
2 9 897 107.4600 171.3500 10 1118 195.1500 209.7000
-7.1949535304e-02 -7.9974464873e-01 -2.6533428767e+00
164 139 11
2 9 950 -58.4500 -118.2500 10 970 61.1100 -53.9800
-2.2132803435e-02 -4.0426753366e-01 -2.6138496149e+00
36 38 37
2 9 1013 -39.9100 -12.9100 10 1038 69.0700 48.1100
-2.2132803435e-02 -4.0426753366e-01 -2.6138496149e+00
36 38 37
2 9 1014 -39.9100 -12.9100 10 1039 69.0700 48.1100
1.6132332168e-02 -3.0395968102e-01 -2.5991948832e+00
78 39 31
2 9 1044 -29.7800 13.5400 10 1057 77.9900 72.7500
3.4285651136e-01 -8.0333013719e-02 -2.9591936786e+00
71 114 42
2 9 1048 84.5300 15.3200 10 1048 166.5300 60.6400
6.6022395708e-01 1.1907364113e-01 -2.8220738597e+00
159 168 158
2 9 1112 149.3900 93.1300 10 1093 237.8200 129.8000
-3.5848891780e-01 -1.2789770714e-01 -2.5252576561e+00
200 100 129
2 0 486 -68.0900 18.2400 3 637 -80.8200 67.7400
-1.2889285515e-01 -3.8206941280e-01 -2.5783552196e+00
31 29 37
2 1 670 -43.3200 -44.3000 3 835 -73.6000 -0.9500
-7.0027571555e-01 3.8744571847e-02 -2.4645238743e+00
190 176 157
2 2 70 -127.1300 72.3400 3 56 -107.6100 118.3300
8.5173957747e-01 4.8660135183e-01 -2.9323036218e+00
128 92 80
2 2 259 217.8000 77.3800 3 138 243.0000 99.0200
1.5856299105e-01 5.5805540699e-01 -2.5793885154e+00
219 229 228
2 2 269 60.9500 140.0200 3 195 68.6300 183.8600
-3.4075945064e-02 -1.1937616957e+00 -2.3826809600e+00
126 121 118
2 2 276 -134.1000 -203.3200 3 376 -190.2800 -167.2400
4.5609814548e-01 -1.0386416707e+00 -2.5117909354e+00
148 155 141
2 2 351 -7.4000 -207.3000 3 365 -91.7600 -199.0800
1.0946457250e-01 -5.7109763150e-01 -2.7088829052e+00
59 8 4
2 2 590 -15.3400 -89.6700 3 575 -43.4000 -68.9800
1.0946457250e-01 -5.7109763150e-01 -2.7088829052e+00
59 8 4
2 2 591 -15.3400 -89.6700 3 576 -43.4000 -68.9800
4.2908124064e-01 1.2454631422e-01 -2.9894934126e+00
191 226 82
2 2 653 114.6900 14.9300 3 621 124.7500 32.7600
4.2908124064e-01 1.2454631422e-01 -2.9894934126e+00
191 226 82
2 2 654 114.6900 14.9300 3 622 124.7500 32.7600
9.3679114632e-01 6.4896106148e-01 -2.9522132640e+00
187 183 189
2 2 674 247.2800 105.9200 3 253 292.4800 135.0000
-1.6420045787e-02 -4.3091701212e-01 -2.6275041943e+00
34 33 40
2 2 825 -35.8800 -49.6900 3 1114 -57.4400 -23.1500
8.5770616801e-01 6.8199488310e-02 -3.0230539257e+00
104 75 69
2 2 866 199.0700 -12.5600 3 602 202.7700 -13.7900
-7.3004076650e-01 7.8593606134e-02 -2.4116396471e+00
204 121 138
2 2 896 -134.7300 85.4400 3 1199 -114.8300 130.8400
4.3099697167e-01 4.3579219904e-01 -2.7262902419e+00
220 236 242
2 2 898 116.0200 97.5200 3 659 122.2200 130.1300
9.6353098004e-02 -5.5953081544e-01 -2.7031164727e+00
183 143 139
2 2 1057 -17.4400 -86.2800 3 1081 -44.7500 -64.9900
-8.5222353927e-03 -4.1786114755e-01 -2.6237715385e+00
221 222 216
2 2 1112 -33.9500 -46.9500 3 1117 -55.7100 -20.8300
-6.4988841766e-01 -1.7396891607e-01 -2.5240521504e+00
133 169 180
2 2 1173 -128.9500 29.1500 3 1175 -113.8600 71.6800
2.1469057766e-01 5.8238424545e-01 -2.5957272246e+00
200 216 211
2 2 1229 74.2500 141.8100 3 906 82.8200 185.9200
-3.1264630635e-02 -3.7009289590e-01 -2.6036378427e+00
36 30 27
2 5 551 106.3200 -19.3500 3 609 -56.7600 -7.5200
3.6210843020e-03 -3.2141539102e-01 -2.5967023822e+00
54 10 12
2 5 555 110.7600 -5.5900 3 615 -48.3200 1.2700
-1.3040107110e-01 -3.4780961489e-01 -2.5640945963e+00
33 27 24
2 5 783 86.6500 -16.2300 3 847 -72.6600 7.0600
4.7882498739e-02 -3.1676553917e-01 -2.6083180864e+00
94 3 2
2 5 794 118.4800 -2.8700 3 832 -40.4100 -2.0900
5.4938526544e-01 3.7966629386e-01 -2.4643446033e+00
204 207 226
2 5 875 178.0000 183.6000 3 1203 95.1600 145.1100
