# Bundle file v0.3
11 418
7.1671529819e+02 -2.5485847282e-01 4.2734521303e-01
9.8847293391e-01 -1.3447419769e-01 6.9555366976e-02
1.0693375519e-01 9.4535182716e-01 3.0801801065e-01
-1.0717476812e-01 -2.9702965010e-01 9.4883452511e-01
2.3033664548e-01 9.9621165548e-01 -7.4085861301e-01
7.0948449790e+02 -2.1994348670e-01 2.6791401346e-01
9.8340526522e-01 5.3421167052e-02 -1.7337895851e-01
-8.5502087910e-03 9.6824980697e-01 2.4983835821e-01
1.8122079978e-01 -2.4420993062e-01 9.5263872035e-01
-4.6549250521e-01 8.2583583885e-01 -4.8029776633e-01
0 0 0
0 0 0
0 0 0
0 0 0
0 0 0
0 0 0
0 0 0
0 0 0
0 0 0
0 0 0
0 0 0
0 0 0
0 0 0
0 0 0
0 0 0
0 0 0
0 0 0
0 0 0
0 0 0
0 0 0
0 0 0
0 0 0
0 0 0
0 0 0
0 0 0
7.0349858551e+02 -2.2733537990e-01 3.5900729313e-01
9.9926841253e-01 -2.3310919158e-02 -3.0318983629e-02
2.3735762754e-02 9.9962399587e-01 1.3728818108e-02
2.9987552197e-02 -1.4438418479e-02 9.9944598593e-01
-1.0468806959e-01 -1.1719690025e-02 -5.1246833678e-01
6.9806650008e+02 -1.8830343437e-01 2.7472226739e-01
9.9236686205e-01 4.3425021055e-02 -1.1542217570e-01
-8.3867910404e-02 9.2383042233e-01 -3.7350170599e-01
9.0411197877e-02 3.8033093264e-01 9.2042066305e-01
-1.9084765292e-01 -1.1174090283e+00 -5.6818390945e-01
0 0 0
0 0 0
0 0 0
0 0 0
0 0 0
0 0 0
0 0 0
0 0 0
0 0 0
0 0 0
-4.2021473245e-01 -3.3146871374e-01 -2.5758677060e+00
100 180 114
3 7 43 -98.8700 -87.6000 8 55 -71.5800 -95.7300 0 31 -76.2700 -36.3600
-1.3322088319e-01 -7.8314200455e-01 -2.6222738321e+00
226 232 74
4 7 94 -32.0700 -185.2800 8 77 -11.5400 -177.9100 0 71 5.7500 -134.2100 1 78 -45.5200 -147.0200
-4.4011581021e-01 -4.5712002285e-01 -2.6197251801e+00
31 27 24
4 7 73 -100.9600 -113.6900 8 89 -75.4800 -113.8500 0 76 -75.3800 -68.2100 1 87 -112.3700 -64.2200
-3.9762630448e-01 -5.0735641440e-01 -2.6476885519e+00
102 165 98
4 7 177 -90.2900 -124.3900 8 237 -64.2900 -120.8500 0 150 -65.1200 -79.5600 1 169 -101.5200 -77.2000
-4.6557159748e-01 -3.7561403870e-01 -2.5723852566e+00
38 39 34
4 7 134 -108.8800 -97.5200 8 126 -82.7600 -103.3400 0 154 -84.6300 -47.5500 1 176 -119.8900 -42.6000
-1.4902512494e-01 -3.0027074530e-01 -2.5121155352e+00
208 204 203
4 7 189 -40.1000 -81.0400 8 170 -15.5700 -102.4200 0 160 -11.0000 -18.1900 1 180 -47.6400 -23.1400
-1.1145015208e-01 -2.9399542784e-01 -2.5296373442e+00
217 218 212
4 7 190 -30.5300 -79.0800 8 239 -4.9600 -100.3300 0 162 -4.1800 -17.1200 1 179 -37.8800 -22.4500
-8.9742303973e-02 -2.4618635636e-01 -2.5267466722e+00
97 55 30
4 7 136 -26.1300 -67.9600 8 173 1.7200 -91.5700 0 166 -0.7100 -5.9800 1 124 -32.8300 -10.5800
6.5564081693e-01 3.1660583050e-01 -2.7692585717e+00
220 236 235
4 7 206 133.9500 60.0300 8 195 185.6500 36.5100 0 246 129.4500 102.6200 1 195 153.7000 99.0900
-1.0974985036e-01 -4.0620893685e-01 -2.5650017740e+00
209 211 205
4 7 260 -28.8000 -103.7300 8 336 -5.3600 -117.9600 0 310 -0.3900 -44.5100 1 241 -37.1400 -51.7300
-3.9727680672e-01 -2.4393753438e-01 -2.5751056785e+00
56 78 65
4 7 539 -93.4800 -67.5200 8 510 -66.8500 -79.3000 0 319 -73.3400 -16.5300 1 488 -101.6300 -11.8800
-6.6846638187e-01 -2.1835737545e-01 -2.5127023111e+00
109 171 181
4 7 274 -157.8800 -64.0500 8 243 -131.1100 -74.2400 0 321 -136.9200 -13.1300 1 349 -166.8500 -1.9400
-6.7328719373e-01 -1.7599791071e-01 -2.4948691292e+00
112 171 178
4 7 277 -160.2300 -54.6800 8 244 -133.5800 -67.4600 0 322 -139.4000 -2.5400 1 352 -168.4900 9.0700
-4.5502499203e-01 -5.4826365584e-01 -2.6323757984e+00
90 155 95
4 7 485 -103.2700 -134.0900 8 707 -77.5200 -128.6300 0 438 -77.1800 -89.6700 1 456 -116.1500 -85.8800
-1.2805001999e-01 -4.4932885821e-01 -2.5746215272e+00
29 28 26
4 7 354 -32.6400 -113.1900 8 480 -9.2000 -124.5700 0 449 -3.4200 -55.3800 1 336 -41.9400 -62.5900
6.6490346373e-03 -4.2182750776e-01 -2.6074240321e+00
28 28 33
4 7 359 -2.0100 -105.3700 8 482 21.6200 -118.5100 0 451 26.1200 -47.5600 1 338 -7.2400 -57.9700
-8.0428685138e-02 -4.0385859724e-01 -2.5743960561e+00
24 22 23
4 7 361 -22.1600 -102.8100 8 483 2.0100 -117.0800 0 455 6.0400 -43.8500 1 341 -29.7400 -51.6500
-1.1188549305e-01 -3.5373368941e-01 -2.5505392510e+00
208 210 206
4 7 367 -29.9600 -92.2600 8 492 -4.7000 -109.4800 0 463 -2.5200 -31.9600 1 343 -38.2500 -38.1200
-5.4140461690e-02 -3.4896193519e-01 -2.5654235485e+00
208 210 202
4 7 512 -16.3600 -90.5300 8 744 8.2300 -107.9600 0 464 10.7900 -30.3800 1 473 -23.4400 -37.9500
8.6678776653e-01 1.2729649891e-02 -2.9911415672e+00
214 224 216
4 7 391 170.1500 -3.9000 8 364 216.1300 -13.1600 0 492 168.2200 34.4600 1 356 198.9500 18.3600
2.0973023555e+00 -1.2235515826e+00 -4.8143369996e+00
129 119 124
3 7 480 280.9700 -162.3700 8 509 307.6300 -80.3600 0 581 284.9000 -189.4300
-4.1379165766e-01 -9.4254288139e-01 -2.5087669718e+00
33 38 41
3 7 447 -95.7900 -227.0800 8 432 -73.9800 -213.0800 0 590 -56.9300 -179.5600
1.0718693914e-01 -5.7667157828e-01 -2.6894786771e+00
78 7 0
4 7 658 21.3600 -136.0100 8 1015 42.8800 -139.4800 0 638 51.5400 -83.3600 1 628 18.4200 -99.4100
5.9263699871e-02 -5.7078859808e-01 -2.6689989949e+00
168 130 128
4 7 659 10.5900 -135.9000 8 1017 32.3200 -139.6900 0 641 41.5000 -82.3700 1 630 6.1600 -97.0300
-6.8319127889e-01 -4.5202315917e-01 -2.5874356029e+00
131 186 191
4 7 495 -155.3700 -114.6900 8 491 -127.8900 -110.8900 0 644 -133.8300 -71.3500 1 651 -168.8600 -59.8400
-5.0353964618e-02 -4.8755023230e-01 -2.6122660292e+00
207 211 204
3 7 489 -14.4400 -120.1900 8 706 7.9600 -128.7300 0 646 15.7100 -64.0700
2.2872147573e-02 -4.7747904114e-01 -2.6309402531e+00
207 210 203
4 7 493 2.0500 -116.9900 8 713 24.7700 -126.3600 0 650 31.3400 -60.7900 1 640 -3.0900 -72.6100
-1.0273123289e-01 -4.3581256320e-01 -2.5796388178e+00
30 29 35
4 7 682 -26.8800 -109.8600 8 1056 -3.3200 -121.9900 0 655 2.0000 -52.0200 1 652 -35.4100 -59.5700
-1.0273123289e-01 -4.3581256320e-01 -2.5796388178e+00
30 29 35
4 7 683 -26.8800 -109.8600 8 1057 -3.3200 -121.9900 0 656 2.0000 -52.0200 1 653 -35.4100 -59.5700
9.9117214559e-02 -4.1411190169e-01 -2.6343583603e+00
49 12 11
4 7 503 18.7100 -102.5900 8 485 42.9800 -115.8800 0 663 45.7900 -44.8700 1 464 16.3700 -57.7300
4.3739891119e-02 -3.9103022694e-01 -2.6119047550e+00
30 27 28
4 7 504 6.1500 -98.3200 8 731 30.5000 -112.8600 0 667 33.4200 -39.9700 1 660 2.2500 -50.8500
4.3739891119e-02 -3.9103022694e-01 -2.6119047550e+00
30 27 28
4 7 505 6.1500 -98.3200 8 732 30.5000 -112.8600 0 668 33.4200 -39.9700 1 661 2.2500 -50.8500
-1.3253941219e-01 -3.8026871247e-01 -2.5467991445e+00
29 28 32
4 7 506 -34.5900 -98.3500 8 726 -10.3400 -114.7600 0 670 -6.4300 -38.3100 1 669 -43.3200 -44.3000
-4.5279566778e-01 -3.1790942632e-01 -2.5645516220e+00
54 103 70
4 7 524 -106.8100 -85.0300 8 761 -80.1900 -93.1400 0 674 -83.0400 -33.4700 1 484 -116.5900 -28.7300
2.9564957751e-02 -3.1817222768e-01 -2.5780696927e+00
240 43 42
4 7 525 2.4200 -82.9100 8 752 27.9800 -102.4800 0 678 28.3200 -22.1800 1 681 -1.6900 -31.3700
8.9302037195e-02 -2.9604393733e-01 -2.5889493917e+00
56 9 0
3 7 534 15.8700 -77.1700 8 501 41.8100 -98.2400 0 684 40.9200 -16.5300
2.2971481955e-01 3.8767093494e-01 -2.6349903271e+00
189 216 227
4 7 570 43.7600 76.8300 8 561 87.9800 50.7300 0 713 46.9200 120.8800 1 725 54.8800 125.2800
-1.2585960724e-01 -6.0561045335e-01 -2.6316117255e+00
34 24 4
4 7 654 -30.3800 -145.7200 8 1007 -8.4900 -146.3700 0 831 1.2800 -93.9000 1 622 -40.7100 -102.7700
-1.2585960724e-01 -6.0561045335e-01 -2.6316117255e+00
34 24 4
4 7 655 -30.3800 -145.7200 8 1008 -8.4900 -146.3700 0 832 1.2800 -93.9000 1 623 -40.7100 -102.7700
-6.6799832501e-01 -4.6626053817e-01 -2.5977780680e+00
149 42 81
4 7 670 -151.2500 -117.7200 8 1077 -124.4000 -112.5400 0 841 -129.5000 -74.7000 1 882 -164.9000 -63.6400
-1.1815400575e-01 -4.2989532429e-01 -2.5739193835e+00
211 211 203
4 7 688 -30.5700 -108.8300 8 1058 -6.7200 -121.1800 0 857 -1.6900 -50.7300 1 892 -39.3800 -57.7900
7.1904787832e-02 -4.1490273513e-01 -2.6261638496e+00
36 34 37
4 7 698 12.6500 -103.1000 8 1071 36.7300 -116.3700 0 867 40.0700 -45.3100 1 655 9.3900 -57.4400
7.1904787832e-02 -4.1490273513e-01 -2.6261638496e+00
36 34 37
4 7 699 12.6500 -103.1000 8 1072 36.7300 -116.3700 0 868 40.0700 -45.3100 1 656 9.3900 -57.4400
-1.1937858659e-01 -3.8830239557e-01 -2.5545105979e+00
214 217 209
4 7 702 -31.3900 -99.9600 8 1073 -7.1600 -115.6400 0 871 -3.2100 -40.2100 1 902 -39.9200 -46.7200
2.6310097738e-02 -3.7104416214e-01 -2.5932647937e+00
224 227 223
4 7 707 2.0000 -94.3800 8 734 26.6800 -110.9800 0 875 28.9300 -34.7700 1 667 -2.3400 -45.1400
5.9559691047e-02 -3.6665915468e-01 -2.6016477685e+00
225 225 223
4 7 708 9.5000 -92.9700 8 737 34.3000 -109.9200 0 876 36.0900 -33.4800 1 904 6.2400 -44.6100
8.3954968541e-02 -3.6358266207e-01 -2.6080878028e+00
224 225 217
4 7 711 15.0200 -92.0200 8 741 39.9100 -109.0700 0 878 41.3500 -32.5800 1 905 12.4300 -44.2600
1.1183922702e-02 -3.4374144370e-01 -2.5838990529e+00
227 37 31
4 7 717 -1.5700 -88.5900 8 1089 23.2900 -106.3200 0 881 25.1100 -28.6000 1 676 -6.2300 -37.9200
3.7365260236e-02 -3.4160723816e-01 -2.5908649401e+00
234 35 31
4 7 718 4.5000 -87.8400 8 1094 29.4500 -105.6700 0 882 30.7100 -27.9200 1 675 0.3900 -37.8200
-4.3915452084e-01 -2.1048781807e-01 -2.5340758829e+00
65 86 77
4 7 733 -105.4300 -60.9300 8 765 -79.1300 -75.7800 0 888 -83.0400 -6.9400 1 690 -113.1000 -2.0400
-4.0880968539e-03 -4.4065208933e-01 -2.6050063730e+00
210 212 211
3 7 938 -4.3500 -109.6800 8 1055 19.3400 -122.2100 0 1130 24.0400 -51.8900
-3.4085633815e-01 -1.7418767354e-01 -2.5715015494e+00
194 209 199
4 7 1007 -82.2500 -51.9300 8 1142 -55.0100 -66.4100 0 1171 -60.6300 0.6100 1 1197 -87.4400 4.2900
9.9087213180e-01 1.9453451697e-01 -3.0170415440e+00
56 51 49
3 7 558 192.3200 32.7000 8 554 246.5600 22.9700 0 1200 182.7800 66.6900
-3.9723298461e-01 -5.0734367589e-01 -2.6472308196e+00
102 165 98
3 7 178 -90.2900 -124.3900 8 238 -64.2900 -120.8500 1 170 -101.5200 -77.2000
-4.9669500634e-02 -3.9908748558e-01 -2.5822943103e+00
163 163 161
3 7 263 -15.0000 -101.1800 8 337 9.1700 -115.9300 1 240 -22.0500 -51.1500
-4.7462828505e-01 -3.0308273159e-01 -2.5499185356e+00
77 158 112
3 7 268 -112.0900 -81.8200 8 348 -85.9000 -91.4900 1 244 -122.4700 -24.4100
-1.5469555904e-01 -4.6999107108e-01 -2.5872553999e+00
202 200 194
3 7 259 -38.1600 -117.3800 8 234 -14.6400 -126.3900 1 335 -48.1900 -67.9800
9.9078188398e-01 1.9550849790e-01 -3.0162126503e+00
56 51 49
3 7 557 192.3200 32.7000 8 555 246.5600 22.9700 1 512 225.2600 54.7600
1.8380596405e+00 -8.3438488029e-01 -5.2222390341e+00
123 110 115
3 7 944 231.3400 -105.8600 8 794 271.5000 -11.3500 1 780 305.1200 -180.3900
1.7941249623e+00 -7.0894029725e-01 -5.3570688133e+00
138 126 130
3 7 715 221.3000 -89.0100 8 544 265.1200 9.4700 1 801 294.0200 -163.0900
1.7941249623e+00 -7.0894029725e-01 -5.3570688133e+00
138 126 130
3 7 716 221.3000 -89.0100 8 545 265.1200 9.4700 1 803 294.0200 -163.0900
1.9057807431e+00 -6.1200323929e-01 -5.4521263672e+00
137 126 132
3 7 988 231.0100 -76.0500 8 1210 277.6200 23.3700 1 815 305.9000 -150.9000
2.5556525869e-01 4.1188157874e-01 -2.6307324032e+00
220 246 252
3 7 574 49.4200 82.3500 8 562 95.3200 55.5900 1 954 60.6200 130.7600
1.7956261457e+00 -1.0265927606e+00 -5.0303515315e+00
86 77 83
3 7 908 233.5700 -133.3100 8 1157 267.3000 -42.4000 1 1007 306.6600 -208.4500
1.7487261447e+00 -7.2682754393e-01 -5.3340979276e+00
95 80 83
3 7 968 216.8400 -91.6800 8 1192 260.0100 6.9300 1 1062 288.3900 -165.2600
-3.0074446281e-01 -8.4421823557e-01 -2.5651578426e+00
38 84 154
3 7 827 -69.4100 -201.7400 8 938 -48.3800 -192.1200 1 1072 -90.9600 -158.9600
-3.0074446281e-01 -8.4421823557e-01 -2.5651578426e+00
38 84 154
3 7 828 -69.4100 -201.7400 8 939 -48.3800 -192.1200 1 1073 -90.9600 -158.9600
4.2164091200e-02 -8.0364843237e-01 -2.6077934561e+00
211 233 127
3 7 852 7.9100 -189.5000 8 949 24.7500 -187.4700 1 1084 -3.8800 -153.8000
2.5494032376e-01 4.3048804344e-01 -2.6328106344e+00
41 75 77
3 7 1077 48.9600 86.4300 8 821 95.5300 60.0900 1 1271 60.8600 134.4800
-4.3283920525e-01 -2.5705756526e-01 -2.5570290848e+00
62 87 68
2 7 270 -102.9500 -71.3000 8 350 -76.4600 -82.5700
-7.1225336677e-01 -1.7376734431e-01 -2.4799087683e+00
151 140 158
2 7 541 -170.0300 -54.5000 8 517 -143.5600 -67.7400
-3.7701011738e-03 -4.8218558265e-01 -2.6252923058e+00
213 215 213
2 7 668 -3.8400 -118.3700 8 1042 19.0600 -127.4300
-6.5947453188e-01 -5.7812390502e-01 -2.6402439911e+00
127 34 48
2 7 895 -146.5100 -140.2900 8 1041 -119.1800 -128.4900
-6.8418953315e-01 3.8307145428e-03 -2.4272933514e+00
183 158 143
2 7 34 -167.3900 -13.5400 8 28 -143.1000 -36.2200
9.2301238188e-01 7.1460436169e-01 -2.9136029564e+00
209 218 216
2 7 61 179.4800 138.4100 8 36 257.2200 130.1400
-2.5577361844e-02 -8.0070993437e-01 -2.6297614944e+00
238 239 76
2 7 93 -7.3900 -187.9600 8 120 11.3500 -182.7100
-1.3673867185e-01 -7.8698437793e-01 -2.6300532345e+00
226 232 74
2 7 95 -32.0700 -185.2800 8 78 -11.5400 -177.9100
-8.6976241314e-02 -2.4569078657e-01 -2.5258816448e+00
97 55 30
2 7 135 -26.1300 -67.9600 8 172 1.7200 -91.5700
6.4596993115e-01 -3.3402084959e-01 -3.3130064103e+00
129 130 132
2 7 137 119.8200 -68.9700 8 134 152.8600 -45.4700
-1.5307776966e-01 -2.9980335336e-01 -2.5120110894e+00
208 204 203
2 7 188 -40.1000 -81.0400 8 169 -15.5700 -102.4200
-6.0577997423e-01 -1.5727229892e-01 -2.5226933562e+00
117 163 176
2 7 194 -143.5800 -49.7900 8 245 -117.4300 -62.2200
6.0048951678e-01 2.0306633904e-02 -2.9638550983e+00
69 116 51
2 7 200 118.0900 -3.6200 8 181 160.1100 -9.0000
-1.6404456939e-01 -9.0400706996e-01 -2.5660139657e+00
92 100 98
2 7 237 -37.8200 -214.6300 8 218 -20.6000 -205.0100
-1.2321072881e-01 2.4863287794e-01 -2.6425158839e+00
63 191 229
2 7 310 -33.7000 43.9100 8 193 0.2600 26.2600
-4.5600470267e-01 -6.0386046450e-01 -2.6479243396e+00
31 59 39
2 7 348 -102.4000 -145.3400 8 473 -76.6800 -136.8500
-6.9640616657e-02 2.5956104246e-01 -2.6604663065e+00
230 107 151
2 7 406 -21.8000 46.3400 8 268 13.7100 29.1100
-1.6234618519e-01 -9.5438957597e-01 -2.5188359355e+00
25 61 49
2 7 443 -38.2900 -228.8900 8 421 -21.6700 -219.7100
-1.9895420406e-01 -8.5368722756e-01 -2.6230092980e+00
22 59 38
2 7 462 -45.1000 -200.2300 8 449 -25.4200 -188.5400
-3.1090662729e-01 -8.3216475101e-01 -2.5713385934e+00
191 211 219
2 7 464 -71.3600 -198.7800 8 654 -50.1000 -188.9500
1.7920584352e+00 -1.1077123537e+00 -4.9480688839e+00
127 123 126
2 7 483 236.3100 -145.2900 8 525 267.4800 -56.1300
5.6097720127e-01 -5.8769834197e-01 -2.8337937089e+00
38 56 13
2 7 486 116.3900 -130.6900 8 703 137.1200 -133.4900
-4.5293238388e-01 -3.1863290526e-01 -2.5670427032e+00
54 103 70
2 7 523 -106.8100 -85.0300 8 760 -80.1900 -93.1400
-1.2180972865e-01 -2.6551889763e-01 -2.5154597701e+00
105 58 34
2 7 536 -33.3700 -72.9100 8 1109 -7.6400 -95.9000
-1.5025983211e-01 -1.5048808592e-01 -2.6515649265e+00
203 206 190
2 7 543 -37.8200 -44.8600 8 524 -9.2700 -57.3700
2.1748334624e-02 -2.2220116806e-02 -2.7219021854e+00
41 25 19
2 7 546 0.4900 -15.4100 8 251 32.1500 -27.8400
2.0177455680e+00 -8.9931835872e-02 -5.9967902925e+00
96 92 97
2 7 547 224.3100 -14.5400 8 387 285.8600 99.5600
6.1969167308e-01 3.0507030515e-01 -2.7957174026e+00
120 133 108
2 7 563 125.3600 57.1100 8 370 176.7200 36.3900
-1.2633267876e-01 3.6281469495e-01 -2.7331453688e+00
222 244 206
2 7 566 -34.0500 66.9700 8 373 3.8000 58.7200
4.5326670431e-01 4.6713526053e-01 -2.6855545411e+00
36 52 59
2 7 577 91.7000 93.9300 8 277 144.4000 68.4400
-1.8275378696e-01 -9.2117597143e-01 -2.5443146089e+00
47 49 52
2 7 614 -42.6900 -219.8500 8 631 -24.8600 -210.3300
1.8349978751e+00 -1.4997294165e+00 -4.5259576676e+00
96 79 78
2 7 620 260.4100 -209.6000 8 708 276.1200 -127.7900
-1.6695503385e-01 -8.5405125179e-01 -2.6146637878e+00
36 59 36
2 7 625 -38.2600 -200.7400 8 651 -19.0400 -190.3900
1.8664904400e+00 -1.4288182310e+00 -4.6014420641e+00
146 130 133
2 7 630 261.1200 -197.0400 8 725 279.5900 -114.8700
1.9177529184e+00 -1.3966626842e+00 -4.6440768577e+00
146 144 149
2 7 633 265.9300 -191.0300 8 739 285.7300 -108.9300
2.0407832520e+00 -1.3882237845e+00 -4.6463261282e+00
78 61 72
2 7 634 282.1300 -189.3700 8 738 302.0300 -109.2400
1.8685694163e+00 -1.3566397168e+00 -4.6843179740e+00
140 134 140
2 7 637 257.5000 -184.5600 8 754 279.0700 -101.1900
1.6722972447e+00 -1.3364119991e+00 -4.6979002958e+00
145 135 139
2 7 639 231.1200 -182.2900 8 758 253.7400 -95.8400
1.9801317787e+00 -1.3076092288e+00 -4.7338281065e+00
123 117 119
2 7 641 269.7800 -176.0700 8 759 293.1700 -93.6900
1.8160535768e+00 -1.1573773755e+00 -4.8978097843e+00
98 89 87
2 7 648 241.4500 -152.7200 8 773 270.7100 -64.8800
2.0635990311e+00 -8.2817615605e-01 -5.2519629055e+00
86 68 66
2 7 694 256.9700 -103.7500 8 539 298.2900 -11.5400
2.0256200935e+00 -7.2659250667e-01 -5.3510949779e+00
86 76 78
2 7 712 248.3900 -90.3700 8 542 292.9300 4.8800
2.0256200935e+00 -7.2659250667e-01 -5.3510949779e+00
86 76 78
2 7 713 248.3900 -90.3700 8 543 292.9300 4.8800
1.9195709776e+00 -6.4158599889e-01 -5.4390195840e+00
86 72 72
2 7 725 232.7300 -79.7100 8 802 279.4400 19.3400
1.9195709776e+00 -6.4158599889e-01 -5.4390195840e+00
86 72 72
2 7 726 232.7300 -79.7100 8 803 279.4400 19.3400
1.9513624711e+00 -3.1277637733e-01 -5.7424541368e+00
103 103 106
2 7 740 225.4800 -39.7400 8 1232 281.3100 67.4800
8.2731818687e-01 -8.7507864204e-02 -3.0652399138e+00
109 111 98
2 7 745 160.0000 -23.8400 8 787 201.5200 -25.2400
6.7122000938e-01 2.2613322206e-01 -2.7885431504e+00
201 218 218
2 7 760 136.8300 40.7600 8 798 186.3900 17.6800
1.7112777695e+00 -1.5453168427e+00 -4.4719277859e+00
99 83 87
2 7 809 246.1000 -218.4800 8 1027 260.1200 -135.3700
-4.0071783382e-01 -9.1162960880e-01 -2.5464944042e+00
34 70 50
2 7 811 -91.5300 -217.8300 8 922 -69.7100 -203.2700
1.6061164748e+00 -1.4825618009e+00 -4.5328995729e+00
106 90 94
2 7 818 229.0500 -207.9200 8 1052 246.0600 -122.7300
1.6953755575e+00 -1.4516524530e+00 -4.5612108269e+00
90 80 80
2 7 823 239.9100 -202.2900 8 1067 257.7900 -118.2800
-2.8185573151e-01 -8.4578650527e-01 -2.5600905295e+00
26 78 160
2 7 826 -65.1400 -202.4100 8 937 -44.4900 -193.3800
1.9598568941e+00 -1.3995422013e+00 -4.6387660050e+00
102 87 91
2 7 842 271.6600 -191.4500 8 1081 291.4700 -110.1100
6.5427990584e-02 -8.0539595489e-01 -2.6063204989e+00
217 242 116
2 7 848 13.0300 -189.9800 8 945 29.5400 -188.4400
4.2477655846e-02 -8.0290356720e-01 -2.6066988239e+00
211 233 127
2 7 851 7.9100 -189.5000 8 948 24.7500 -187.4700
2.0949020541e+00 -1.3850279620e+00 -4.6618038444e+00
87 77 83
2 7 855 288.5400 -188.2200 8 743 308.6400 -108.4600
1.6616021945e+00 -9.6112165654e-01 -5.0849955142e+00
123 110 113
2 7 914 215.0500 -124.5500 8 1168 250.7500 -30.7200
2.0830717595e+00 -9.7312841724e-01 -5.0922227813e+00
83 72 76
2 7 919 266.1000 -124.1400 8 785 302.6000 -36.1300
1.7838481158e+00 -8.9525148164e-01 -5.1532733967e+00
122 113 121
2 7 928 227.4400 -114.6600 8 1175 265.4500 -21.0500
1.9170313372e+00 -8.5008042154e-01 -5.2132817036e+00
90 68 67
2 7 940 241.0800 -107.6000 8 791 281.1200 -14.3700
-6.6550683675e-02 -4.2384708356e-01 -2.5887154147e+00
210 211 210
2 7 942 -18.7500 -106.8200 8 1063 5.2600 -119.4700
1.8285786239e+00 -8.1022078809e-01 -5.2589572012e+00
126 112 116
2 7 954 228.9500 -102.4100 8 795 269.7700 -6.7600
2.0817292623e+00 -3.4303083965e-01 -5.7542041738e+00
106 98 106
2 7 1013 239.3900 -42.6300 8 824 295.4500 63.2300
-2.5524061502e-01 -6.2238740525e-02 -2.6556271963e+00
157 86 117
2 7 1021 -61.2900 -25.7700 8 1163 -32.1500 -36.8300
2.0098106285e+00 -1.0530230242e-02 -6.0833040458e+00
78 74 75
2 7 1032 220.4400 -6.1400 8 840 284.2400 110.7400
2.2827416607e+00 1.8077874560e-01 -6.2870753716e+00
53 46 47
2 7 1039 241.4600 13.9900 8 843 312.6600 134.3600
2.5545211135e-01 4.3011591126e-01 -2.6354157366e+00
41 75 77
2 7 1076 48.9600 86.4300 8 820 95.5300 60.0900
-6.2659071563e-02 -7.1563293374e-01 -2.6402466218e+00
221 198 54
2 7 8 -16.1000 -169.3900 1 7 -26.2800 -130.6000
-2.6442498987e-01 -6.6617710872e-01 -2.5925365798e+00
32 30 23
2 7 13 -61.8900 -161.3400 1 11 -77.0000 -115.1600
-4.9307251298e-01 2.5712756080e-01 -2.4924253675e+00
219 224 225
3 7 21 -120.1400 45.7700 0 21 -106.7900 95.1800 1 30 -118.3300 106.6800
-6.2055918374e-01 -5.3925945922e-01 -2.6169068854e+00
181 180 146
2 7 25 -139.8000 -132.8100 1 42 -154.2000 -81.7000
1.0368636868e+00 4.6228710892e-01 -2.9636548267e+00
22 21 23
2 7 37 201.7200 86.7100 1 51 234.2600 112.3600
-7.4412194439e-02 -5.4939211012e-01 -2.6308254024e+00
17 17 15
3 7 40 -19.5200 -133.7400 0 44 10.7300 -79.2900 1 41 -27.0000 -89.3800
6.8358211583e-01 1.6868278807e-01 -2.7754292451e+00
205 223 222
2 7 49 140.5100 28.8100 1 49 160.5200 66.7700
-6.0282666568e-01 -6.8368000623e-01 -2.6999697355e+00
67 146 165
2 7 68 -130.4100 -160.4600 0 41 -107.9500 -127.2000
-4.4877418308e-01 -6.4191580144e-01 -2.6673326617e+00
93 163 103
3 7 69 -100.0000 -152.8600 0 74 -73.2100 -112.3500 1 82 -113.7800 -109.2700
-4.4877418308e-01 -6.4191580144e-01 -2.6673326617e+00
93 163 103
3 7 70 -100.0000 -152.8600 0 75 -73.2100 -112.3500 1 83 -113.7800 -109.2700
2.7702963842e-01 -6.2183167249e-01 -2.7952799033e+00
115 180 91
2 7 71 57.6400 -140.7500 1 60 61.7200 -114.3100
6.1083919515e-01 -6.2303203545e-01 -2.8155530603e+00
113 182 93
2 7 72 128.0300 -137.9900 1 81 141.6500 -117.5800
-3.3378887514e-01 -2.5638462381e-01 -2.5845930552e+00
16 16 14
2 7 76 -80.0100 -70.3600 1 96 -86.2600 -15.6300
1.1583226654e-01 6.3255351360e-01 -2.6633731504e+00
125 131 130
2 7 83 17.8000 128.4600 0 134 14.2400 160.8500
2.5414218299e-01 -8.3604935789e-01 -2.6249217136e+00
244 254 98
2 7 90 54.8200 -194.9200 1 111 50.2800 -164.5400
2.8155312475e-01 -7.8283066539e-01 -2.6148281137e+00
23 24 16
2 7 96 61.1800 -183.5800 1 77 57.2800 -151.1700
-4.1263168928e-01 -3.6959264062e-01 -2.5974595351e+00
88 174 118
3 7 103 -96.3900 -95.5000 0 78 -72.0400 -46.3000 1 89 -105.7800 -42.5300
5.8081835808e-01 4.2554525658e-01 -2.7626529452e+00
205 225 220
2 7 118 117.3700 83.2100 1 139 136.6800 122.0900
-6.5739608476e-02 5.9290886992e-01 -2.6503349008e+00
153 149 141
3 7 120 -22.9500 119.7800 0 132 -20.2300 151.6800 1 144 -8.7600 163.8000
-6.7096620090e-01 -8.2249799290e-01 -2.7867813839e+00
112 121 128
2 7 126 -139.9500 -184.9500 0 105 -118.2900 -163.1900
6.0530271647e-01 -7.2844615561e-01 -2.7248662411e+00
16 19 12
2 7 129 130.0200 -163.9800 1 113 140.2900 -141.8400
6.5884494415e-01 -3.0292046152e-02 -2.9255261506e+00
112 184 93
2 7 143 131.4900 -13.5600 1 128 153.8100 13.3800
-6.7667835134e-01 5.8531860841e-01 -2.5258927878e+00
146 141 139
2 7 156 -161.7600 117.8400 0 259 -150.5600 151.7500
-2.3778513374e-01 -8.1290709704e-01 -2.6727474550e+00
110 111 106
2 7 168 -53.4900 -189.1800 1 315 -67.5400 -152.8000
6.2700536200e-01 -8.1546220053e-01 -2.7536749471e+00
18 18 14
2 7 170 132.4500 -181.4500 1 219 146.4100 -163.5900
-4.1864637947e-01 -6.8616978044e-01 -2.6890242751e+00
30 41 25
3 7 175 -91.8700 -161.0800 0 215 -64.9900 -122.5800 1 229 -106.6600 -120.6600
-9.6123314233e-03 -4.6598101442e-01 -2.6127857891e+00
205 207 204
3 7 180 -5.9400 -114.9200 0 153 24.1900 -58.1800 1 171 -11.6600 -69.0100
7.3463902483e-02 -4.5577873707e-01 -2.6397978917e+00
214 213 210
2 7 181 13.4300 -111.8200 0 221 41.2100 -54.9500
-3.9128304770e-01 -2.1444840108e-01 -2.5645406060e+00
98 113 105
3 7 192 -93.6900 -61.3800 0 228 -71.2700 -8.9400 1 246 -100.1400 -4.5800
7.9578440175e-01 -6.4537108295e-02 -3.0514983876e+00
66 55 44
2 7 197 154.5000 -19.4800 1 187 182.6100 -1.3100
8.2329520922e-01 -3.3082758349e-02 -3.0168340910e+00
175 182 174
2 7 198 161.0600 -13.1800 1 247 189.1100 7.1700
5.5244310287e-01 9.4214795023e-02 -2.9664695384e+00
79 136 67
2 7 201 108.2100 11.1100 1 191 130.1300 37.3000
-2.4015436600e-01 4.2831679094e-01 -2.6126552478e+00
64 51 41
2 7 208 -60.9800 83.4500 0 250 -53.2400 122.3100
-2.3272623233e-01 5.1036339114e-01 -2.6151202011e+00
194 197 191
3 7 210 -59.9200 101.5600 0 352 -53.4100 137.9400 1 266 -47.6100 149.1800
-2.2601481705e-01 5.5715471900e-01 -2.6165623441e+00
150 150 144
3 7 214 -58.8300 112.4100 0 353 -52.1800 145.8700 1 268 -45.8500 158.5700
-1.3520601432e-01 -9.6409090971e-01 -2.5097591555e+00
181 206 205
2 7 224 -32.2100 -231.5800 1 428 -56.4300 -192.4700
-1.3323238900e-01 -8.8199864136e-01 -2.5809363280e+00
40 49 48
2 7 239 -31.5300 -209.0400 1 218 -49.6200 -171.0200
9.3429271512e-01 -8.6661949866e-01 -2.7161963169e+00
60 33 16
2 7 249 200.8600 -191.3200 1 155 224.0500 -179.5400
-1.9439889760e-01 -8.1739414892e-01 -2.6567431973e+00
40 34 10
2 7 250 -43.6700 -190.5000 1 446 -59.0400 -154.6400
-4.7182010686e-01 -7.0858162528e-01 -2.6762411582e+00
93 155 92
3 7 253 -104.0000 -166.4900 0 213 -76.6100 -128.7900 1 228 -119.8700 -125.1000
-1.4920399088e-01 -5.2230249019e-01 -2.5927823769e+00
208 183 42
3 7 256 -36.6900 -129.0400 0 301 -6.5400 -73.4900 1 326 -47.1800 -81.0400
-1.5475645956e-01 -4.6994507145e-01 -2.5879737963e+00
202 200 194
2 7 258 -38.1600 -117.3800 1 334 -48.1900 -67.9800
-1.5514510496e-01 -3.6733289135e-01 -2.5421028279e+00
205 207 200
3 7 265 -39.9400 -95.7200 0 313 -11.8600 -35.7600 1 242 -49.1500 -40.7100
-1.3126444522e-01 -3.3306458060e-01 -2.5357363340e+00
189 189 194
3 7 267 -34.7500 -87.8700 0 316 -7.2500 -26.7400 1 345 -43.2400 -32.4400
4.6625754336e-02 -3.0054153406e-01 -2.5774608518e+00
80 5 0
2 7 269 6.0500 -78.8900 1 243 2.8800 -27.1700
-5.1912518751e-01 -2.4179597132e-01 -2.5128822188e+00
99 121 98
3 7 271 -124.0100 -69.0800 0 227 -101.4700 -14.5600 1 245 -133.9200 -7.7200
-4.0351083713e-01 -2.4678683638e-01 -2.5668173324e+00
55 75 63
3 7 272 -96.2600 -68.7900 0 320 -73.3400 -16.5300 1 346 -103.2900 -12.1900
-6.2027135999e-01 3.6191255902e-02 -2.4535807438e+00
190 207 155
3 7 289 -151.8100 -5.4600 0 333 -131.4800 48.9600 1 370 -154.8800 60.4500
-4.6932465579e-01 9.0110895864e-02 -2.5577783013e+00
222 80 135
2 7 294 -118.8500 3.9500 1 372 -105.5500 67.4800
-8.2131176884e-01 2.3284122231e-01 -2.5330298660e+00
110 88 90
2 7 307 -192.0300 37.8300 1 384 -185.2500 95.5000
5.5386683111e-01 5.2019005098e-01 -2.6968395088e+00
91 102 84
2 7 319 112.8500 105.4400 1 545 130.4100 147.7700
9.7595088247e-01 6.7543876785e-01 -2.9048108153e+00
203 205 210
2 7 322 191.3600 131.2100 1 267 220.2800 158.9200
-1.3248433072e-01 -4.8790135486e-01 -2.5856598977e+00
42 16 15
2 7 352 -33.3100 -121.5300 1 460 -43.0500 -72.3500
-4.5685287382e-02 -4.3180763325e-01 -2.5909280513e+00
28 28 33
3 7 357 -13.7700 -108.5100 0 450 14.5900 -50.2200 1 463 -20.9700 -59.3300
-8.0482834476e-02 -4.0375486202e-01 -2.5750353397e+00
24 22 23
3 7 360 -22.1600 -102.8100 0 454 6.0400 -43.8500 1 340 -29.7400 -51.6500
2.2891219199e-02 -4.0405645737e-01 -2.6112319826e+00
212 214 208
3 7 362 1.4200 -101.1700 0 664 29.3600 -43.7400 1 466 -3.1100 -53.6200
-6.9882815955e-02 -3.7663911300e-01 -2.5666678812e+00
25 25 24
3 7 363 -19.9600 -96.9500 0 458 7.6500 -36.8500 1 342 -27.1400 -44.7600
-3.1008721450e-02 -3.7156138589e-01 -2.5763304955e+00
30 28 29
3 7 364 -11.0900 -95.4300 0 461 16.2500 -35.3500 1 470 -17.0600 -44.0600
-3.1008721450e-02 -3.7156138589e-01 -2.5763304955e+00
30 28 29
3 7 365 -11.0900 -95.4300 0 462 16.2500 -35.3500 1 471 -17.0600 -44.0600
-2.0477634526e-02 -3.2463936595e-01 -2.5666226931e+00
216 213 211
3 7 369 -8.9500 -84.8700 0 467 17.4400 -24.0900 1 478 -14.4700 -32.2200
4.2559319794e-03 -3.1797057215e-01 -2.5732082553e+00
42 18 15
3 7 370 -3.3800 -83.0000 0 469 22.9000 -22.5300 1 482 -8.1000 -30.9800
4.1842576823e-03 -3.1770424998e-01 -2.5724181395e+00
42 18 15
2 7 371 -3.3800 -83.0000 1 483 -8.1000 -30.9800
-3.5952103935e-01 -1.8669460255e-01 -2.5694357684e+00
59 73 64
2 7 379 -86.4500 -54.8500 1 500 -92.0600 1.4500
8.6597678114e-01 1.3303362725e-02 -2.9938495831e+00
214 224 216
3 7 392 170.1500 -3.9000 0 493 168.2200 34.4600 1 357 198.9500 18.3600
-3.5245329718e-03 4.9925431762e-02 -2.7384863874e+00
109 201 215
2 7 393 -5.6800 0.1000 0 500 6.3100 42.6100
8.2522859849e-01 3.9693821001e-02 -2.9812614871e+00
202 207 202
2 7 394 162.4400 1.2800 0 495 160.5800 39.3100
8.5416273615e-01 4.3775047188e-02 -2.9762380352e+00
75 67 52
2 7 395 167.7300 2.5300 0 497 166.6200 40.7400
6.7699449746e-01 2.4831683637e-01 -2.7927906545e+00
111 116 99
2 7 405 137.9600 45.4400 0 706 134.5300 88.7000
-7.3746813020e-01 3.0831367945e-01 -2.4896430100e+00
146 135 141
2 7 408 -177.0500 56.0400 0 525 -161.4700 100.0400
2.4221854134e-01 -7.7830846775e-01 -2.6161797168e+00
124 127 116
2 7 473 52.3500 -182.7400 1 447 47.3500 -149.6000
6.1372425143e-01 -7.8550751728e-01 -2.7444858163e+00
124 137 129
2 7 476 130.7900 -175.2700 1 444 142.4800 -156.2500
-6.6267116539e-01 -6.9583043523e-01 -2.6762398313e+00
172 73 97
3 7 479 -144.4300 -163.9400 0 627 -121.7000 -130.9300 1 616 -161.7100 -119.7000
-4.6952002956e-01 -5.7488243410e-01 -2.6382305996e+00
97 158 106
3 7 484 -105.6100 -139.3200 0 635 -79.9400 -96.4900 1 635 -119.8900 -92.4100
-8.1536830894e-02 -4.8025615091e-01 -2.5969347199e+00
210 215 208
3 7 490 -21.6900 -119.2500 0 649 7.7400 -62.0000 1 462 -29.9400 -71.6700
9.8390278703e-02 -4.8615111616e-01 -2.6682006273e+00
50 6 7
2 7 492 19.5200 -117.0300 1 331 16.1100 -76.8400
7.7707238422e-02 -4.7103460636e-01 -2.6432774517e+00
209 214 207
3 7 494 13.9800 -114.8000 0 651 43.1000 -58.5400 1 461 10.8400 -71.9000
1.0093674692e-01 -4.5722741347e-01 -2.6487953029e+00
56 9 5
2 7 496 19.3900 -111.6500 0 652 47.3300 -55.0700
1.0035528270e-01 -4.3901137768e-01 -2.6398995519e+00
55 6 1
3 7 497 19.1500 -107.9900 0 658 46.7700 -50.5600 1 646 16.7200 -64.0400
5.4354653691e-02 -4.2650262313e-01 -2.6215552632e+00
26 25 28
2 7 498 8.8400 -105.9400 0 661 36.5300 -48.0100
5.4570250633e-02 -4.2654235534e-01 -2.6226834182e+00
26 25 28
3 7 499 8.8400 -105.9400 0 662 36.5300 -48.0100 1 650 5.0300 -60.1000
9.8874430683e-01 -5.0930512544e-01 -3.1416036203e+00
25 23 21
2 7 502 189.0100 -103.2500 1 455 224.0200 -100.6600
-4.9148965993e-02 -3.8367326280e-01 -2.5766257740e+00
201 204 193
3 7 507 -15.0400 -98.0500 0 669 12.5600 -38.4900 1 467 -21.8300 -47.1400
-1.0561141366e-01 -3.7583679956e-01 -2.5572370553e+00
27 30 34
3 7 509 -28.3800 -97.0700 0 671 -0.3000 -37.1300 1 668 -36.3500 -43.9200
-9.9645672839e-03 -3.7856074128e-01 -2.5864415381e+00
215 218 212
3 7 510 -6.1900 -96.6000 0 672 21.0200 -36.6500 1 468 -11.5300 -46.6900
-9.9645672839e-03 -3.7856074128e-01 -2.5864415381e+00
215 218 212
3 7 511 -6.1900 -96.6000 0 673 21.0200 -36.6500 1 469 -11.5300 -46.6900
9.8011445609e-02 -3.5228378646e-01 -2.6095520218e+00
57 6 1
2 7 513 18.1200 -89.4900 1 671 16.0000 -41.6100
-8.1630677124e-02 -3.3146639421e-01 -2.5508605180e+00
207 212 208
2 7 516 -23.1300 -87.0300 1 677 -30.2600 -32.8500
-8.1683831249e-02 -3.3144498989e-01 -2.5510221469e+00
207 212 208
3 7 517 -23.1300 -87.0300 0 675 3.9100 -26.1800 1 678 -30.2600 -32.8500
-5.1834036948e-01 -3.1968407643e-01 -2.5366117036e+00
39 53 39
2 7 518 -122.5400 -86.1500 1 684 -133.5900 -27.3400
7.3849245995e-02 -3.3157737218e-01 -2.6016518569e+00
243 42 29
3 7 519 12.5800 -85.0200 0 677 38.5400 -25.7200 1 475 9.8600 -35.9000
7.3636226810e-02 -3.3098571186e-01 -2.6000255499e+00
243 42 29
2 7 520 12.5800 -85.0200 1 476 9.8600 -35.9000
-2.8364262622e-02 -3.2532089107e-01 -2.5603807919e+00
208 216 209
2 7 522 -10.7000 -85.0700 1 680 -16.8800 -32.1500
2.9267497020e-02 -3.1811814541e-01 -2.5783273908e+00
240 43 42
3 7 526 2.4200 -82.9100 0 679 28.3200 -22.1800 1 682 -1.6900 -31.3700
7.2091363664e-02 -3.1077147150e-01 -2.5924789493e+00
242 42 33
3 7 529 12.1100 -80.6300 0 680 37.4200 -20.0800 1 481 9.4500 -30.8500
7.2085501421e-02 -3.1023943502e-01 -2.5910208555e+00
242 42 33
2 7 530 12.1100 -80.6300 0 681 37.4200 -20.0800
8.9481729672e-02 -2.9558210720e-01 -2.5919649839e+00
56 9 0
2 7 533 15.8700 -77.1700 0 683 40.9200 -16.5300
-7.1917334845e-01 -1.1925246722e-01 -2.4574408289e+00
189 118 137
3 7 544 -173.1100 -42.1700 0 691 -152.2300 11.8800 1 698 -180.4200 24.5400
1.0033295072e+00 2.3356455415e-01 -3.0401848796e+00
53 52 49
2 7 560 193.2300 40.1000 0 922 181.6000 71.8200
6.1977579537e-01 4.0846496049e-01 -2.7565143401e+00
211 225 223
2 7 573 125.9200 79.9800 0 712 119.1100 119.6300
-7.0650820401e-01 4.8963065889e-01 -2.5138508808e+00
42 24 21
2 7 579 -169.1500 96.7100 0 720 -155.9800 134.0800
-7.2322601674e-01 5.2250886968e-01 -2.5338018701e+00
99 80 78
2 7 584 -171.7800 103.2700 0 722 -159.3000 137.8500
-8.5397441505e-02 6.2344414731e-01 -2.6228469386e+00
141 140 135
3 7 588 -27.6000 127.4500 0 725 -24.8700 159.4200 1 734 -13.9600 172.7600
-8.5397441505e-02 6.2344414731e-01 -2.6228469386e+00
141 140 135
3 7 589 -27.6000 127.4500 0 726 -24.8700 159.4200 1 733 -13.9600 172.7600
-1.1042077067e-01 -8.4048249745e-01 -2.6356743258e+00
61 38 1
3 7 631 -25.5100 -196.1000 0 809 12.4700 -148.2000 1 808 -40.8000 -161.4200
2.0152823196e+00 -1.3121729356e+00 -4.6857644493e+00
83 79 81
2 7 640 276.6500 -178.0600 0 753 285.3100 -202.6100
-4.6327546164e-01 -7.3719004978e-01 -2.6877957338e+00
41 73 48
3 7 642 -101.3700 -172.0700 0 818 -73.9400 -135.4500 1 832 -117.6000 -132.2600
-6.4445911219e-01 -7.1455207315e-01 -2.6840277849e+00
154 30 59
2 7 644 -140.0300 -167.5200 1 836 -157.5100 -124.4400
1.4146963750e-01 -7.2210601527e-01 -2.7451090588e+00
209 54 37
2 7 645 29.3500 -164.6500 1 831 26.9700 -136.3000
-6.5007293022e-01 -6.4608870482e-01 -2.6626314523e+00
155 30 60
2 7 647 -142.9400 -153.9500 0 630 -120.1000 -118.6700
1.5687233801e+00 -1.1257647338e+00 -4.9205221479e+00
99 85 91
2 7 652 209.3100 -149.2600 1 755 276.4900 -222.6800
1.5687233801e+00 -1.1257647338e+00 -4.9205221479e+00
99 85 91
2 7 653 209.3100 -149.2600 1 756 276.4900 -222.6800
-4.8103806568e-01 -5.9605839410e-01 -2.6427001382e+00
107 164 113
2 7 656 -107.6800 -143.7600 1 854 -122.5900 -97.4400
7.5377415180e-02 -5.6778214455e-01 -2.6771574984e+00
154 122 119
3 7 661 14.3400 -134.9900 0 837 44.4500 -81.5900 1 857 10.5000 -96.5900
-6.6645792746e-01 -4.6693301924e-01 -2.5934043063e+00
149 42 81
3 7 669 -151.2500 -117.7200 0 840 -129.5000 -74.7000 1 883 -164.9000 -63.6400
-4.1269270685e-02 -4.7202989609e-01 -2.6102809013e+00
21 20 16
3 7 671 -12.5400 -116.6900 0 843 16.6900 -60.0600 1 873 -19.5400 -70.2300
-4.1273745376e-02 -4.7177839941e-01 -2.6096288323e+00
21 20 16
3 7 672 -12.5400 -116.6900 0 844 16.6900 -60.0600 1 643 -19.5600 -70.0300
-8.4171566818e-02 -4.5268635154e-01 -2.5920144049e+00
208 209 200
3 7 674 -22.4900 -113.2800 0 850 6.4100 -55.8400 1 878 -30.4600 -64.4300
3.4780006529e-02 -4.5591353498e-01 -2.6304388178e+00
19 15 16
2 7 675 4.6100 -112.2000 1 644 0.0600 -67.4300
3.4780006529e-02 -4.5591353498e-01 -2.6304388178e+00
19 15 16
2 7 676 4.6100 -112.2000 1 645 0.0600 -67.4300
-5.7404869858e-02 -4.4845012084e-01 -2.5947267017e+00
212 217 212
3 7 677 -16.4300 -112.1400 0 851 12.4000 -54.3400 1 880 -23.7900 -63.6500
-5.7404869858e-02 -4.4845012084e-01 -2.5947267017e+00
212 217 212
3 7 678 -16.4300 -112.1400 0 852 12.4000 -54.3400 1 881 -23.7900 -63.6500
-7.4378160609e-02 -4.4034189686e-01 -2.5886618024e+00
18 17 23
3 7 680 -20.3500 -110.6300 0 653 8.3100 -52.7000 1 648 -28.0800 -61.2100
-7.4378160609e-02 -4.4034189686e-01 -2.5886618024e+00
18 17 23
3 7 681 -20.3500 -110.6300 0 654 8.3100 -52.7000 1 649 -28.0800 -61.2100
1.7088219815e+00 -8.5724186724e-01 -5.2120844890e+00
122 118 123
2 7 684 216.3400 -109.3400 1 777 287.1800 -182.9600
2.0799521859e-02 -4.3977466552e-01 -2.6135292020e+00
214 214 207
3 7 685 1.2100 -109.2600 0 855 29.6400 -51.3100 1 647 -3.7600 -62.8200
-1.1790913898e-01 -4.2992381646e-01 -2.5736288433e+00
211 211 203
2 7 687 -30.5700 -108.8300 0 856 -1.6900 -50.7300
-1.7289475121e-02 -4.3115696125e-01 -2.6024409042e+00
17 20 23
3 7 690 -7.4400 -107.8900 0 858 20.8900 -49.8500 1 889 -13.4000 -59.9300
-8.9930529499e-02 -4.2531446754e-01 -2.5800203247e+00
209 215 208
3 7 691 -24.1100 -107.4300 0 859 4.5800 -49.3200 1 893 -32.2100 -57.1100
-8.9930529499e-02 -4.2531446754e-01 -2.5800203247e+00
209 215 208
3 7 692 -24.1100 -107.4300 0 860 4.5800 -49.3200 1 894 -32.2100 -57.1100
-1.0721842774e-02 -4.1614141415e-01 -2.6017152423e+00
221 224 220
3 7 693 -6.1000 -104.3800 0 864 22.1000 -46.3600 1 896 -11.7500 -56.3000
5.2888855717e-02 -4.0922842131e-01 -2.6151646148e+00
215 222 219
3 7 700 7.9200 -102.3100 0 665 36.0000 -43.8300 1 658 4.7100 -55.5100
8.5113298129e-02 -4.0314150106e-01 -2.6272476748e+00
216 219 215
3 7 701 15.5200 -100.3400 0 870 42.6700 -42.4300 1 898 12.8300 -54.7300
-9.1966192348e-02 -3.8497092713e-01 -2.5647473590e+00
213 220 214
3 7 704 -25.0800 -98.8900 0 873 3.0000 -39.2700 1 901 -32.7700 -46.5800
2.6128428414e-02 -3.7072622051e-01 -2.5951167547e+00
224 227 223
3 7 706 2.0000 -94.3800 0 874 28.9300 -34.7700 1 666 -2.3400 -45.1400
-9.2586359929e-02 -3.5907065261e-01 -2.5561097206e+00
208 212 206
2 7 709 -25.6500 -93.1600 0 877 2.3900 -33.0600
7.0984183128e-02 -3.5280801942e-01 -2.6039125027e+00
25 19 16
3 7 714 11.9600 -89.8900 0 880 38.3500 -30.2300 1 672 9.2200 -41.3900
-3.0190753317e-02 -3.2548084581e-01 -2.5627379172e+00
206 214 208
2 7 720 -11.4400 -85.2500 1 679 -16.8800 -32.1500
9.0493927075e-02 -3.2230573553e-01 -2.6044474482e+00
115 7 5
3 7 722 16.2900 -82.8300 0 1160 41.8000 -23.2700 1 913 14.2100 -34.0000
9.0493927075e-02 -3.2230573553e-01 -2.6044474482e+00
115 7 5
3 7 723 16.2900 -82.8300 0 1161 41.8000 -23.2700 1 914 14.2100 -34.0000
2.6106940019e+00 -6.6173950827e-01 -5.4294804775e+00
58 57 58
2 7 724 312.1200 -79.7500 0 1071 292.0600 -118.4100
6.9764215275e-01 2.6316078265e-02 -2.8622397845e+00
117 128 100
3 7 750 141.3800 -1.9300 0 909 143.3500 42.9000 1 699 163.3000 29.7500
6.7043609914e-01 6.9962693191e-02 -2.8310320378e+00
163 176 162
3 7 753 136.3200 7.3800 0 916 138.4200 52.7300 1 701 157.2300 41.3200
6.7828073708e-01 9.6289437744e-02 -2.8107840490e+00
192 204 195
3 7 754 138.5600 13.1400 0 1199 139.9700 59.2200 1 938 159.0700 48.5200
6.3306751308e-01 3.5947580098e-01 -2.7638021501e+00
171 183 169
3 7 762 128.9300 69.5000 0 938 123.3100 110.2400 1 716 148.4500 108.5000
-2.2854668146e-02 3.9971800822e-01 -2.6519859178e+00
153 141 132
2 7 766 -12.5200 77.6800 0 942 -6.4000 117.0800
-2.2854668146e-02 3.9971800822e-01 -2.6519859178e+00
153 141 132
2 7 767 -12.5200 77.6800 0 943 -6.4000 117.0800
2.1160233100e-01 3.9273459404e-01 -2.6381675032e+00
28 36 45
3 7 768 39.6900 77.9800 0 948 42.7800 121.2600 1 950 50.7800 125.7800
-5.1689742489e-02 4.3874148672e-01 -2.6341073637e+00
123 119 115
2 7 772 -19.3700 86.6300 0 952 -13.2100 125.5400
-6.9517199093e-01 4.4206610339e-01 -2.5038424931e+00
58 36 32
2 7 775 -167.2500 86.4500 0 715 -153.1100 126.1200
-2.4368137656e-01 4.7672760741e-01 -2.6118817598e+00
89 81 76
2 7 780 -62.3800 94.4000 1 1279 -51.0100 142.9900
-2.3738035809e-01 5.5339018883e-01 -2.6198247742e+00
136 133 125
2 7 783 -60.9800 111.0700 1 961 -48.0100 157.6300
-6.8055591140e-01 6.1053875125e-01 -2.5202596859e+00
136 122 126
2 7 784 -163.4500 123.8500 0 961 -151.3500 156.8000
-2.7813686728e-01 -9.0839324032e-01 -2.5539045833e+00
16 16 15
3 7 814 -63.7900 -216.5600 0 1027 -24.8500 -167.5200 1 1056 -87.8500 -175.6900
-3.2340062849e-01 -8.5187666234e-01 -2.5577612911e+00
153 184 220
2 7 821 -74.2700 -203.8700 1 1069 -97.5200 -160.5500
1.1449211522e-01 -8.2786348716e-01 -2.5984806780e+00
178 200 84
3 7 836 24.0200 -195.1200 0 1060 65.4100 -136.9600 1 1068 13.7500 -160.8100
9.9357507568e-02 -8.2489335608e-01 -2.5983687174e+00
169 189 85
3 7 837 20.6600 -194.5100 0 1061 61.7900 -136.7500 1 1070 9.9100 -159.8700
-3.8257747831e-01 -6.5672778160e-01 -2.6955972169e+00
89 126 90
3 7 884 -84.3700 -154.5200 0 1079 -57.3600 -115.0300 1 843 -97.3200 -114.2500
-4.6431702006e-01 -5.8903702997e-01 -2.6399607719e+00
23 70 32
3 7 893 -104.4900 -142.5700 0 1085 -78.4600 -99.6900 1 1124 -118.5700 -95.6800
-5.5469575456e-02 -5.8515509700e-01 -2.6419133611e+00
156 115 107
3 7 894 -14.6900 -140.5500 0 1098 16.4000 -87.6300 1 847 -23.0300 -98.7700
-3.3737537232e-02 -5.8138364238e-01 -2.6458648797e+00
167 128 128
3 7 896 -9.9400 -139.5100 0 1104 21.1600 -86.2600 1 850 -17.4700 -98.2100
-1.3966408141e-02 -5.7860254569e-01 -2.6498311957e+00
168 133 128
3 7 897 -5.5000 -138.6800 0 1105 25.4600 -85.2600 1 849 -12.4800 -97.8000
-4.5229914784e-01 -5.6906246184e-01 -2.6398075925e+00
28 60 29
3 7 900 -101.9600 -138.0900 0 1087 -76.1100 -94.7100 1 862 -115.6000 -91.2000
3.9083866671e-02 -5.7167514246e-01 -2.6634041453e+00
165 133 134
3 7 904 6.1900 -136.4200 0 1109 36.9800 -82.8900 1 855 1.0700 -96.8800
9.4736647680e-02 -5.6498566538e-01 -2.6800006164e+00
178 140 137
3 7 907 18.5500 -134.1100 0 838 48.7000 -80.5900 1 858 15.2700 -96.1700
-9.7091392200e-02 -4.6386093512e-01 -2.5901328715e+00
31 27 26
2 7 925 -25.3800 -115.8600 1 875 -33.9000 -66.8900
-9.7643480149e-02 -4.6383962209e-01 -2.5922241494e+00
31 27 26
3 7 926 -25.3800 -115.8600 0 848 3.6200 -58.9000 1 876 -33.9000 -66.8900
8.9522319943e-02 -4.7040563270e-01 -2.6495028170e+00
212 218 212
3 7 930 16.9600 -114.5300 0 1124 45.2300 -58.3200 1 872 13.9300 -72.0600
-6.6987782435e-01 -4.4785709835e-01 -2.5877935874e+00
25 107 130
2 7 931 -152.3900 -113.6300 1 1145 -165.8000 -58.9400
1.6104008033e+00 -8.7383723254e-01 -5.1699249036e+00
94 81 85
2 7 933 206.0100 -112.4600 1 1044 274.4300 -184.8700
-2.7460010541e-02 -4.4397357732e-01 -2.6029524962e+00
212 215 210
3 7 934 -9.6500 -110.7300 0 853 19.0100 -53.0200 1 884 -16.0700 -63.0600
-4.2998534201e-03 -4.4030023976e-01 -2.6077980862e+00
210 212 211
2 7 937 -4.3500 -109.6800 0 1129 24.0400 -51.8900
-6.6583577940e-02 -4.2356269936e-01 -2.5865935457e+00
210 211 210
3 7 941 -18.7500 -106.8200 0 1131 9.7200 -48.6500 1 895 -26.1100 -57.0700
8.8182880485e-02 -4.2769801991e-01 -2.6348456951e+00
178 183 176
2 7 946 16.3800 -105.6200 0 1133 43.8800 -48.1400
8.8365296228e-02 -4.2782285545e-01 -2.6359573851e+00
178 183 176
3 7 947 16.3800 -105.6200 0 1134 43.8800 -48.1400 1 1140 13.7500 -61.1900
-3.0498736576e-02 -4.2011730609e-01 -2.5957580780e+00
217 216 214
3 7 948 -10.5300 -105.6100 0 1135 17.7500 -47.4800 1 897 -16.8600 -56.8000
3.8161043187e-02 -4.2206522174e-01 -2.6179097433e+00
25 16 23
3 7 949 5.1700 -105.1500 0 862 32.8000 -47.2500 1 890 0.8500 -58.6600
3.8161043187e-02 -4.2206522174e-01 -2.6179097433e+00
25 16 23
3 7 950 5.1700 -105.1500 0 863 32.8000 -47.2500 1 891 0.8500 -58.6600
1.1839726399e-03 -4.0572240374e-01 -2.6029734982e+00
61 61 58
2 7 955 -3.5500 -101.9900 0 1138 24.4700 -43.8200
1.1839726399e-03 -4.0572240374e-01 -2.6029734982e+00
61 61 58
2 7 956 -3.5500 -101.9900 0 1137 24.4700 -43.8200
2.1036237068e-02 -3.3366686295e-01 -2.5831443782e+00
114 15 10
3 7 972 0.5300 -86.2800 0 1153 26.9700 -26.1000 1 1160 -3.6900 -35.4400
-2.3811952010e-03 -3.3248356586e-01 -2.5774301822e+00
52 15 13
2 7 973 -4.7800 -86.2700 1 912 -9.6500 -34.7900
-1.3722831079e-01 -3.2447264792e-01 -2.5310320591e+00
19 18 19
3 7 974 -36.2400 -86.2100 0 1158 -8.9700 -24.7600 1 916 -44.6900 -29.8400
-1.3722831079e-01 -3.2447264792e-01 -2.5310320591e+00
19 18 19
3 7 975 -36.2400 -86.2100 0 1157 -8.9700 -24.7600 1 917 -44.6900 -29.8400
4.7248429815e-02 -3.2961264956e-01 -2.5894162720e+00
72 8 5
3 7 976 6.4500 -85.0400 0 1156 32.7000 -24.9400 1 911 3.0000 -34.9100
-1.2126252760e-02 -3.1080488245e-01 -2.5625066806e+00
216 213 209
2 7 979 -7.3300 -81.8000 1 1163 -12.3400 -28.6700
4.2180445406e-01 -3.0486867166e-01 -2.4903203017e+00
106 179 85
2 7 982 93.4300 -79.8100 1 1175 95.4800 -24.8400
1.8362441834e+00 -6.3492953293e-01 -5.4335814266e+00
126 113 114
2 7 983 223.6100 -79.2500 1 1085 297.0300 -153.6000
4.6030287399e-02 -2.9969210729e-01 -2.5800824200e+00
98 6 0
2 7 985 6.1300 -78.5300 1 918 2.6600 -27.1900
-6.7291033123e-01 -2.8220518582e-01 -2.5280209022e+00
84 170 187
2 7 986 -157.7100 -78.2700 0 1151 -136.2800 -28.8600
1.9076991501e+00 -6.1175282298e-01 -5.4549805068e+00
137 126 132
2 7 987 231.0100 -76.0500 1 814 305.9000 -150.9000
1.8430508521e+00 -6.0838394169e-01 -5.4589782151e+00
90 69 71
2 7 989 223.4200 -75.8800 1 1087 297.1200 -150.2000
1.8948620614e+00 -5.1828973006e-01 -5.5438198769e+00
123 111 117
2 7 998 226.4400 -64.4000 1 828 300.9000 -139.1600
-6.8420836045e-01 -1.9749879848e-01 -2.4924392369e+00
78 171 197
2 7 1001 -162.7500 -59.7000 0 1166 -141.5700 -7.4700
-3.4092035335e-01 -1.7420635907e-01 -2.5713974546e+00
194 209 199
3 7 1008 -82.2500 -51.9300 0 1172 -60.6300 0.6100 1 1198 -87.4400 4.2900
8.0795702186e-01 -4.6859615982e-02 -3.0561349370e+00
74 74 59
2 7 1024 156.4100 -16.0200 1 924 185.3200 2.2000
4.5625678908e-01 2.2761595517e-03 -2.9701128651e+00
62 106 15
2 7 1031 89.2500 -7.9400 1 929 108.9100 17.9300
9.2489125881e-01 1.9339440763e-02 -3.0069126496e+00
213 218 213
3 7 1033 181.1300 -2.3600 0 906 177.9400 35.6400 1 930 211.5000 18.7900
7.8950790273e-01 1.0630888640e-01 -2.9488419729e+00
93 91 80
2 7 1040 155.9500 14.8300 0 915 153.5000 52.7900
9.6510709208e-01 1.9380059869e-01 -2.9921398076e+00
178 173 176
2 7 1047 188.6600 32.7200 1 939 219.5800 55.8400
5.9781905309e-01 3.1271948272e-01 -2.8029109393e+00
138 155 138
2 7 1058 120.6400 58.5000 1 1236 140.4900 95.1300
6.1844720455e-01 3.4764182497e-01 -2.7654370905e+00
210 224 216
2 7 1061 125.9200 66.8000 1 1242 145.2300 105.6900
6.0726230045e-01 3.5880762983e-01 -2.7708567078e+00
162 179 161
3 7 1064 123.2600 69.0800 0 937 118.0200 109.3000 1 945 142.5800 107.5000
-7.6355213031e-01 4.0203822434e-01 -2.5518993079e+00
84 71 71
2 7 1069 -179.0800 75.4700 0 1213 -166.3400 111.9000
-6.7838913829e-01 4.4782616298e-01 -2.4959712544e+00
140 120 117
2 7 1078 -164.0500 88.1600 0 1227 -149.6500 128.4300
5.9128531353e-01 5.0139842203e-01 -2.6740240081e+00
129 146 128
3 7 1089 121.7500 102.3800 0 1234 113.6500 143.3200 1 959 138.9700 146.4800
6.0199576800e-01 5.0671155862e-01 -2.6611729790e+00
192 209 199
2 7 1090 124.5200 103.9900 1 1283 141.4900 148.7600
1.0711025518e-01 -5.7694168697e-01 -2.6891845275e+00
91 25 8
3 8 1016 42.8800 -139.4800 0 639 51.5400 -83.3600 1 629 18.4200 -99.4100
-3.6589932486e-03 -4.8232349187e-01 -2.6253162396e+00
214 215 216
3 8 1043 19.0600 -127.4300 0 1123 25.3700 -62.3300 1 871 -9.8100 -73.3300
-1.6378330074e-01 -4.3799105333e-01 -2.6186106038e+00
185 150 131
2 0 18 -12.7800 -56.1200 1 21 -47.8300 -61.4400
-3.2494118104e-01 3.3038467990e-01 -2.6295800090e+00
233 238 241
2 0 22 -68.5800 99.8100 1 31 -70.2400 111.0200
-3.2494118104e-01 3.3038467990e-01 -2.6295800090e+00
233 238 241
2 0 23 -68.5800 99.8100 1 32 -70.2400 111.0200
4.5979928881e-02 -8.5546895166e-01 -2.6170792986e+00
100 76 20
2 0 28 49.7400 -146.2000 1 18 -3.1100 -167.0900
4.0613841238e-01 2.4365171564e-01 -2.6491428542e+00
101 4 0
2 0 63 87.3500 96.3700 1 50 95.7500 92.8100
-1.0246329936e-01 3.9287340653e-01 -2.6707556906e+00
107 95 79
2 0 64 -22.9900 112.1100 1 75 -18.5200 121.6000
-4.3661490535e-01 -4.6071866554e-01 -2.6074452976e+00
43 41 40
2 0 77 -75.3800 -68.2100 1 88 -112.3700 -64.2200
-5.7164519401e-01 -2.0622201997e-01 -2.5193094975e+00
18 20 17
2 0 82 -113.9300 -9.2600 1 126 -144.4200 1.1700
-9.6801615183e-02 4.9830482429e-01 -2.6567223197e+00
180 185 180
2 0 93 -24.4900 133.5000 1 104 -16.3900 144.0300
-4.4902522999e-01 -9.5905544036e-01 -2.4953548589e+00
31 38 40
2 0 101 -65.4300 -184.7400 1 109 -135.0600 -185.3300
-1.8265496756e-01 4.6199915635e-01 -2.6359722093e+00
188 191 182
2 0 128 -41.4000 127.2700 1 142 -36.6300 138.1000
-4.1526056413e-01 -5.7404001995e-01 -2.6591763544e+00
41 35 32
2 0 149 -67.2000 -95.8300 1 166 -105.8300 -93.1400
-4.7425643972e-01 -2.6922658886e-01 -2.5253310554e+00
78 91 73
2 0 159 -89.6800 -20.7800 1 181 -123.3300 -14.8100
-1.5012346991e-01 -2.5409835709e-01 -2.5120823700e+00
190 117 74
2 0 164 -13.8300 -8.0600 1 182 -47.7400 -11.5500
-1.5012346991e-01 -2.5409835709e-01 -2.5120823700e+00
190 117 74
2 0 165 -13.8300 -8.0600 1 183 -47.7400 -11.5500
-1.4045102529e-01 3.3284043202e-01 -2.7262189361e+00
230 240 240
2 0 182 -29.8900 95.4400 1 136 -25.0800 103.7400
-1.6620936265e-02 -8.0413765118e-01 -2.5895476811e+00
232 234 77
2 0 210 34.0600 -135.2300 1 161 -19.3300 -152.9900
-3.6786010747e-01 -5.2816315152e-01 -2.6479814000e+00
27 20 17
2 0 219 -57.4300 -83.7100 1 325 -95.0200 -82.2500
-5.9961334574e-01 -1.5973369368e-01 -2.5165163234e+00
101 173 193
2 0 229 -121.6900 1.3800 1 248 -149.6000 11.3700
2.5710572276e-01 1.1319154923e-01 -2.6850657342e+00
32 58 20
2 0 240 60.3500 64.2000 1 254 60.5700 61.9500
-1.9624362995e-02 -9.3816638841e-01 -2.5235106250e+00
176 137 71
2 0 283 39.9900 -165.9000 1 212 -25.5900 -187.5200
-1.9624362995e-02 -9.3816638841e-01 -2.5235106250e+00
176 137 71
2 0 284 39.9900 -165.9000 1 213 -25.5900 -187.5200
9.7479139241e-01 -5.4226839753e-01 -3.1975278275e+00
112 104 97
2 0 299 197.1900 -74.5500 1 232 219.4700 -109.5300
-4.0336258900e-01 -1.8583889978e-01 -2.5462107075e+00
89 100 87
2 0 323 -74.8900 -1.6400 1 350 -103.6700 3.2100
-3.8841425010e-01 -1.0351984458e-01 -2.6043657661e+00
175 188 202
2 0 327 -73.0600 12.5000 1 358 -94.3500 18.3300
-6.1983728942e-01 3.4865531159e-02 -2.4507534797e+00
200 207 174
2 0 332 -131.4800 48.9600 1 369 -154.8800 60.4500
-4.5093202518e-01 3.3224410635e-01 -2.8688779432e+00
94 183 215
2 0 339 -93.2500 77.2400 1 377 -82.1300 90.1800
2.8030434717e-01 1.8729618967e-01 -2.6945234987e+00
89 0 0
2 0 340 62.1900 78.5300 1 256 66.6900 77.1400
-5.7051208512e-01 1.9344137663e-01 -2.4913990954e+00
228 233 239
2 0 342 -122.1300 81.0800 1 528 -136.2700 91.5200
-1.6045347063e-01 3.1396217732e-01 -2.7845209709e+00
230 130 162
2 0 345 -33.9700 86.6900 1 383 -26.9300 94.6200
4.7264805417e-01 -1.0455677214e+00 -2.5127198733e+00
144 147 135
2 0 401 162.0200 -174.8200 1 285 103.6700 -223.7500
1.8345269790e-01 -9.8556090759e-01 -2.5012397763e+00
40 48 46
2 0 404 91.9200 -170.4400 1 421 25.8000 -203.1400
5.2208520162e-01 -1.0200322320e+00 -2.5370618301e+00
148 151 140
2 0 408 170.3200 -166.8500 1 208 117.6400 -217.4800
-6.9669703929e-02 -9.3444145816e-01 -2.5282151382e+00
58 65 66
2 0 409 27.5900 -166.8800 1 300 -38.0800 -185.6100
1.0079198007e-01 -9.1377261763e-01 -2.5522387388e+00
44 57 57
2 0 417 67.1300 -156.7800 1 302 7.1400 -182.6600
-3.3373850797e-02 -8.7270124352e-01 -2.5997764176e+00
100 111 99
2 0 421 32.4200 -152.8900 1 439 -24.1000 -169.8000
-4.6136198896e-01 -5.2372449428e-01 -2.6280148785e+00
44 39 37
2 0 439 -79.4000 -84.3000 1 327 -117.6600 -79.6800
-6.0196290628e-01 -3.3778934425e-01 -2.5782528096e+00
180 174 131
2 0 456 -117.3500 -42.7700 1 479 -149.0200 -33.2300
-6.1734371045e-01 -2.0801503495e-01 -2.5285424562e+00
204 110 127
2 0 472 -124.7000 -10.5100 1 498 -153.6200 -0.6700
-4.7569501245e-01 -1.0705498234e-01 -2.5602108104e+00
180 82 112
2 0 482 -93.2900 12.8700 1 504 -117.1900 20.4700
-3.3544295467e-01 -9.2180877418e-02 -2.6220282098e+00
189 183 196
2 0 484 -61.2800 14.7800 1 359 -81.0700 19.8200
-3.6396940005e-01 -7.8606424128e-02 -2.6052035035e+00
200 100 129
2 0 485 -68.0900 18.2400 1 361 -88.3300 23.9900
-3.9197109130e-01 3.4894255845e-01 -2.8989241278e+00
225 123 157
2 0 517 -81.5100 79.1900 1 378 -68.3300 91.1900
-6.2485844912e-01 2.8531911421e-01 -2.4758943252e+00
158 167 159
2 0 524 -136.0900 99.3900 1 719 -147.0800 113.1100
-1.4665989866e-01 4.8487604165e-01 -2.6572897447e+00
190 200 196
2 0 531 -34.4600 129.7900 1 542 -27.4600 141.1800
2.2874570368e-01 5.5974577624e-01 -2.6600739517e+00
170 180 173
2 0 536 40.4800 148.5400 1 200 56.3300 159.2800
1.9423645550e-01 5.5649419200e-01 -2.5895969397e+00
146 152 142
2 0 538 35.0300 155.9900 1 390 46.9600 164.6500
-4.7322650662e-01 -1.0481113196e+00 -2.4239430944e+00
107 127 125
2 0 566 -69.4000 -207.6200 1 575 -149.6300 -208.5800
6.0226607285e-01 -8.2575872083e-01 -2.7314629965e+00
145 145 136
2 0 628 166.7000 -125.5500 1 601 139.6400 -165.7700
-4.5352551360e-01 -6.0813686413e-01 -2.6511703701e+00
50 69 45
2 0 633 -75.3400 -104.1400 1 627 -115.7200 -100.8300
-1.5004097058e-01 -1.5030403060e-01 -2.6558735986e+00
198 199 183
2 0 688 -18.5000 4.5800 1 692 -37.9300 4.1700
4.0967875328e-01 2.1593575793e-01 -2.7216950757e+00
119 17 13
2 0 705 86.5500 83.9000 1 519 97.1300 81.4000
2.5863295026e-01 -1.0885338444e+00 -2.4069276661e+00
154 170 169
2 0 763 119.4400 -191.7800 1 746 41.7300 -234.4900
-1.0985760563e-01 -8.4149916358e-01 -2.6285813322e+00
41 33 3
2 0 810 12.4700 -148.2000 1 809 -40.8000 -161.4200
1.5707709029e-02 -8.0143567944e-01 -2.6097706204e+00
62 65 22
2 0 819 40.9400 -134.1000 1 610 -10.2200 -153.0200
2.2158797958e-02 -5.7520337501e-01 -2.6588284682e+00
166 120 115
2 0 834 33.3600 -83.9800 1 851 -3.3100 -97.4400
2.2158797958e-02 -5.7520337501e-01 -2.6588284682e+00
166 120 115
2 0 835 33.3600 -83.9800 1 852 -3.3100 -97.4400
-1.1952337053e-01 -3.8761588973e-01 -2.5576581578e+00
218 220 217
2 0 872 -3.2100 -40.2100 1 903 -39.9200 -46.7200
-4.3612174043e-01 -2.0928998449e-01 -2.2623093051e+00
139 197 199
2 0 899 -84.5500 13.1600 1 696 -135.8200 17.2500
-5.8972010784e-01 3.1009741944e-01 -2.4577290355e+00
230 229 234
2 0 936 -128.8800 106.8700 1 1254 -140.3700 120.5600
-6.2884932730e-01 -7.3286478460e-01 -2.6943275521e+00
201 77 116
2 0 1058 -112.6000 -139.1100 1 834 -153.4900 -129.1800
6.5333992253e-02 -8.0556399900e-01 -2.6045774492e+00
217 235 127
2 0 1064 52.8600 -133.4300 1 811 1.8800 -154.5600
-4.0339940162e-01 -6.6557707782e-01 -2.6910182580e+00
86 125 78
2 0 1074 -61.9300 -117.5700 1 841 -102.5100 -115.8700
9.2804949785e-01 -7.2115631604e-01 -2.5987002353e+00
105 136 60
2 0 1094 240.1100 -87.3200 1 1098 227.1300 -139.9700
3.3314495122e-03 -5.5801376054e-01 -2.7011892894e+00
23 19 15
2 0 1110 27.3600 -82.2300 1 860 -5.6800 -94.6900
-3.3694294935e-03 -4.8256945922e-01 -2.6241647271e+00
215 218 215
2 0 1122 25.3700 -62.3300 1 870 -9.8100 -73.3300
1.3441159681e-02 -3.8025436979e-01 -2.5972469184e+00
54 54 56
2 0 1141 26.2700 -37.0200 1 1152 -5.4500 -47.8500
1.3441159681e-02 -3.8025436979e-01 -2.5972469184e+00
54 54 56
2 0 1142 26.2700 -37.0200 1 1153 -5.4500 -47.8500
-1.3166345468e-01 -3.6605605085e-01 -2.5413932411e+00
211 214 213
2 0 1144 -6.4700 -34.6800 1 1156 -43.4400 -40.5800
-3.4561092689e-02 -3.5176905801e-01 -2.5730841123e+00
218 204 203
2 0 1147 15.0200 -30.8600 1 907 -17.9300 -39.1400
2.1102898740e-02 -3.3388799956e-01 -2.5824468831e+00
126 18 9
2 0 1154 26.9700 -26.1000 1 1161 -3.6900 -35.4400
9.0259036008e-01 3.9557534879e-02 -2.9896351205e+00
213 211 202
2 0 1187 174.2500 40.0000 1 932 206.9600 24.1300
8.6621695484e-01 4.4886029826e-02 -2.9491394438e+00
209 212 207
2 0 1189 169.7300 43.1100 1 1215 199.7600 27.8500
